%!PS-Adobe-3.0 EPSF-3.0
%%Title: /home/jodv/workspace/PB_experiments/results/summarized/abisko_addlearnts1/scripts/../graphs/learnts-1_ecdf_LP pivots.eps
%%Creator: matplotlib version 3.0.3, http://matplotlib.org/
%%CreationDate: Fri Apr 19 21:42:22 2019
%%Orientation: portrait
%%BoundingBox: 75 223 536 568
%%EndComments
%%BeginProlog
/mpldict 8 dict def
mpldict begin
/m { moveto } bind def
/l { lineto } bind def
/r { rlineto } bind def
/c { curveto } bind def
/cl { closepath } bind def
/box {
m
1 index 0 r
0 exch r
neg 0 r
cl
} bind def
/clipbox {
box
clip
newpath
} bind def
%!PS-Adobe-3.0 Resource-Font
%%Title: DejaVu Sans
%%Copyright: Copyright (c) 2003 by Bitstream, Inc. All Rights Reserved. Copyright (c) 2006 by Tavmjong Bah. All Rights Reserved. DejaVu changes are in public domain 
%%Creator: Converted from TrueType to type 3 by PPR
25 dict begin
/_d{bind def}bind def
/_m{moveto}_d
/_l{lineto}_d
/_cl{closepath eofill}_d
/_c{curveto}_d
/_sc{7 -1 roll{setcachedevice}{pop pop pop pop pop pop}ifelse}_d
/_e{exec}_d
/FontName /DejaVuSans def
/PaintType 0 def
/FontMatrix[.001 0 0 .001 0 0]def
/FontBBox[-1021 -463 1793 1232]def
/FontType 3 def
/Encoding [ /space /plus /zero /one /two /three /four /five /six /eight /L /N /P /R /S /a /b /c /d /e /f /g /h /i /l /m /n /o /p /r /s /t /u /v /x ] def
/FontInfo 10 dict dup begin
/FamilyName (DejaVu Sans) def
/FullName (DejaVu Sans) def
/Notice (Copyright (c) 2003 by Bitstream, Inc. All Rights Reserved. Copyright (c) 2006 by Tavmjong Bah. All Rights Reserved. DejaVu changes are in public domain ) def
/Weight (Book) def
/Version (Version 2.35) def
/ItalicAngle 0.0 def
/isFixedPitch false def
/UnderlinePosition -130 def
/UnderlineThickness 90 def
end readonly def
/CharStrings 36 dict dup begin
/.notdef 0 def
/space{318 0 0 0 0 0 _sc
}_d
/plus{838 0 106 0 732 627 _sc
460 627 _m
460 355 _l
732 355 _l
732 272 _l
460 272 _l
460 0 _l
378 0 _l
378 272 _l
106 272 _l
106 355 _l
378 355 _l
378 627 _l
460 627 _l
_cl}_d
/zero{636 0 66 -13 570 742 _sc
318 664 _m
267 664 229 639 203 589 _c
177 539 165 464 165 364 _c
165 264 177 189 203 139 _c
229 89 267 64 318 64 _c
369 64 407 89 433 139 _c
458 189 471 264 471 364 _c
471 464 458 539 433 589 _c
407 639 369 664 318 664 _c
318 742 _m
399 742 461 709 505 645 _c
548 580 570 486 570 364 _c
570 241 548 147 505 83 _c
461 19 399 -13 318 -13 _c
236 -13 173 19 130 83 _c
87 147 66 241 66 364 _c
66 486 87 580 130 645 _c
173 709 236 742 318 742 _c
_cl}_d
/one{636 0 110 0 544 729 _sc
124 83 _m
285 83 _l
285 639 _l
110 604 _l
110 694 _l
284 729 _l
383 729 _l
383 83 _l
544 83 _l
544 0 _l
124 0 _l
124 83 _l
_cl}_d
/two{{636 0 73 0 536 742 _sc
192 83 _m
536 83 _l
536 0 _l
73 0 _l
73 83 _l
110 121 161 173 226 239 _c
290 304 331 346 348 365 _c
380 400 402 430 414 455 _c
426 479 433 504 433 528 _c
433 566 419 598 392 622 _c
365 646 330 659 286 659 _c
255 659 222 653 188 643 _c
154 632 117 616 78 594 _c
78 694 _l
118 710 155 722 189 730 _c
223 738 255 742 284 742 _c
}_e{359 742 419 723 464 685 _c
509 647 532 597 532 534 _c
532 504 526 475 515 449 _c
504 422 484 390 454 354 _c
446 344 420 317 376 272 _c
332 227 271 164 192 83 _c
_cl}_e}_d
/three{{636 0 76 -13 556 742 _sc
406 393 _m
453 383 490 362 516 330 _c
542 298 556 258 556 212 _c
556 140 531 84 482 45 _c
432 6 362 -13 271 -13 _c
240 -13 208 -10 176 -4 _c
144 1 110 10 76 22 _c
76 117 _l
103 101 133 89 166 81 _c
198 73 232 69 268 69 _c
330 69 377 81 409 105 _c
441 129 458 165 458 212 _c
458 254 443 288 413 312 _c
383 336 341 349 287 349 _c
}_e{202 349 _l
202 430 _l
291 430 _l
339 430 376 439 402 459 _c
428 478 441 506 441 543 _c
441 580 427 609 401 629 _c
374 649 336 659 287 659 _c
260 659 231 656 200 650 _c
169 644 135 635 98 623 _c
98 711 _l
135 721 170 729 203 734 _c
235 739 266 742 296 742 _c
370 742 429 725 473 691 _c
517 657 539 611 539 553 _c
539 513 527 479 504 451 _c
481 423 448 403 406 393 _c
_cl}_e}_d
/four{636 0 49 0 580 729 _sc
378 643 _m
129 254 _l
378 254 _l
378 643 _l
352 729 _m
476 729 _l
476 254 _l
580 254 _l
580 172 _l
476 172 _l
476 0 _l
378 0 _l
378 172 _l
49 172 _l
49 267 _l
352 729 _l
_cl}_d
/five{{636 0 77 -13 549 729 _sc
108 729 _m
495 729 _l
495 646 _l
198 646 _l
198 467 _l
212 472 227 476 241 478 _c
255 480 270 482 284 482 _c
365 482 429 459 477 415 _c
525 370 549 310 549 234 _c
549 155 524 94 475 51 _c
426 8 357 -13 269 -13 _c
238 -13 207 -10 175 -6 _c
143 -1 111 6 77 17 _c
77 116 _l
106 100 136 88 168 80 _c
199 72 232 69 267 69 _c
}_e{323 69 368 83 401 113 _c
433 143 450 183 450 234 _c
450 284 433 324 401 354 _c
368 384 323 399 267 399 _c
241 399 214 396 188 390 _c
162 384 135 375 108 363 _c
108 729 _l
_cl}_e}_d
/six{{636 0 70 -13 573 742 _sc
330 404 _m
286 404 251 388 225 358 _c
199 328 186 286 186 234 _c
186 181 199 139 225 109 _c
251 79 286 64 330 64 _c
374 64 409 79 435 109 _c
461 139 474 181 474 234 _c
474 286 461 328 435 358 _c
409 388 374 404 330 404 _c
526 713 _m
526 623 _l
501 635 476 644 451 650 _c
425 656 400 659 376 659 _c
310 659 260 637 226 593 _c
}_e{192 549 172 482 168 394 _c
187 422 211 444 240 459 _c
269 474 301 482 336 482 _c
409 482 467 459 509 415 _c
551 371 573 310 573 234 _c
573 159 550 99 506 54 _c
462 9 403 -13 330 -13 _c
246 -13 181 19 137 83 _c
92 147 70 241 70 364 _c
70 479 97 571 152 639 _c
206 707 280 742 372 742 _c
396 742 421 739 447 735 _c
472 730 498 723 526 713 _c
_cl}_e}_d
/eight{{636 0 68 -13 568 742 _sc
318 346 _m
271 346 234 333 207 308 _c
180 283 167 249 167 205 _c
167 161 180 126 207 101 _c
234 76 271 64 318 64 _c
364 64 401 76 428 102 _c
455 127 469 161 469 205 _c
469 249 455 283 429 308 _c
402 333 365 346 318 346 _c
219 388 _m
177 398 144 418 120 447 _c
96 476 85 511 85 553 _c
85 611 105 657 147 691 _c
188 725 245 742 318 742 _c
}_e{390 742 447 725 489 691 _c
530 657 551 611 551 553 _c
551 511 539 476 515 447 _c
491 418 459 398 417 388 _c
464 377 501 355 528 323 _c
554 291 568 251 568 205 _c
568 134 546 80 503 43 _c
459 5 398 -13 318 -13 _c
237 -13 175 5 132 43 _c
89 80 68 134 68 205 _c
68 251 81 291 108 323 _c
134 355 171 377 219 388 _c
183 544 _m
183 506 194 476 218 455 _c
}_e{242 434 275 424 318 424 _c
360 424 393 434 417 455 _c
441 476 453 506 453 544 _c
453 582 441 611 417 632 _c
393 653 360 664 318 664 _c
275 664 242 653 218 632 _c
194 611 183 582 183 544 _c
_cl}_e}_d
/L{557 0 98 0 552 729 _sc
98 729 _m
197 729 _l
197 83 _l
552 83 _l
552 0 _l
98 0 _l
98 729 _l
_cl}_d
/N{748 0 98 0 650 729 _sc
98 729 _m
231 729 _l
554 119 _l
554 729 _l
650 729 _l
650 0 _l
517 0 _l
194 610 _l
194 0 _l
98 0 _l
98 729 _l
_cl}_d
/P{603 0 98 0 569 729 _sc
197 648 _m
197 374 _l
321 374 _l
367 374 402 385 427 409 _c
452 433 465 467 465 511 _c
465 555 452 588 427 612 _c
402 636 367 648 321 648 _c
197 648 _l
98 729 _m
321 729 _l
402 729 464 710 506 673 _c
548 636 569 582 569 511 _c
569 439 548 384 506 348 _c
464 311 402 293 321 293 _c
197 293 _l
197 0 _l
98 0 _l
98 729 _l
_cl}_d
/R{{695 0 98 0 666 729 _sc
444 342 _m
465 334 486 319 506 296 _c
526 272 546 240 566 199 _c
666 0 _l
560 0 _l
467 187 _l
443 235 419 268 397 284 _c
374 300 343 308 304 308 _c
197 308 _l
197 0 _l
98 0 _l
98 729 _l
321 729 _l
404 729 466 711 507 677 _c
548 642 569 589 569 519 _c
569 473 558 434 537 404 _c
515 374 484 353 444 342 _c
197 648 _m
197 389 _l
321 389 _l
}_e{368 389 404 400 428 422 _c
452 444 465 476 465 519 _c
465 561 452 593 428 615 _c
404 637 368 648 321 648 _c
197 648 _l
_cl}_e}_d
/S{{635 0 66 -13 579 742 _sc
535 705 _m
535 609 _l
497 627 462 640 429 649 _c
395 657 363 662 333 662 _c
279 662 237 651 208 631 _c
179 610 165 580 165 542 _c
165 510 174 485 194 469 _c
213 452 250 439 304 429 _c
364 417 _l
437 403 491 378 526 343 _c
561 307 579 260 579 201 _c
579 130 555 77 508 41 _c
460 5 391 -13 300 -13 _c
265 -13 228 -9 189 -2 _c
}_e{150 5 110 16 69 32 _c
69 134 _l
109 111 148 94 186 83 _c
224 71 262 66 300 66 _c
356 66 399 77 430 99 _c
460 121 476 152 476 194 _c
476 230 465 258 443 278 _c
421 298 385 313 335 323 _c
275 335 _l
201 349 148 372 115 404 _c
82 435 66 478 66 534 _c
66 598 88 649 134 686 _c
179 723 242 742 322 742 _c
356 742 390 739 426 733 _c
461 727 497 717 535 705 _c
}_e{_cl}_e}_d
/a{{613 0 60 -13 522 560 _sc
343 275 _m
270 275 220 266 192 250 _c
164 233 150 205 150 165 _c
150 133 160 107 181 89 _c
202 70 231 61 267 61 _c
317 61 357 78 387 114 _c
417 149 432 196 432 255 _c
432 275 _l
343 275 _l
522 312 _m
522 0 _l
432 0 _l
432 83 _l
411 49 385 25 355 10 _c
325 -5 287 -13 243 -13 _c
187 -13 142 2 109 33 _c
76 64 60 106 60 159 _c
}_e{60 220 80 266 122 298 _c
163 329 224 345 306 345 _c
432 345 _l
432 354 _l
432 395 418 427 391 450 _c
364 472 326 484 277 484 _c
245 484 215 480 185 472 _c
155 464 127 453 100 439 _c
100 522 _l
132 534 164 544 195 550 _c
226 556 256 560 286 560 _c
365 560 424 539 463 498 _c
502 457 522 395 522 312 _c
_cl}_e}_d
/b{{635 0 91 -13 580 760 _sc
487 273 _m
487 339 473 390 446 428 _c
418 466 381 485 334 485 _c
286 485 249 466 222 428 _c
194 390 181 339 181 273 _c
181 207 194 155 222 117 _c
249 79 286 61 334 61 _c
381 61 418 79 446 117 _c
473 155 487 207 487 273 _c
181 464 _m
199 496 223 520 252 536 _c
281 552 316 560 356 560 _c
422 560 476 533 518 481 _c
559 428 580 359 580 273 _c
}_e{580 187 559 117 518 65 _c
476 13 422 -13 356 -13 _c
316 -13 281 -5 252 10 _c
223 25 199 49 181 82 _c
181 0 _l
91 0 _l
91 760 _l
181 760 _l
181 464 _l
_cl}_e}_d
/c{{550 0 55 -13 488 560 _sc
488 526 _m
488 442 _l
462 456 437 466 411 473 _c
385 480 360 484 334 484 _c
276 484 230 465 198 428 _c
166 391 150 339 150 273 _c
150 206 166 154 198 117 _c
230 80 276 62 334 62 _c
360 62 385 65 411 72 _c
437 79 462 90 488 104 _c
488 21 _l
462 9 436 0 410 -5 _c
383 -10 354 -13 324 -13 _c
242 -13 176 12 128 64 _c
}_e{79 115 55 185 55 273 _c
55 362 79 432 128 483 _c
177 534 244 560 330 560 _c
358 560 385 557 411 551 _c
437 545 463 537 488 526 _c
_cl}_e}_d
/d{{635 0 55 -13 544 760 _sc
454 464 _m
454 760 _l
544 760 _l
544 0 _l
454 0 _l
454 82 _l
435 49 411 25 382 10 _c
353 -5 319 -13 279 -13 _c
213 -13 159 13 117 65 _c
75 117 55 187 55 273 _c
55 359 75 428 117 481 _c
159 533 213 560 279 560 _c
319 560 353 552 382 536 _c
411 520 435 496 454 464 _c
148 273 _m
148 207 161 155 188 117 _c
215 79 253 61 301 61 _c
}_e{348 61 385 79 413 117 _c
440 155 454 207 454 273 _c
454 339 440 390 413 428 _c
385 466 348 485 301 485 _c
253 485 215 466 188 428 _c
161 390 148 339 148 273 _c
_cl}_e}_d
/e{{615 0 55 -13 562 560 _sc
562 296 _m
562 252 _l
149 252 _l
153 190 171 142 205 110 _c
238 78 284 62 344 62 _c
378 62 412 66 444 74 _c
476 82 509 95 541 113 _c
541 28 _l
509 14 476 3 442 -3 _c
408 -9 373 -13 339 -13 _c
251 -13 182 12 131 62 _c
80 112 55 181 55 268 _c
55 357 79 428 127 481 _c
175 533 241 560 323 560 _c
397 560 455 536 498 489 _c
}_e{540 441 562 377 562 296 _c
472 322 _m
471 371 457 410 431 440 _c
404 469 368 484 324 484 _c
274 484 234 469 204 441 _c
174 413 156 373 152 322 _c
472 322 _l
_cl}_e}_d
/f{352 0 23 0 371 760 _sc
371 760 _m
371 685 _l
285 685 _l
253 685 230 678 218 665 _c
205 652 199 629 199 595 _c
199 547 _l
347 547 _l
347 477 _l
199 477 _l
199 0 _l
109 0 _l
109 477 _l
23 477 _l
23 547 _l
109 547 _l
109 585 _l
109 645 123 690 151 718 _c
179 746 224 760 286 760 _c
371 760 _l
_cl}_d
/g{{635 0 55 -207 544 560 _sc
454 280 _m
454 344 440 395 414 431 _c
387 467 349 485 301 485 _c
253 485 215 467 188 431 _c
161 395 148 344 148 280 _c
148 215 161 165 188 129 _c
215 93 253 75 301 75 _c
349 75 387 93 414 129 _c
440 165 454 215 454 280 _c
544 68 _m
544 -24 523 -93 482 -139 _c
440 -184 377 -207 292 -207 _c
260 -207 231 -204 203 -200 _c
175 -195 147 -188 121 -178 _c
}_e{121 -91 _l
147 -105 173 -115 199 -122 _c
225 -129 251 -133 278 -133 _c
336 -133 380 -117 410 -87 _c
439 -56 454 -10 454 52 _c
454 96 _l
435 64 411 40 382 24 _c
353 8 319 0 279 0 _c
211 0 157 25 116 76 _c
75 127 55 195 55 280 _c
55 364 75 432 116 483 _c
157 534 211 560 279 560 _c
319 560 353 552 382 536 _c
411 520 435 496 454 464 _c
454 547 _l
544 547 _l
}_e{544 68 _l
_cl}_e}_d
/h{634 0 91 0 549 760 _sc
549 330 _m
549 0 _l
459 0 _l
459 327 _l
459 379 448 417 428 443 _c
408 469 378 482 338 482 _c
289 482 251 466 223 435 _c
195 404 181 362 181 309 _c
181 0 _l
91 0 _l
91 760 _l
181 760 _l
181 462 _l
202 494 227 519 257 535 _c
286 551 320 560 358 560 _c
420 560 468 540 500 501 _c
532 462 549 405 549 330 _c
_cl}_d
/i{278 0 94 0 184 760 _sc
94 547 _m
184 547 _l
184 0 _l
94 0 _l
94 547 _l
94 760 _m
184 760 _l
184 646 _l
94 646 _l
94 760 _l
_cl}_d
/l{278 0 94 0 184 760 _sc
94 760 _m
184 760 _l
184 0 _l
94 0 _l
94 760 _l
_cl}_d
/m{{974 0 91 0 889 560 _sc
520 442 _m
542 482 569 511 600 531 _c
631 550 668 560 711 560 _c
767 560 811 540 842 500 _c
873 460 889 403 889 330 _c
889 0 _l
799 0 _l
799 327 _l
799 379 789 418 771 444 _c
752 469 724 482 686 482 _c
639 482 602 466 575 435 _c
548 404 535 362 535 309 _c
535 0 _l
445 0 _l
445 327 _l
445 379 435 418 417 444 _c
398 469 369 482 331 482 _c
}_e{285 482 248 466 221 435 _c
194 404 181 362 181 309 _c
181 0 _l
91 0 _l
91 547 _l
181 547 _l
181 462 _l
201 495 226 520 255 536 _c
283 552 317 560 357 560 _c
397 560 430 550 458 530 _c
486 510 506 480 520 442 _c
_cl}_e}_d
/n{634 0 91 0 549 560 _sc
549 330 _m
549 0 _l
459 0 _l
459 327 _l
459 379 448 417 428 443 _c
408 469 378 482 338 482 _c
289 482 251 466 223 435 _c
195 404 181 362 181 309 _c
181 0 _l
91 0 _l
91 547 _l
181 547 _l
181 462 _l
202 494 227 519 257 535 _c
286 551 320 560 358 560 _c
420 560 468 540 500 501 _c
532 462 549 405 549 330 _c
_cl}_d
/o{612 0 55 -13 557 560 _sc
306 484 _m
258 484 220 465 192 427 _c
164 389 150 338 150 273 _c
150 207 163 156 191 118 _c
219 80 257 62 306 62 _c
354 62 392 80 420 118 _c
448 156 462 207 462 273 _c
462 337 448 389 420 427 _c
392 465 354 484 306 484 _c
306 560 _m
384 560 445 534 490 484 _c
534 433 557 363 557 273 _c
557 183 534 113 490 63 _c
445 12 384 -13 306 -13 _c
227 -13 165 12 121 63 _c
77 113 55 183 55 273 _c
55 363 77 433 121 484 _c
165 534 227 560 306 560 _c
_cl}_d
/p{{635 0 91 -207 580 560 _sc
181 82 _m
181 -207 _l
91 -207 _l
91 547 _l
181 547 _l
181 464 _l
199 496 223 520 252 536 _c
281 552 316 560 356 560 _c
422 560 476 533 518 481 _c
559 428 580 359 580 273 _c
580 187 559 117 518 65 _c
476 13 422 -13 356 -13 _c
316 -13 281 -5 252 10 _c
223 25 199 49 181 82 _c
487 273 _m
487 339 473 390 446 428 _c
418 466 381 485 334 485 _c
}_e{286 485 249 466 222 428 _c
194 390 181 339 181 273 _c
181 207 194 155 222 117 _c
249 79 286 61 334 61 _c
381 61 418 79 446 117 _c
473 155 487 207 487 273 _c
_cl}_e}_d
/r{411 0 91 0 411 560 _sc
411 463 _m
401 469 390 473 378 476 _c
366 478 353 480 339 480 _c
288 480 249 463 222 430 _c
194 397 181 350 181 288 _c
181 0 _l
91 0 _l
91 547 _l
181 547 _l
181 462 _l
199 495 224 520 254 536 _c
284 552 321 560 365 560 _c
371 560 378 559 386 559 _c
393 558 401 557 411 555 _c
411 463 _l
_cl}_d
/s{{521 0 54 -13 472 560 _sc
443 531 _m
443 446 _l
417 458 391 468 364 475 _c
336 481 308 485 279 485 _c
234 485 200 478 178 464 _c
156 450 145 430 145 403 _c
145 382 153 366 169 354 _c
185 342 217 330 265 320 _c
296 313 _l
360 299 405 279 432 255 _c
458 230 472 195 472 151 _c
472 100 452 60 412 31 _c
372 1 316 -13 246 -13 _c
216 -13 186 -10 154 -5 _c
}_e{122 0 89 8 54 20 _c
54 113 _l
87 95 120 82 152 74 _c
184 65 216 61 248 61 _c
290 61 323 68 346 82 _c
368 96 380 117 380 144 _c
380 168 371 187 355 200 _c
339 213 303 226 247 238 _c
216 245 _l
160 257 119 275 95 299 _c
70 323 58 356 58 399 _c
58 450 76 490 112 518 _c
148 546 200 560 268 560 _c
301 560 332 557 362 552 _c
391 547 418 540 443 531 _c
}_e{_cl}_e}_d
/t{392 0 27 0 368 702 _sc
183 702 _m
183 547 _l
368 547 _l
368 477 _l
183 477 _l
183 180 _l
183 135 189 106 201 94 _c
213 81 238 75 276 75 _c
368 75 _l
368 0 _l
276 0 _l
206 0 158 13 132 39 _c
106 65 93 112 93 180 _c
93 477 _l
27 477 _l
27 547 _l
93 547 _l
93 702 _l
183 702 _l
_cl}_d
/u{634 0 85 -13 543 560 _sc
85 216 _m
85 547 _l
175 547 _l
175 219 _l
175 167 185 129 205 103 _c
225 77 255 64 296 64 _c
344 64 383 79 411 110 _c
439 141 453 183 453 237 _c
453 547 _l
543 547 _l
543 0 _l
453 0 _l
453 84 _l
431 50 405 26 377 10 _c
348 -5 315 -13 277 -13 _c
214 -13 166 6 134 45 _c
101 83 85 140 85 216 _c
311 560 _m
311 560 _l
_cl}_d
/v{592 0 30 0 562 547 _sc
30 547 _m
125 547 _l
296 88 _l
467 547 _l
562 547 _l
357 0 _l
235 0 _l
30 547 _l
_cl}_d
/x{592 0 29 0 559 547 _sc
549 547 _m
351 281 _l
559 0 _l
453 0 _l
294 215 _l
135 0 _l
29 0 _l
241 286 _l
47 547 _l
153 547 _l
298 352 _l
443 547 _l
549 547 _l
_cl}_d
end readonly def

/BuildGlyph
 {exch begin
 CharStrings exch
 2 copy known not{pop /.notdef}if
 true 3 1 roll get exec
 end}_d

/BuildChar {
 1 index /Encoding get exch get
 1 index /BuildGlyph get exec
}_d

FontName currentdict end definefont pop
end
%%EndProlog
mpldict begin
75.6 223.2 translate
460.8 345.6 0 0 clipbox
gsave
0 0 m
460.8 0 l
460.8 345.6 l
0 345.6 l
cl
1.000 setgray
fill
grestore
gsave
57.6 38.016 m
456.192 38.016 l
456.192 321.408 l
57.6 321.408 l
cl
1.000 setgray
fill
grestore
0.800 setlinewidth
1 setlinejoin
0 setlinecap
[] 0 setdash
0.000 setgray
gsave
/o {
gsave
newpath
translate
0.8 setlinewidth
1 setlinejoin
0 setlinecap
0 0 m
0 -3.5 l

gsave
0.000 setgray
fill
grestore
stroke
grestore
} bind def
57.6 38.016 o
grestore
gsave
48.600000 22.094125 translate
0.000000 rotate
/DejaVuSans findfont
10.0 scalefont
setfont
0.000000 0.976562 moveto
/one glyphshow

6.362305 0.976562 moveto
/zero glyphshow

/DejaVuSans findfont
7.0 scalefont
setfont
12.820312 4.804688 moveto
/zero glyphshow


grestore
gsave
/o {
gsave
newpath
translate
0.8 setlinewidth
1 setlinejoin
0 setlinecap
0 0 m
0 -3.5 l

gsave
0.000 setgray
fill
grestore
stroke
grestore
} bind def
118.461 38.016 o
grestore
gsave
109.461267 23.094125 translate
0.000000 rotate
/DejaVuSans findfont
10.0 scalefont
setfont
0.000000 0.064063 moveto
/one glyphshow

6.362305 0.064063 moveto
/zero glyphshow

/DejaVuSans findfont
7.0 scalefont
setfont
12.820312 3.892188 moveto
/one glyphshow


grestore
gsave
/o {
gsave
newpath
translate
0.8 setlinewidth
1 setlinejoin
0 setlinecap
0 0 m
0 -3.5 l

gsave
0.000 setgray
fill
grestore
stroke
grestore
} bind def
179.323 38.016 o
grestore
gsave
170.322535 22.094125 translate
0.000000 rotate
/DejaVuSans findfont
10.0 scalefont
setfont
0.000000 0.976562 moveto
/one glyphshow

6.362305 0.976562 moveto
/zero glyphshow

/DejaVuSans findfont
7.0 scalefont
setfont
12.820312 4.804688 moveto
/two glyphshow


grestore
gsave
/o {
gsave
newpath
translate
0.8 setlinewidth
1 setlinejoin
0 setlinecap
0 0 m
0 -3.5 l

gsave
0.000 setgray
fill
grestore
stroke
grestore
} bind def
240.184 38.016 o
grestore
gsave
231.183802 22.094125 translate
0.000000 rotate
/DejaVuSans findfont
10.0 scalefont
setfont
0.000000 0.976562 moveto
/one glyphshow

6.362305 0.976562 moveto
/zero glyphshow

/DejaVuSans findfont
7.0 scalefont
setfont
12.820312 4.804688 moveto
/three glyphshow


grestore
gsave
/o {
gsave
newpath
translate
0.8 setlinewidth
1 setlinejoin
0 setlinecap
0 0 m
0 -3.5 l

gsave
0.000 setgray
fill
grestore
stroke
grestore
} bind def
301.045 38.016 o
grestore
gsave
292.045069 23.094125 translate
0.000000 rotate
/DejaVuSans findfont
10.0 scalefont
setfont
0.000000 0.064063 moveto
/one glyphshow

6.362305 0.064063 moveto
/zero glyphshow

/DejaVuSans findfont
7.0 scalefont
setfont
12.820312 3.892188 moveto
/four glyphshow


grestore
gsave
/o {
gsave
newpath
translate
0.8 setlinewidth
1 setlinejoin
0 setlinecap
0 0 m
0 -3.5 l

gsave
0.000 setgray
fill
grestore
stroke
grestore
} bind def
361.906 38.016 o
grestore
gsave
352.906337 23.094125 translate
0.000000 rotate
/DejaVuSans findfont
10.0 scalefont
setfont
0.000000 0.064063 moveto
/one glyphshow

6.362305 0.064063 moveto
/zero glyphshow

/DejaVuSans findfont
7.0 scalefont
setfont
12.820312 3.892188 moveto
/five glyphshow


grestore
gsave
/o {
gsave
newpath
translate
0.8 setlinewidth
1 setlinejoin
0 setlinecap
0 0 m
0 -3.5 l

gsave
0.000 setgray
fill
grestore
stroke
grestore
} bind def
422.768 38.016 o
grestore
gsave
413.767604 22.094125 translate
0.000000 rotate
/DejaVuSans findfont
10.0 scalefont
setfont
0.000000 0.976562 moveto
/one glyphshow

6.362305 0.976562 moveto
/zero glyphshow

/DejaVuSans findfont
7.0 scalefont
setfont
12.820312 4.804688 moveto
/six glyphshow


grestore
0.600 setlinewidth
gsave
/o {
gsave
newpath
translate
0.6 setlinewidth
1 setlinejoin
0 setlinecap
0 0 m
0 -2 l

gsave
0.000 setgray
fill
grestore
stroke
grestore
} bind def
75.9211 38.016 o
grestore
gsave
/o {
gsave
newpath
translate
0.6 setlinewidth
1 setlinejoin
0 setlinecap
0 0 m
0 -2 l

gsave
0.000 setgray
fill
grestore
stroke
grestore
} bind def
86.6382 38.016 o
grestore
gsave
/o {
gsave
newpath
translate
0.6 setlinewidth
1 setlinejoin
0 setlinecap
0 0 m
0 -2 l

gsave
0.000 setgray
fill
grestore
stroke
grestore
} bind def
94.2421 38.016 o
grestore
gsave
/o {
gsave
newpath
translate
0.6 setlinewidth
1 setlinejoin
0 setlinecap
0 0 m
0 -2 l

gsave
0.000 setgray
fill
grestore
stroke
grestore
} bind def
100.14 38.016 o
grestore
gsave
/o {
gsave
newpath
translate
0.6 setlinewidth
1 setlinejoin
0 setlinecap
0 0 m
0 -2 l

gsave
0.000 setgray
fill
grestore
stroke
grestore
} bind def
104.959 38.016 o
grestore
gsave
/o {
gsave
newpath
translate
0.6 setlinewidth
1 setlinejoin
0 setlinecap
0 0 m
0 -2 l

gsave
0.000 setgray
fill
grestore
stroke
grestore
} bind def
109.034 38.016 o
grestore
gsave
/o {
gsave
newpath
translate
0.6 setlinewidth
1 setlinejoin
0 setlinecap
0 0 m
0 -2 l

gsave
0.000 setgray
fill
grestore
stroke
grestore
} bind def
112.563 38.016 o
grestore
gsave
/o {
gsave
newpath
translate
0.6 setlinewidth
1 setlinejoin
0 setlinecap
0 0 m
0 -2 l

gsave
0.000 setgray
fill
grestore
stroke
grestore
} bind def
115.676 38.016 o
grestore
gsave
/o {
gsave
newpath
translate
0.6 setlinewidth
1 setlinejoin
0 setlinecap
0 0 m
0 -2 l

gsave
0.000 setgray
fill
grestore
stroke
grestore
} bind def
136.782 38.016 o
grestore
gsave
/o {
gsave
newpath
translate
0.6 setlinewidth
1 setlinejoin
0 setlinecap
0 0 m
0 -2 l

gsave
0.000 setgray
fill
grestore
stroke
grestore
} bind def
147.499 38.016 o
grestore
gsave
/o {
gsave
newpath
translate
0.6 setlinewidth
1 setlinejoin
0 setlinecap
0 0 m
0 -2 l

gsave
0.000 setgray
fill
grestore
stroke
grestore
} bind def
155.103 38.016 o
grestore
gsave
/o {
gsave
newpath
translate
0.6 setlinewidth
1 setlinejoin
0 setlinecap
0 0 m
0 -2 l

gsave
0.000 setgray
fill
grestore
stroke
grestore
} bind def
161.001 38.016 o
grestore
gsave
/o {
gsave
newpath
translate
0.6 setlinewidth
1 setlinejoin
0 setlinecap
0 0 m
0 -2 l

gsave
0.000 setgray
fill
grestore
stroke
grestore
} bind def
165.821 38.016 o
grestore
gsave
/o {
gsave
newpath
translate
0.6 setlinewidth
1 setlinejoin
0 setlinecap
0 0 m
0 -2 l

gsave
0.000 setgray
fill
grestore
stroke
grestore
} bind def
169.895 38.016 o
grestore
gsave
/o {
gsave
newpath
translate
0.6 setlinewidth
1 setlinejoin
0 setlinecap
0 0 m
0 -2 l

gsave
0.000 setgray
fill
grestore
stroke
grestore
} bind def
173.424 38.016 o
grestore
gsave
/o {
gsave
newpath
translate
0.6 setlinewidth
1 setlinejoin
0 setlinecap
0 0 m
0 -2 l

gsave
0.000 setgray
fill
grestore
stroke
grestore
} bind def
176.538 38.016 o
grestore
gsave
/o {
gsave
newpath
translate
0.6 setlinewidth
1 setlinejoin
0 setlinecap
0 0 m
0 -2 l

gsave
0.000 setgray
fill
grestore
stroke
grestore
} bind def
197.644 38.016 o
grestore
gsave
/o {
gsave
newpath
translate
0.6 setlinewidth
1 setlinejoin
0 setlinecap
0 0 m
0 -2 l

gsave
0.000 setgray
fill
grestore
stroke
grestore
} bind def
208.361 38.016 o
grestore
gsave
/o {
gsave
newpath
translate
0.6 setlinewidth
1 setlinejoin
0 setlinecap
0 0 m
0 -2 l

gsave
0.000 setgray
fill
grestore
stroke
grestore
} bind def
215.965 38.016 o
grestore
gsave
/o {
gsave
newpath
translate
0.6 setlinewidth
1 setlinejoin
0 setlinecap
0 0 m
0 -2 l

gsave
0.000 setgray
fill
grestore
stroke
grestore
} bind def
221.863 38.016 o
grestore
gsave
/o {
gsave
newpath
translate
0.6 setlinewidth
1 setlinejoin
0 setlinecap
0 0 m
0 -2 l

gsave
0.000 setgray
fill
grestore
stroke
grestore
} bind def
226.682 38.016 o
grestore
gsave
/o {
gsave
newpath
translate
0.6 setlinewidth
1 setlinejoin
0 setlinecap
0 0 m
0 -2 l

gsave
0.000 setgray
fill
grestore
stroke
grestore
} bind def
230.756 38.016 o
grestore
gsave
/o {
gsave
newpath
translate
0.6 setlinewidth
1 setlinejoin
0 setlinecap
0 0 m
0 -2 l

gsave
0.000 setgray
fill
grestore
stroke
grestore
} bind def
234.286 38.016 o
grestore
gsave
/o {
gsave
newpath
translate
0.6 setlinewidth
1 setlinejoin
0 setlinecap
0 0 m
0 -2 l

gsave
0.000 setgray
fill
grestore
stroke
grestore
} bind def
237.399 38.016 o
grestore
gsave
/o {
gsave
newpath
translate
0.6 setlinewidth
1 setlinejoin
0 setlinecap
0 0 m
0 -2 l

gsave
0.000 setgray
fill
grestore
stroke
grestore
} bind def
258.505 38.016 o
grestore
gsave
/o {
gsave
newpath
translate
0.6 setlinewidth
1 setlinejoin
0 setlinecap
0 0 m
0 -2 l

gsave
0.000 setgray
fill
grestore
stroke
grestore
} bind def
269.222 38.016 o
grestore
gsave
/o {
gsave
newpath
translate
0.6 setlinewidth
1 setlinejoin
0 setlinecap
0 0 m
0 -2 l

gsave
0.000 setgray
fill
grestore
stroke
grestore
} bind def
276.826 38.016 o
grestore
gsave
/o {
gsave
newpath
translate
0.6 setlinewidth
1 setlinejoin
0 setlinecap
0 0 m
0 -2 l

gsave
0.000 setgray
fill
grestore
stroke
grestore
} bind def
282.724 38.016 o
grestore
gsave
/o {
gsave
newpath
translate
0.6 setlinewidth
1 setlinejoin
0 setlinecap
0 0 m
0 -2 l

gsave
0.000 setgray
fill
grestore
stroke
grestore
} bind def
287.543 38.016 o
grestore
gsave
/o {
gsave
newpath
translate
0.6 setlinewidth
1 setlinejoin
0 setlinecap
0 0 m
0 -2 l

gsave
0.000 setgray
fill
grestore
stroke
grestore
} bind def
291.618 38.016 o
grestore
gsave
/o {
gsave
newpath
translate
0.6 setlinewidth
1 setlinejoin
0 setlinecap
0 0 m
0 -2 l

gsave
0.000 setgray
fill
grestore
stroke
grestore
} bind def
295.147 38.016 o
grestore
gsave
/o {
gsave
newpath
translate
0.6 setlinewidth
1 setlinejoin
0 setlinecap
0 0 m
0 -2 l

gsave
0.000 setgray
fill
grestore
stroke
grestore
} bind def
298.26 38.016 o
grestore
gsave
/o {
gsave
newpath
translate
0.6 setlinewidth
1 setlinejoin
0 setlinecap
0 0 m
0 -2 l

gsave
0.000 setgray
fill
grestore
stroke
grestore
} bind def
319.366 38.016 o
grestore
gsave
/o {
gsave
newpath
translate
0.6 setlinewidth
1 setlinejoin
0 setlinecap
0 0 m
0 -2 l

gsave
0.000 setgray
fill
grestore
stroke
grestore
} bind def
330.083 38.016 o
grestore
gsave
/o {
gsave
newpath
translate
0.6 setlinewidth
1 setlinejoin
0 setlinecap
0 0 m
0 -2 l

gsave
0.000 setgray
fill
grestore
stroke
grestore
} bind def
337.687 38.016 o
grestore
gsave
/o {
gsave
newpath
translate
0.6 setlinewidth
1 setlinejoin
0 setlinecap
0 0 m
0 -2 l

gsave
0.000 setgray
fill
grestore
stroke
grestore
} bind def
343.585 38.016 o
grestore
gsave
/o {
gsave
newpath
translate
0.6 setlinewidth
1 setlinejoin
0 setlinecap
0 0 m
0 -2 l

gsave
0.000 setgray
fill
grestore
stroke
grestore
} bind def
348.404 38.016 o
grestore
gsave
/o {
gsave
newpath
translate
0.6 setlinewidth
1 setlinejoin
0 setlinecap
0 0 m
0 -2 l

gsave
0.000 setgray
fill
grestore
stroke
grestore
} bind def
352.479 38.016 o
grestore
gsave
/o {
gsave
newpath
translate
0.6 setlinewidth
1 setlinejoin
0 setlinecap
0 0 m
0 -2 l

gsave
0.000 setgray
fill
grestore
stroke
grestore
} bind def
356.008 38.016 o
grestore
gsave
/o {
gsave
newpath
translate
0.6 setlinewidth
1 setlinejoin
0 setlinecap
0 0 m
0 -2 l

gsave
0.000 setgray
fill
grestore
stroke
grestore
} bind def
359.121 38.016 o
grestore
gsave
/o {
gsave
newpath
translate
0.6 setlinewidth
1 setlinejoin
0 setlinecap
0 0 m
0 -2 l

gsave
0.000 setgray
fill
grestore
stroke
grestore
} bind def
380.227 38.016 o
grestore
gsave
/o {
gsave
newpath
translate
0.6 setlinewidth
1 setlinejoin
0 setlinecap
0 0 m
0 -2 l

gsave
0.000 setgray
fill
grestore
stroke
grestore
} bind def
390.945 38.016 o
grestore
gsave
/o {
gsave
newpath
translate
0.6 setlinewidth
1 setlinejoin
0 setlinecap
0 0 m
0 -2 l

gsave
0.000 setgray
fill
grestore
stroke
grestore
} bind def
398.548 38.016 o
grestore
gsave
/o {
gsave
newpath
translate
0.6 setlinewidth
1 setlinejoin
0 setlinecap
0 0 m
0 -2 l

gsave
0.000 setgray
fill
grestore
stroke
grestore
} bind def
404.447 38.016 o
grestore
gsave
/o {
gsave
newpath
translate
0.6 setlinewidth
1 setlinejoin
0 setlinecap
0 0 m
0 -2 l

gsave
0.000 setgray
fill
grestore
stroke
grestore
} bind def
409.266 38.016 o
grestore
gsave
/o {
gsave
newpath
translate
0.6 setlinewidth
1 setlinejoin
0 setlinecap
0 0 m
0 -2 l

gsave
0.000 setgray
fill
grestore
stroke
grestore
} bind def
413.34 38.016 o
grestore
gsave
/o {
gsave
newpath
translate
0.6 setlinewidth
1 setlinejoin
0 setlinecap
0 0 m
0 -2 l

gsave
0.000 setgray
fill
grestore
stroke
grestore
} bind def
416.87 38.016 o
grestore
gsave
/o {
gsave
newpath
translate
0.6 setlinewidth
1 setlinejoin
0 setlinecap
0 0 m
0 -2 l

gsave
0.000 setgray
fill
grestore
stroke
grestore
} bind def
419.983 38.016 o
grestore
gsave
/o {
gsave
newpath
translate
0.6 setlinewidth
1 setlinejoin
0 setlinecap
0 0 m
0 -2 l

gsave
0.000 setgray
fill
grestore
stroke
grestore
} bind def
441.089 38.016 o
grestore
gsave
/o {
gsave
newpath
translate
0.6 setlinewidth
1 setlinejoin
0 setlinecap
0 0 m
0 -2 l

gsave
0.000 setgray
fill
grestore
stroke
grestore
} bind def
451.806 38.016 o
grestore
/DejaVuSans findfont
10.000 scalefont
setfont
gsave
184.981938 8.422250 translate
0.000000 rotate
0.000000 0.000000 m /L glyphshow
5.571289 0.000000 m /i glyphshow
8.349609 0.000000 m /m glyphshow
18.090820 0.000000 m /i glyphshow
20.869141 0.000000 m /t glyphshow
24.790039 0.000000 m /space glyphshow
27.968750 0.000000 m /o glyphshow
34.086914 0.000000 m /n glyphshow
40.424805 0.000000 m /space glyphshow
43.603516 0.000000 m /n glyphshow
49.941406 0.000000 m /u glyphshow
56.279297 0.000000 m /m glyphshow
66.020508 0.000000 m /b glyphshow
72.368164 0.000000 m /e glyphshow
78.520508 0.000000 m /r glyphshow
82.631836 0.000000 m /space glyphshow
85.810547 0.000000 m /o glyphshow
91.928711 0.000000 m /f glyphshow
95.449219 0.000000 m /space glyphshow
98.627930 0.000000 m /L glyphshow
104.199219 0.000000 m /P glyphshow
110.229492 0.000000 m /space glyphshow
113.408203 0.000000 m /p glyphshow
119.755859 0.000000 m /i glyphshow
122.534180 0.000000 m /v glyphshow
128.452148 0.000000 m /o glyphshow
134.570312 0.000000 m /t glyphshow
138.491211 0.000000 m /s glyphshow
grestore
0.800 setlinewidth
gsave
/o {
gsave
newpath
translate
0.8 setlinewidth
1 setlinejoin
0 setlinecap
0 0 m
-3.5 0 l

gsave
0.000 setgray
fill
grestore
stroke
grestore
} bind def
57.6 38.016 o
grestore
gsave
44.240625 34.219125 translate
0.000000 rotate
0.000000 0.000000 m /zero glyphshow
grestore
gsave
/o {
gsave
newpath
translate
0.8 setlinewidth
1 setlinejoin
0 setlinecap
0 0 m
-3.5 0 l

gsave
0.000 setgray
fill
grestore
stroke
grestore
} bind def
57.6 69.504 o
grestore
gsave
31.521875 65.707125 translate
0.000000 rotate
0.000000 0.000000 m /two glyphshow
6.362305 0.000000 m /zero glyphshow
12.724609 0.000000 m /zero glyphshow
grestore
gsave
/o {
gsave
newpath
translate
0.8 setlinewidth
1 setlinejoin
0 setlinecap
0 0 m
-3.5 0 l

gsave
0.000 setgray
fill
grestore
stroke
grestore
} bind def
57.6 100.992 o
grestore
gsave
31.521875 97.195125 translate
0.000000 rotate
0.000000 0.000000 m /four glyphshow
6.362305 0.000000 m /zero glyphshow
12.724609 0.000000 m /zero glyphshow
grestore
gsave
/o {
gsave
newpath
translate
0.8 setlinewidth
1 setlinejoin
0 setlinecap
0 0 m
-3.5 0 l

gsave
0.000 setgray
fill
grestore
stroke
grestore
} bind def
57.6 132.48 o
grestore
gsave
31.521875 128.683125 translate
0.000000 rotate
0.000000 0.000000 m /six glyphshow
6.362305 0.000000 m /zero glyphshow
12.724609 0.000000 m /zero glyphshow
grestore
gsave
/o {
gsave
newpath
translate
0.8 setlinewidth
1 setlinejoin
0 setlinecap
0 0 m
-3.5 0 l

gsave
0.000 setgray
fill
grestore
stroke
grestore
} bind def
57.6 163.968 o
grestore
gsave
31.521875 160.171125 translate
0.000000 rotate
0.000000 0.000000 m /eight glyphshow
6.362305 0.000000 m /zero glyphshow
12.724609 0.000000 m /zero glyphshow
grestore
gsave
/o {
gsave
newpath
translate
0.8 setlinewidth
1 setlinejoin
0 setlinecap
0 0 m
-3.5 0 l

gsave
0.000 setgray
fill
grestore
stroke
grestore
} bind def
57.6 195.456 o
grestore
gsave
25.162500 191.659125 translate
0.000000 rotate
0.000000 0.000000 m /one glyphshow
6.362305 0.000000 m /zero glyphshow
12.724609 0.000000 m /zero glyphshow
19.086914 0.000000 m /zero glyphshow
grestore
gsave
/o {
gsave
newpath
translate
0.8 setlinewidth
1 setlinejoin
0 setlinecap
0 0 m
-3.5 0 l

gsave
0.000 setgray
fill
grestore
stroke
grestore
} bind def
57.6 226.944 o
grestore
gsave
25.162500 223.147125 translate
0.000000 rotate
0.000000 0.000000 m /one glyphshow
6.362305 0.000000 m /two glyphshow
12.724609 0.000000 m /zero glyphshow
19.086914 0.000000 m /zero glyphshow
grestore
gsave
/o {
gsave
newpath
translate
0.8 setlinewidth
1 setlinejoin
0 setlinecap
0 0 m
-3.5 0 l

gsave
0.000 setgray
fill
grestore
stroke
grestore
} bind def
57.6 258.432 o
grestore
gsave
25.162500 254.635125 translate
0.000000 rotate
0.000000 0.000000 m /one glyphshow
6.362305 0.000000 m /four glyphshow
12.724609 0.000000 m /zero glyphshow
19.086914 0.000000 m /zero glyphshow
grestore
gsave
/o {
gsave
newpath
translate
0.8 setlinewidth
1 setlinejoin
0 setlinecap
0 0 m
-3.5 0 l

gsave
0.000 setgray
fill
grestore
stroke
grestore
} bind def
57.6 289.92 o
grestore
gsave
25.162500 286.123125 translate
0.000000 rotate
0.000000 0.000000 m /one glyphshow
6.362305 0.000000 m /six glyphshow
12.724609 0.000000 m /zero glyphshow
19.086914 0.000000 m /zero glyphshow
grestore
gsave
/o {
gsave
newpath
translate
0.8 setlinewidth
1 setlinejoin
0 setlinecap
0 0 m
-3.5 0 l

gsave
0.000 setgray
fill
grestore
stroke
grestore
} bind def
57.6 321.408 o
grestore
gsave
25.162500 317.611125 translate
0.000000 rotate
0.000000 0.000000 m /one glyphshow
6.362305 0.000000 m /eight glyphshow
12.724609 0.000000 m /zero glyphshow
19.086914 0.000000 m /zero glyphshow
grestore
gsave
19.084375 109.938562 translate
90.000000 rotate
0.000000 0.000000 m /N glyphshow
7.480469 0.000000 m /u glyphshow
13.818359 0.000000 m /m glyphshow
23.559570 0.000000 m /b glyphshow
29.907227 0.000000 m /e glyphshow
36.059570 0.000000 m /r glyphshow
40.170898 0.000000 m /space glyphshow
43.349609 0.000000 m /o glyphshow
49.467773 0.000000 m /f glyphshow
52.988281 0.000000 m /space glyphshow
56.166992 0.000000 m /s glyphshow
61.376953 0.000000 m /o glyphshow
67.495117 0.000000 m /l glyphshow
70.273438 0.000000 m /v glyphshow
76.191406 0.000000 m /e glyphshow
82.343750 0.000000 m /d glyphshow
88.691406 0.000000 m /space glyphshow
91.870117 0.000000 m /i glyphshow
94.648438 0.000000 m /n glyphshow
100.986328 0.000000 m /s glyphshow
106.196289 0.000000 m /t glyphshow
110.117188 0.000000 m /a glyphshow
116.245117 0.000000 m /n glyphshow
122.583008 0.000000 m /c glyphshow
128.081055 0.000000 m /e glyphshow
134.233398 0.000000 m /s glyphshow
grestore
1.500 setlinewidth
2 setlinecap
0.122 0.467 0.706 setrgbcolor
gsave
398.6 283.4 57.6 38.02 clipbox
-1 54.547001 m
75.921067 54.5472 l
109.033738 55.01952 l
109.033738 55.64928 l
115.676408 55.80672 l
115.676408 56.43648 l
120.980479 56.59392 l
120.980479 56.9088 l
123.280338 57.06624 l
123.280338 57.38112 l
125.396004 57.53856 l
125.396004 57.696 l
127.354805 57.85344 l
127.354805 58.01088 l
129.178405 58.16832 l
129.178405 58.32576 l
133.997476 58.64064 l
140.476482 59.2704 l
142.680401 59.42784 l
142.680401 59.58528 l
143.717071 59.74272 l
143.717071 59.90016 l
144.714613 60.0576 l
144.714613 60.21504 l
145.675872 60.37248 l
145.675872 60.68736 l
146.603395 60.8448 l
149.205335 61.15968 l
149.205335 61.31712 l
150.018683 61.47456 l
151.573938 61.632 l
151.573938 61.78944 l
152.318543 61.94688 l
152.318543 62.26176 l
154.434208 62.73408 l
154.434208 62.89152 l
155.756069 63.2064 l
155.756069 63.36384 l
156.393009 63.52128 l
156.393009 63.67872 l
157.01496 63.83616 l
157.01496 63.9936 l
158.216609 64.30848 l
159.365995 64.46592 l
159.365995 64.7808 l
159.922472 64.93824 l
159.922472 65.25312 l
161.001468 65.568 l
161.001468 65.88288 l
162.038138 66.19776 l
162.038138 66.3552 l
162.541615 66.51264 l
162.541615 66.82752 l
163.03568 66.98496 l
164.464769 67.29984 l
164.924463 67.45728 l
164.924463 67.61472 l
165.376298 67.77216 l
165.376298 67.9296 l
165.820539 68.08704 l
165.820539 68.40192 l
167.110146 68.87424 l
167.110146 69.03168 l
167.526402 69.18912 l
168.33975 69.34656 l
168.33975 69.66144 l
169.128815 69.81888 l
169.128815 69.97632 l
169.895005 70.2912 l
169.895005 70.44864 l
170.63961 70.60608 l
170.63961 70.76352 l
171.004191 70.92096 l
171.004191 71.0784 l
171.718605 71.39328 l
172.414216 71.55072 l
172.414216 71.70816 l
173.09199 71.8656 l
173.09199 72.18048 l
173.424468 72.33792 l
173.424468 72.49536 l
173.752817 72.6528 l
173.752817 73.12512 l
174.077136 73.28256 l
174.077136 73.44 l
174.397525 73.59744 l
174.397525 73.91232 l
174.714076 74.06976 l
174.714076 74.2272 l
175.026881 74.38464 l
175.94368 74.69952 l
175.94368 75.0144 l
177.118616 75.64416 l
177.118616 75.8016 l
177.404367 75.95904 l
177.966765 76.11648 l
177.966765 76.27392 l
178.788543 76.74624 l
178.788543 76.90368 l
179.322535 77.21856 l
179.322535 77.376 l
179.585539 77.53344 l
179.585539 121.77408 l
180.359205 122.2464 l
181.356747 122.56128 l
181.600359 122.71872 l
181.600359 122.87616 l
182.080949 123.0336 l
182.080949 123.19104 l
182.785836 123.50592 l
182.785836 123.66336 l
184.141606 123.97824 l
184.360957 124.13568 l
184.360957 124.29312 l
185.008297 124.45056 l
185.008297 124.76544 l
185.640161 125.08032 l
188.026597 125.3952 l
188.026597 125.55264 l
188.776483 125.71008 l
188.776483 125.86752 l
189.143596 126.1824 l
190.039672 126.33984 l
190.039672 126.49728 l
190.215299 126.65472 l
190.563089 126.81216 l
190.563089 126.9696 l
191.579819 127.28448 l
192.236541 127.59936 l
192.877341 127.7568 l
193.347948 128.22912 l
193.347948 128.38656 l
193.810322 128.70144 l
193.962667 128.85888 l
195.439683 129.01632 l
195.439683 129.17376 l
195.867159 129.48864 l
196.838513 129.80352 l
196.838513 129.96096 l
197.906606 130.27584 l
197.906606 132.95232 l
198.037133 133.2672 l
198.037133 134.0544 l
198.933209 135.31392 l
198.933209 135.6288 l
199.058776 135.78624 l
200.639073 136.57344 l
200.874023 136.88832 l
201.222578 137.04576 l
201.906195 137.2032 l
202.241486 137.51808 l
202.462673 137.67552 l
203.647184 137.83296 l
204.168536 138.46272 l
204.679804 138.7776 l
204.679804 138.93504 l
205.081815 139.24992 l
205.081815 139.5648 l
205.477803 139.87968 l
205.770949 140.19456 l
206.725266 140.352 l
206.81883 140.50944 l
208.448698 140.98176 l
208.623743 141.1392 l
208.710833 142.08384 l
208.797637 142.39872 l
208.884156 142.87104 l
209.312556 143.34336 l
209.481991 143.65824 l
209.817636 143.97312 l
209.983874 144.13056 l
210.719271 144.288 l
210.719271 144.44544 l
211.277427 144.60288 l
211.35621 144.76032 l
211.59116 144.91776 l
211.59116 145.0752 l
212.283734 145.39008 l
212.359578 145.8624 l
212.585814 146.17728 l
213.17981 146.49216 l
213.471876 147.27936 l
214.117459 147.59424 l
214.53925 148.224 l
214.608899 148.38144 l
214.954417 148.53888 l
214.954417 148.69632 l
215.227615 148.85376 l
215.227615 149.0112 l
215.699021 149.16864 l
215.699021 149.32608 l
216.227673 149.7984 l
216.293017 150.42816 l
216.617337 151.21536 l
217.12811 151.3728 l
217.12811 151.68768 l
217.254276 151.84512 l
217.814687 152.00256 l
217.937625 152.31744 l
219.019074 152.63232 l
219.601293 154.20672 l
220.001349 154.36416 l
220.058008 154.5216 l
220.451261 154.83648 l
221.003091 155.46624 l
221.166419 155.78112 l
221.166419 155.93856 l
221.650431 156.25344 l
222.386152 157.51296 l
222.489603 157.98528 l
223.749695 159.08736 l
223.994661 159.71712 l
224.285656 160.18944 l
224.381946 160.34688 l
224.668731 160.66176 l
224.858206 161.44896 l
225.510874 161.92128 l
226.057757 163.65312 l
226.371623 163.81056 l
226.416158 164.12544 l
226.725822 164.28288 l
226.769765 164.44032 l
226.988391 164.59776 l
227.075337 165.22752 l
227.291461 165.5424 l
227.377417 166.01472 l
227.633623 166.48704 l
227.718477 166.80192 l
228.26348 167.58912 l
228.838105 167.904 l
228.878675 168.37632 l
229.040338 168.6912 l
229.080599 168.84864 l
229.44022 169.00608 l
229.44022 169.16352 l
229.677277 169.63584 l
229.755826 169.79328 l
230.028924 169.95072 l
230.183722 170.2656 l
230.64275 171.0528 l
230.64275 171.21024 l
230.981864 171.68256 l
231.27969 172.6272 l
232.403071 174.35904 l
232.403071 174.51648 l
232.544606 174.83136 l
233.068716 175.776 l
233.137818 175.93344 l
233.446563 176.09088 l
233.514686 176.40576 l
233.718008 176.72064 l
233.953257 177.50784 l
234.252675 177.98016 l
234.252675 178.1376 l
234.581432 178.45248 l
234.90615 179.55456 l
235.290618 180.34176 l
236.043174 181.44384 l
236.135754 181.75872 l
237.04415 182.23104 l
237.073898 182.54592 l
237.31069 182.70336 l
237.457615 183.17568 l
237.691009 183.49056 l
238.265634 184.59264 l
238.604507 184.90752 l
238.744432 185.53728 l
238.744432 185.69472 l
239.187277 186.16704 l
239.405948 186.7968 l
239.7306 187.584 l
240.077863 187.89888 l
240.236613 188.68608 l
240.420623 189.47328 l
241.06754 189.63072 l
241.093091 189.78816 l
241.397782 189.9456 l
241.523708 190.26048 l
242.193529 190.7328 l
242.364451 191.04768 l
242.51008 191.36256 l
243.343957 191.83488 l
243.484303 192.3072 l
243.647103 192.46464 l
243.647103 192.62208 l
243.969726 192.93696 l
243.992621 193.0944 l
244.536223 193.56672 l
244.848237 194.03904 l
245.090832 194.6688 l
245.504687 194.98368 l
245.634043 195.456 l
246.166315 195.77088 l
246.480607 195.92832 l
246.54302 196.08576 l
246.873421 196.40064 l
246.934914 196.71552 l
247.421774 197.18784 l
247.522084 197.8176 l
247.622015 198.6048 l
248.213795 199.07712 l
248.466174 199.392 l
248.620296 199.70688 l
248.773523 200.1792 l
249.452264 201.12384 l
250.077678 202.38336 l
250.34896 202.69824 l
250.670866 203.328 l
250.83036 203.48544 l
251.233638 203.64288 l
251.320499 204.58752 l
251.372479 204.74496 l
251.835753 205.05984 l
252.457705 205.37472 l
252.902499 206.16192 l
252.91883 206.31936 l
253.468164 206.63424 l
253.691084 206.94912 l
253.691084 207.10656 l
253.912139 207.42144 l
253.974959 207.73632 l
254.533725 208.0512 l
254.533725 208.20864 l
255.822601 209.78304 l
256.214619 210.4128 l
257.163007 210.88512 l
257.232436 211.2 l
257.794981 211.51488 l
258.239221 212.93184 l
258.372379 213.08928 l
259.067128 213.40416 l
259.14464 213.87648 l
259.75669 214.19136 l
259.769292 214.3488 l
260.107282 214.50624 l
260.119717 214.66368 l
261.012063 215.136 l
261.215615 215.45088 l
261.275186 215.60832 l
261.886896 216.08064 l
262.778708 216.23808 l
263.069415 216.7104 l
263.27985 217.02528 l
264.030277 217.18272 l
264.137288 217.34016 l
264.624034 217.4976 l
264.624034 217.65504 l
264.967782 217.96992 l
265.06076 218.2848 l
265.662318 218.75712 l
265.843151 219.072 l
265.913143 219.38688 l
266.250489 219.70176 l
266.299737 219.8592 l
266.4665 220.01664 l
266.476276 220.48896 l
266.825856 220.6464 l
266.883672 220.96128 l
267.5584 221.4336 l
267.670756 221.74848 l
267.810532 222.06336 l
268.041863 222.37824 l
268.480422 223.008 l
268.534734 223.16544 l
268.804631 223.32288 l
268.902907 223.63776 l
269.493732 224.73984 l
270.678904 226.1568 l
271.190874 226.47168 l
271.199051 226.62912 l
272.335214 227.57376 l
273.0537 227.88864 l
273.129806 228.36096 l
273.581899 228.67584 l
273.619227 228.83328 l
274.304082 229.3056 l
274.376676 229.77792 l
274.708068 230.0928 l
275.211544 230.40768 l
275.435365 230.56512 l
276.480071 231.03744 l
276.640263 231.35232 l
277.225977 231.98208 l
277.290984 232.13952 l
277.478604 232.29696 l
277.907046 232.4544 l
278.353612 233.2416 l
278.915157 233.39904 l
279.164314 233.87136 l
279.212657 234.0288 l
279.548607 234.18624 l
279.578396 234.34368 l
279.862675 234.65856 l
280.021248 234.816 l
280.456802 234.97344 l
280.491338 235.13088 l
281.357101 235.91808 l
281.368233 236.07552 l
281.826103 236.3904 l
282.559616 236.54784 l
283.007934 237.02016 l
283.968259 237.33504 l
284.259162 237.80736 l
284.299036 237.9648 l
285.238407 238.43712 l
285.243214 238.59456 l
285.458593 238.752 l
290.392611 240.01152 l
290.866893 240.64128 l
291.210392 240.79872 l
291.294619 241.1136 l
292.752059 241.42848 l
293.13987 241.74336 l
294.068008 242.37312 l
294.195042 242.688 l
294.602895 243.00288 l
295.957147 243.63264 l
296.845638 243.94752 l
297.067781 244.10496 l
298.077495 244.2624 l
298.077495 244.41984 l
298.368651 244.57728 l
298.39204 244.73472 l
299.753215 245.0496 l
299.75599 245.20704 l
300.381298 245.36448 l
300.610682 245.67936 l
303.176996 246.93888 l
303.475224 247.25376 l
304.718523 248.04096 l
304.913321 248.1984 l
306.109692 248.51328 l
306.144586 248.67072 l
306.365954 248.9856 l
308.07722 249.30048 l
308.148026 249.61536 l
310.330278 249.93024 l
311.141766 250.24512 l
311.334089 250.40256 l
311.432404 250.71744 l
313.295703 251.66208 l
314.104616 251.81952 l
314.154562 251.97696 l
315.418019 252.29184 l
315.961738 252.44928 l
315.973762 252.60672 l
316.262179 252.76416 l
317.062912 252.9216 l
317.165091 253.07904 l
318.097864 253.39392 l
318.243052 253.55136 l
318.55696 253.7088 l
319.515055 253.86624 l
319.851953 254.18112 l
320.73743 254.33856 l
320.743703 254.496 l
321.239557 254.65344 l
321.308412 254.81088 l
321.606347 254.96832 l
321.666987 255.2832 l
322.909308 255.44064 l
322.912775 255.59808 l
323.249226 255.75552 l
323.358537 256.0704 l
323.566796 256.22784 l
325.30646 256.38528 l
325.307515 256.54272 l
326.16123 256.8576 l
326.231654 257.01504 l
326.910859 257.17248 l
326.944613 257.32992 l
327.875524 257.80224 l
329.914454 258.432 l
329.991484 258.74688 l
330.482881 259.06176 l
331.683198 259.53408 l
332.159873 260.0064 l
332.703214 260.16384 l
332.73272 260.32128 l
332.939929 260.47872 l
334.366854 260.7936 l
334.375094 260.95104 l
335.461728 261.26592 l
335.667234 261.73824 l
335.955248 261.89568 l
336.007406 262.05312 l
337.251473 262.68288 l
337.258862 262.84032 l
337.502196 263.1552 l
337.505523 263.31264 l
338.019467 263.62752 l
338.035776 263.78496 l
338.584997 263.9424 l
338.707349 264.25728 l
338.820275 264.57216 l
339.313238 264.7296 l
339.362281 264.88704 l
341.122667 265.67424 l
341.528613 265.98912 l
343.276335 266.46144 l
343.483576 266.61888 l
344.837091 266.77632 l
344.856243 266.93376 l
345.332071 267.24864 l
346.082365 267.40608 l
346.212869 267.56352 l
350.217366 268.19328 l
350.22518 268.35072 l
351.154816 268.6656 l
351.552767 268.98048 l
352.605376 269.29536 l
354.131636 269.4528 l
354.303816 269.61024 l
355.571532 269.76768 l
355.895364 269.92512 l
358.654828 270.55488 l
358.701716 270.71232 l
359.097385 270.86976 l
359.113841 271.0272 l
359.89735 271.34208 l
359.979357 271.8144 l
360.194552 272.12928 l
361.067164 272.28672 l
361.336449 272.6016 l
361.871688 272.75904 l
361.893118 272.91648 l
362.279548 273.07392 l
363.643239 273.3888 l
363.77631 273.54624 l
364.41978 273.86112 l
365.853701 274.01856 l
365.953678 274.33344 l
366.05147 274.49088 l
366.333754 274.64832 l
367.132173 274.80576 l
367.168371 274.9632 l
368.542546 275.43552 l
369.078499 275.59296 l
371.251191 275.90784 l
371.712811 276.06528 l
371.82111 276.22272 l
372.142831 276.38016 l
373.335043 276.69504 l
373.362816 276.85248 l
374.371759 277.16736 l
374.572871 277.3248 l
375.150053 277.48224 l
375.162381 277.63968 l
377.721973 277.79712 l
377.858636 278.26944 l
379.07714 279.05664 l
381.102194 279.52896 l
381.35845 279.84384 l
381.825338 280.00128 l
381.837776 280.15872 l
382.888962 280.31616 l
383.114685 280.4736 l
383.534786 280.63104 l
383.542015 280.78848 l
384.104673 280.94592 l
385.709778 281.2608 l
386.002116 281.41824 l
387.27444 281.57568 l
387.598905 281.73312 l
388.330738 281.89056 l
388.422686 282.048 l
389.866463 282.52032 l
389.942984 282.67776 l
390.780597 282.8352 l
390.918978 282.99264 l
392.679051 283.30752 l
393.058661 283.6224 l
393.395743 283.77984 l
393.456302 284.09472 l
397.517546 284.25216 l
399.461207 284.72448 l
403.649839 285.03936 l
403.879836 285.35424 l
403.941981 285.51168 l
406.614965 285.66912 l
408.465877 285.984 l
409.334373 286.14144 l
409.55124 286.29888 l
411.550302 286.45632 l
411.765269 286.61376 l
413.203334 286.7712 l
413.545966 286.92864 l
414.497915 287.08608 l
414.566999 287.24352 l
414.794589 287.40096 l
418.773596 287.71584 l
423.781595 288.3456 l
423.873871 288.50304 l
426.437837 288.97536 l
428.743055 289.1328 l
450.381096 289.92 l
450.381096 289.92 l
stroke
grestore
0 setlinecap
[9.6 2.4 1.5 2.4] 0 setdash
1.000 0.498 0.055 setrgbcolor
gsave
398.6 283.4 57.6 38.02 clipbox
-1 54.547001 m
75.921067 54.5472 l
109.033738 55.01952 l
109.033738 55.64928 l
115.676408 55.80672 l
115.676408 56.43648 l
120.980479 56.59392 l
120.980479 56.9088 l
123.280338 57.06624 l
123.280338 57.38112 l
125.396004 57.53856 l
125.396004 58.01088 l
129.178405 58.16832 l
129.178405 58.32576 l
133.997476 58.64064 l
140.476482 59.2704 l
142.680401 59.42784 l
142.680401 59.58528 l
143.717071 59.74272 l
143.717071 59.90016 l
145.675872 60.21504 l
145.675872 60.37248 l
146.603395 60.52992 l
146.603395 60.68736 l
149.205335 61.00224 l
149.205335 61.15968 l
150.018683 61.31712 l
150.018683 61.47456 l
151.573938 61.632 l
151.573938 61.78944 l
152.318543 61.94688 l
152.318543 62.26176 l
153.042744 62.4192 l
155.103401 62.73408 l
155.756069 62.89152 l
155.756069 63.04896 l
157.01496 63.36384 l
157.01496 63.52128 l
157.622613 63.67872 l
157.622613 63.83616 l
158.216609 63.9936 l
159.365995 64.15104 l
159.365995 64.30848 l
159.922472 64.46592 l
159.922472 64.62336 l
160.467475 64.7808 l
160.467475 64.93824 l
161.001468 65.09568 l
161.001468 65.25312 l
161.524885 65.41056 l
162.541615 65.568 l
162.541615 65.88288 l
163.03568 66.04032 l
164.464769 66.3552 l
165.376298 66.67008 l
165.376298 66.82752 l
165.820539 66.98496 l
165.820539 67.45728 l
166.257436 67.61472 l
167.526402 67.9296 l
167.526402 68.08704 l
167.936204 68.24448 l
167.936204 68.40192 l
168.33975 68.55936 l
168.33975 68.7168 l
169.128815 68.87424 l
169.128815 69.03168 l
169.514686 69.18912 l
169.514686 69.34656 l
169.895005 69.504 l
170.63961 69.66144 l
170.63961 69.97632 l
171.363811 70.2912 l
171.363811 70.44864 l
172.414216 70.92096 l
172.414216 71.39328 l
173.09199 71.55072 l
173.09199 71.70816 l
173.424468 71.8656 l
173.424468 72.33792 l
173.752817 72.49536 l
173.752817 72.6528 l
174.077136 72.81024 l
174.077136 72.96768 l
174.714076 73.28256 l
174.714076 73.59744 l
175.026881 73.75488 l
175.94368 74.06976 l
176.242346 74.2272 l
176.242346 74.38464 l
176.829742 74.69952 l
176.829742 74.85696 l
177.118616 75.0144 l
177.118616 75.32928 l
177.404367 75.48672 l
178.788543 75.95904 l
178.788543 76.11648 l
179.322535 76.43136 l
179.322535 76.5888 l
179.585539 76.74624 l
179.585539 120.98688 l
180.103824 121.14432 l
180.103824 121.61664 l
180.359205 121.77408 l
181.841746 122.08896 l
182.080949 122.2464 l
184.360957 122.71872 l
184.360957 122.87616 l
185.220601 123.19104 l
185.220601 123.34848 l
186.459814 123.8208 l
187.254813 123.97824 l
187.449882 124.13568 l
187.835753 124.29312 l
189.684878 124.76544 l
189.684878 124.92288 l
190.039672 125.08032 l
191.91022 125.3952 l
192.073884 125.55264 l
192.558883 125.71008 l
192.558883 125.86752 l
193.962667 126.1824 l
193.962667 126.33984 l
195.150809 126.65472 l
195.867159 126.81216 l
196.14835 127.12704 l
197.775431 127.7568 l
197.906606 128.07168 l
197.906606 130.43328 l
198.037133 130.74816 l
198.037133 131.37792 l
198.55289 132.16512 l
198.55289 132.32256 l
198.933209 132.63744 l
199.431936 132.79488 l
200.402016 132.95232 l
200.756809 133.2672 l
202.35231 133.73952 l
202.462673 133.89696 l
202.89957 134.0544 l
204.065085 134.21184 l
204.476482 134.52672 l
204.476482 134.8416 l
204.881574 135.15648 l
205.867946 135.6288 l
206.060879 135.94368 l
207.464663 136.25856 l
207.646325 136.416 l
207.646325 136.73088 l
207.916498 137.04576 l
208.360739 137.2032 l
208.448698 137.51808 l
208.623743 137.67552 l
208.710833 138.46272 l
208.797637 138.7776 l
208.884156 139.5648 l
209.312556 140.03712 l
210.87995 140.50944 l
210.87995 140.66688 l
211.277427 140.82432 l
211.35621 140.98176 l
211.669015 141.29664 l
211.669015 141.45408 l
211.978161 141.76896 l
212.660797 143.02848 l
213.616708 143.18592 l
213.688827 143.5008 l
213.975352 143.65824 l
215.091369 143.97312 l
215.363163 144.60288 l
215.565189 144.76032 l
216.030666 144.91776 l
216.293017 145.70496 l
216.3582 146.17728 l
216.810035 146.6496 l
220.227262 147.59424 l
220.728616 147.90912 l
220.893643 148.224 l
221.436408 148.38144 l
221.809819 149.32608 l
222.125739 149.48352 l
222.178028 149.7984 l
222.386152 150.11328 l
222.489603 150.42816 l
222.899406 150.5856 l
223.000871 151.05792 l
224.140559 151.53024 l
224.140559 151.84512 l
224.999427 152.47488 l
225.279624 153.26208 l
225.694429 153.41952 l
225.831263 153.7344 l
225.967392 154.04928 l
226.057757 154.36416 l
227.075337 154.99392 l
227.205223 155.3088 l
227.248377 155.62368 l
227.334474 155.93856 l
227.505831 156.25344 l
227.88737 156.72576 l
228.013335 157.04064 l
228.304941 157.51296 l
228.346338 157.6704 l
228.756776 157.82784 l
228.838105 158.14272 l
228.919184 158.77248 l
229.677277 160.032 l
230.028924 160.50432 l
230.490625 160.66176 l
230.566797 160.8192 l
231.131197 160.97664 l
231.720228 162.07872 l
231.973859 162.3936 l
232.153545 162.70848 l
232.225079 163.02336 l
232.860317 163.33824 l
233.10329 163.65312 l
233.10329 163.81056 l
233.650408 164.12544 l
233.953257 164.44032 l
234.646696 165.38496 l
234.74429 165.85728 l
235.002793 166.17216 l
235.002793 166.3296 l
235.290618 166.48704 l
235.322406 166.64448 l
236.135754 167.43168 l
236.197295 167.74656 l
236.472468 168.37632 l
237.31069 168.84864 l
237.632854 169.63584 l
237.835841 170.2656 l
238.576433 171.84 l
239.35145 172.15488 l
239.703697 172.6272 l
239.837937 173.09952 l
240.183802 173.25696 l
240.210221 173.4144 l
240.499095 173.57184 l
240.681293 174.04416 l
241.848334 174.51648 l
241.848334 174.67392 l
242.822885 175.14624 l
243.013557 175.776 l
243.507622 176.24832 l
243.831941 176.72064 l
244.33368 176.87808 l
244.356262 177.03552 l
245.483066 177.50784 l
245.569444 177.82272 l
246.018356 178.1376 l
246.103005 178.29504 l
247.118539 178.45248 l
247.482006 178.9248 l
247.602059 179.23968 l
247.602059 179.39712 l
247.820751 179.712 l
248.018003 180.18432 l
248.504789 180.65664 l
248.524075 180.81408 l
249.41501 181.75872 l
249.41501 181.91616 l
250.186525 182.38848 l
250.204623 182.54592 l
250.883312 183.01824 l
251.285789 183.96288 l
251.407075 184.4352 l
252.324463 184.75008 l
252.441086 185.06496 l
252.457705 185.2224 l
252.91883 185.37984 l
253.065357 185.69472 l
253.754431 185.85216 l
254.641015 186.7968 l
254.778323 187.11168 l
255.778682 187.74144 l
255.91022 187.89888 l
256.572487 188.21376 l
256.799005 188.52864 l
256.813099 188.68608 l
256.967629 188.84352 l
257.549483 189.1584 l
257.604235 189.31584 l
258.078542 189.47328 l
258.14561 189.63072 l
258.950432 189.78816 l
259.337433 190.26048 l
260.119717 190.57536 l
260.305551 190.89024 l
261.393928 191.04768 l
261.606326 191.20512 l
261.606326 191.36256 l
261.921758 191.52 l
263.047166 191.67744 l
263.27985 191.83488 l
263.29088 191.99232 l
263.466725 192.14976 l
264.371198 192.62208 l
264.739114 192.93696 l
265.70261 194.19648 l
266.1715 195.29856 l
266.191269 195.456 l
266.525107 195.61344 l
266.758243 195.92832 l
266.864414 196.40064 l
266.883672 196.55808 l
268.16136 197.18784 l
268.18886 197.34528 l
268.625006 197.66016 l
268.625006 197.8176 l
268.83147 198.13248 l
268.938554 198.6048 l
269.124912 198.91968 l
269.423877 199.23456 l
269.676231 199.70688 l
270.020398 200.02176 l
270.114264 200.49408 l
271.076132 200.9664 l
271.231733 201.12384 l
272.20961 201.28128 l
272.20961 201.43872 l
272.900827 201.91104 l
273.190534 202.38336 l
273.611765 202.85568 l
274.070429 203.01312 l
275.183433 203.17056 l
275.211544 203.48544 l
275.518812 203.80032 l
275.918465 204.74496 l
276.291944 205.05984 l
276.372734 205.21728 l
276.792876 205.53216 l
277.167334 206.00448 l
277.607226 206.16192 l
277.639284 206.31936 l
278.008341 206.63424 l
278.841786 206.79168 l
278.970052 206.94912 l
279.411144 207.10656 l
279.482953 207.42144 l
279.738679 207.89376 l
279.962628 208.52352 l
279.997815 208.8384 l
280.71473 209.15328 l
280.907953 209.94048 l
281.150319 210.09792 l
281.150319 210.25536 l
281.329252 210.4128 l
282.671086 210.72768 l
283.013164 211.35744 l
283.983385 211.67232 l
284.403421 211.9872 l
284.699412 212.45952 l
285.219174 212.61696 l
285.363085 213.08928 l
285.809001 213.24672 l
285.855999 213.40416 l
286.537398 213.71904 l
286.56484 213.87648 l
288.161336 214.50624 l
288.204336 214.66368 l
288.803296 215.136 l
288.958247 215.29344 l
289.609897 215.60832 l
289.776403 216.23808 l
290.066289 216.39552 l
290.106301 216.7104 l
291.056563 217.18272 l
291.466068 217.81248 l
291.880544 217.96992 l
292.074238 218.2848 l
292.892759 218.44224 l
293.285617 218.75712 l
293.978374 218.91456 l
294.102402 219.22944 l
294.195042 219.38688 l
294.484587 219.54432 l
295.28212 219.70176 l
295.563311 220.17408 l
295.880133 220.80384 l
295.957147 221.11872 l
296.680916 221.4336 l
297.144479 221.90592 l
297.630147 222.06336 l
298.068622 222.69312 l
299.021533 223.008 l
299.387092 223.48032 l
300.413802 223.7952 l
300.489491 224.11008 l
300.599932 224.42496 l
300.599932 224.5824 l
300.965655 224.89728 l
301.705472 225.05472 l
301.905791 225.52704 l
303.167241 226.1568 l
303.22085 226.31424 l
304.012206 226.47168 l
304.092409 226.62912 l
304.485175 226.944 l
304.538495 227.25888 l
304.913321 227.57376 l
306.370276 228.04608 l
306.428555 228.20352 l
307.224976 228.5184 l
307.466553 228.99072 l
308.07722 229.14816 l
308.079246 229.3056 l
308.618585 229.62048 l
308.644373 229.77792 l
309.273286 229.93536 l
309.313913 230.25024 l
310.227768 230.56512 l
310.413855 230.88 l
311.157996 231.19488 l
311.334089 231.50976 l
312.004267 231.82464 l
312.138372 231.98208 l
312.859803 232.4544 l
312.871634 232.61184 l
313.056848 232.76928 l
314.019006 233.08416 l
314.265394 233.71392 l
314.953614 234.0288 l
316.262179 235.13088 l
316.787519 235.28832 l
316.809365 235.44576 l
317.695492 235.76064 l
318.097864 236.23296 l
318.247188 236.54784 l
318.528328 236.70528 l
318.55696 236.86272 l
319.851953 237.49248 l
320.176921 237.80736 l
321.035631 237.9648 l
321.21369 238.12224 l
321.308412 238.59456 l
322.062566 239.5392 l
322.084038 239.69664 l
323.052238 240.16896 l
323.060284 240.3264 l
323.538596 240.95616 l
323.549879 241.1136 l
324.923693 241.27104 l
325.013502 241.58592 l
325.516737 241.9008 l
325.633765 242.05824 l
326.231654 242.21568 l
326.530641 242.53056 l
328.997853 242.84544 l
329.203598 243.16032 l
330.386375 243.63264 l
330.492425 243.79008 l
330.883375 243.94752 l
331.683198 244.10496 l
331.82793 244.41984 l
331.899589 244.57728 l
332.233887 244.89216 l
332.280143 245.0496 l
332.6489 245.36448 l
332.703214 245.52192 l
333.455996 245.8368 l
333.464525 245.99424 l
334.141876 246.46656 l
334.375094 246.78144 l
335.320459 246.93888 l
336.577904 248.1984 l
337.526806 248.51328 l
338.23911 248.82816 l
338.343095 248.9856 l
338.685088 249.30048 l
338.841791 249.61536 l
339.473067 249.93024 l
339.746489 250.08768 l
339.763599 250.24512 l
340.284393 250.56 l
340.560856 250.71744 l
341.075044 250.87488 l
341.122667 251.03232 l
343.800602 252.60672 l
344.85322 252.9216 l
344.856243 253.07904 l
345.219505 253.23648 l
345.286012 253.39392 l
346.355111 253.7088 l
346.625542 253.86624 l
347.617411 254.02368 l
347.746441 254.18112 l
349.160812 254.33856 l
349.212989 254.81088 l
349.370178 254.96832 l
350.539924 255.2832 l
350.786231 255.59808 l
351.154816 255.75552 l
351.157595 255.91296 l
351.987549 256.38528 l
352.331133 256.8576 l
352.614393 257.01504 l
352.795219 257.32992 l
353.335874 257.48736 l
353.427468 257.6448 l
354.029995 257.95968 l
354.464026 258.74688 l
355.29397 258.90432 l
355.895364 259.53408 l
357.470379 259.69152 l
357.87184 259.84896 l
358.19257 260.47872 l
358.475468 260.7936 l
358.495023 260.95104 l
359.113841 261.5808 l
359.625885 261.89568 l
359.688049 262.21056 l
360.003512 262.52544 l
360.414162 262.99776 l
361.052973 263.47008 l
361.365331 263.78496 l
362.145254 264.09984 l
363.580794 264.41472 l
364.262128 264.57216 l
364.368779 264.7296 l
365.338319 264.88704 l
365.950276 265.35936 l
366.05147 265.5168 l
366.524647 265.83168 l
370.028047 266.77632 l
370.128745 267.0912 l
370.695641 267.24864 l
370.773996 267.56352 l
370.985189 267.8784 l
371.35326 268.03584 l
371.404793 268.19328 l
371.82111 268.35072 l
371.84199 268.50816 l
372.321669 268.6656 l
372.683142 269.13792 l
373.231579 269.4528 l
373.335214 269.61024 l
373.76701 269.76768 l
373.80748 269.92512 l
374.880112 270.71232 l
376.036182 271.0272 l
376.170112 271.18464 l
377.643395 271.49952 l
377.799159 272.12928 l
378.290614 272.44416 l
378.488109 272.75904 l
378.839618 272.91648 l
378.847835 273.07392 l
379.29667 273.23136 l
379.330735 273.3888 l
380.190903 273.54624 l
380.215639 273.70368 l
381.51248 274.01856 l
382.038454 274.33344 l
382.060042 274.49088 l
382.984984 275.27808 l
383.176579 275.59296 l
383.534786 276.06528 l
385.21083 276.38016 l
385.224946 276.5376 l
385.709778 276.69504 l
385.711281 276.85248 l
385.934473 277.00992 l
387.971545 277.3248 l
388.374664 277.48224 l
388.428211 277.63968 l
389.173658 278.112 l
390.953878 278.42688 l
391.163543 278.58432 l
391.189394 278.8992 l
392.047208 279.05664 l
392.191067 279.21408 l
392.684001 279.52896 l
392.717143 279.6864 l
394.53198 280.78848 l
394.839038 280.94592 l
395.980269 281.10336 l
395.998468 281.2608 l
396.139487 281.41824 l
396.685808 281.57568 l
397.890526 281.73312 l
398.232515 282.36288 l
399.537445 282.99264 l
399.805459 283.46496 l
400.677349 283.6224 l
400.877653 283.77984 l
402.05573 284.09472 l
402.059202 284.25216 l
402.81382 284.4096 l
402.889399 284.56704 l
403.163563 284.72448 l
403.947261 284.88192 l
403.955017 285.03936 l
404.994405 285.1968 l
405.054142 285.35424 l
407.934543 285.66912 l
408.465877 285.82656 l
409.557296 285.984 l
410.032095 286.29888 l
413.352155 286.45632 l
413.598555 286.7712 l
414.660232 286.92864 l
418.462184 287.24352 l
418.764772 287.40096 l
421.555372 287.71584 l
424.577988 288.03072 l
424.579272 288.18816 l
424.85641 288.3456 l
425.682548 288.50304 l
430.214274 288.81792 l
433.120624 288.97536 l
433.238239 289.1328 l
434.479019 289.29024 l
434.716892 289.60512 l
436.128767 289.76256 l
443.356442 289.92 l
443.356442 289.92 l
stroke
grestore
[1.5 2.475] 0 setdash
0.173 0.627 0.173 setrgbcolor
gsave
398.6 283.4 57.6 38.02 clipbox
-1 54.547001 m
75.921067 54.5472 l
109.033738 55.01952 l
109.033738 55.64928 l
115.676408 55.80672 l
115.676408 56.43648 l
120.980479 56.59392 l
120.980479 56.9088 l
123.280338 57.06624 l
123.280338 57.38112 l
125.396004 57.53856 l
125.396004 58.01088 l
129.178405 58.16832 l
129.178405 58.32576 l
133.997476 58.64064 l
140.476482 59.2704 l
142.680401 59.42784 l
142.680401 59.58528 l
143.717071 59.74272 l
143.717071 59.90016 l
145.675872 60.21504 l
145.675872 60.37248 l
146.603395 60.52992 l
146.603395 60.68736 l
149.205335 61.00224 l
149.205335 61.15968 l
150.018683 61.31712 l
151.573938 61.47456 l
151.573938 61.632 l
152.318543 61.78944 l
152.318543 62.10432 l
153.042744 62.26176 l
153.042744 62.4192 l
155.103401 62.73408 l
155.756069 62.89152 l
155.756069 63.36384 l
156.393009 63.52128 l
156.393009 63.67872 l
157.01496 63.83616 l
157.01496 63.9936 l
158.216609 64.30848 l
159.365995 64.46592 l
159.365995 64.62336 l
159.922472 64.7808 l
159.922472 64.93824 l
161.001468 65.25312 l
161.001468 65.568 l
161.524885 65.72544 l
162.541615 65.88288 l
162.541615 66.19776 l
163.03568 66.3552 l
163.03568 66.51264 l
164.464769 66.82752 l
165.376298 67.1424 l
165.376298 67.29984 l
165.820539 67.45728 l
165.820539 68.08704 l
166.257436 68.24448 l
167.526402 68.55936 l
168.33975 68.87424 l
169.128815 69.03168 l
169.128815 69.18912 l
169.514686 69.34656 l
169.514686 69.97632 l
169.895005 70.13376 l
170.63961 70.2912 l
170.63961 70.44864 l
172.414216 71.23584 l
172.414216 71.55072 l
172.755275 71.70816 l
172.755275 71.8656 l
173.09199 72.02304 l
173.09199 72.18048 l
173.424468 72.33792 l
173.424468 72.6528 l
173.752817 72.81024 l
173.752817 72.96768 l
174.077136 73.12512 l
174.077136 73.28256 l
174.714076 73.59744 l
174.714076 73.75488 l
175.026881 73.91232 l
175.94368 74.2272 l
176.242346 74.38464 l
176.242346 74.69952 l
176.537676 74.85696 l
176.537676 75.0144 l
177.404367 75.48672 l
178.788543 75.95904 l
178.788543 76.11648 l
179.056887 76.27392 l
179.056887 76.5888 l
179.322535 76.74624 l
179.322535 77.06112 l
179.585539 77.21856 l
179.585539 121.61664 l
183.920418 123.0336 l
184.141606 123.19104 l
184.141606 123.34848 l
184.360957 123.50592 l
184.360957 123.66336 l
185.008297 123.8208 l
185.008297 123.97824 l
186.660817 124.29312 l
186.660817 124.45056 l
187.254813 124.76544 l
187.449882 124.92288 l
188.776483 125.55264 l
188.776483 125.86752 l
189.143596 126.02496 l
190.563089 126.33984 l
191.91022 126.65472 l
192.073884 126.81216 l
193.347948 127.12704 l
193.347948 127.28448 l
193.657094 127.44192 l
193.657094 127.59936 l
193.962667 127.7568 l
195.150809 128.07168 l
195.439683 128.22912 l
195.439683 128.38656 l
195.867159 128.70144 l
196.838513 128.85888 l
196.838513 129.01632 l
197.643602 129.3312 l
197.906606 129.48864 l
197.906606 132.16512 l
198.037133 132.48 l
198.037133 133.2672 l
198.167019 133.42464 l
198.55289 133.58208 l
198.55289 133.89696 l
198.933209 134.21184 l
200.282685 134.8416 l
200.874023 135.6288 l
202.018432 136.25856 l
202.462673 136.73088 l
203.75228 137.36064 l
203.75228 137.51808 l
204.476482 137.83296 l
205.081815 138.7776 l
206.81883 139.5648 l
206.912063 139.72224 l
208.095091 140.03712 l
208.183937 140.19456 l
208.623743 140.50944 l
208.710833 141.1392 l
208.797637 141.45408 l
208.884156 142.24128 l
209.481991 142.87104 l
209.481991 143.02848 l
211.119153 143.65824 l
211.35621 143.97312 l
211.59116 144.288 l
211.978161 144.91776 l
213.25313 145.54752 l
213.471876 145.70496 l
213.471876 145.8624 l
214.117459 146.17728 l
214.3994 146.49216 l
215.091369 146.6496 l
215.227615 147.12192 l
215.227615 147.27936 l
215.63219 147.59424 l
215.699021 147.90912 l
216.030666 148.53888 l
216.227673 148.69632 l
216.293017 149.32608 l
216.55279 149.95584 l
216.873957 150.27072 l
216.873957 150.42816 l
217.12811 150.5856 l
217.814687 150.74304 l
217.937625 151.05792 l
219.136548 151.3728 l
219.543645 152.00256 l
220.28344 152.31744 l
220.506965 152.63232 l
221.003091 153.10464 l
221.650431 153.41952 l
222.386152 154.67904 l
222.489603 154.99392 l
222.950187 155.46624 l
224.140559 156.72576 l
224.140559 156.8832 l
224.716227 157.35552 l
225.23313 157.82784 l
225.556882 157.98528 l
225.556882 158.14272 l
225.740119 158.30016 l
225.831263 158.77248 l
226.012613 159.08736 l
226.192728 159.40224 l
226.416158 159.87456 l
226.416158 160.032 l
226.813635 160.50432 l
227.205223 161.6064 l
227.377417 162.07872 l
227.420291 162.23616 l
227.845248 162.70848 l
227.845248 162.86592 l
228.09698 163.1808 l
228.716018 164.44032 l
228.716018 164.59776 l
229.241035 165.38496 l
229.280992 165.69984 l
229.44022 165.85728 l
229.519475 166.48704 l
230.414233 167.74656 l
230.490625 168.06144 l
230.64275 168.6912 l
231.019277 169.00608 l
231.205547 169.32096 l
231.27969 169.79328 l
231.647313 170.89536 l
231.973859 171.21024 l
232.225079 171.99744 l
232.509293 172.31232 l
232.650263 172.94208 l
232.825424 173.09952 l
233.514686 173.4144 l
234.285736 174.9888 l
234.581432 175.30368 l
234.841525 176.40576 l
235.034929 176.72064 l
235.034929 176.87808 l
235.163083 177.19296 l
235.290618 177.66528 l
235.70091 177.98016 l
235.794695 178.29504 l
235.825883 178.45248 l
236.135754 178.76736 l
236.197295 179.08224 l
236.593854 179.712 l
236.684529 180.02688 l
237.398943 180.81408 l
237.632854 180.97152 l
237.691009 181.2864 l
238.008598 181.44384 l
238.123145 181.75872 l
238.463838 181.91616 l
238.688551 182.70336 l
239.378713 183.648 l
239.460334 183.96288 l
240.341918 184.59264 l
240.5252 185.06496 l
240.707219 185.37984 l
240.784846 186.0096 l
240.83647 186.16704 l
241.397782 186.48192 l
242.364451 187.584 l
242.51008 188.05632 l
242.751027 188.21376 l
242.775002 188.3712 l
243.037294 188.52864 l
243.06101 188.84352 l
243.343957 189.1584 l
243.414223 189.47328 l
243.762778 190.10304 l
244.015496 190.41792 l
244.311079 190.89024 l
245.046889 192.46464 l
245.265877 192.62208 l
245.483066 193.40928 l
245.634043 193.8816 l
245.677021 194.03904 l
246.145228 194.35392 l
246.45977 194.6688 l
246.626008 195.14112 l
246.626008 195.29856 l
246.893934 195.456 l
247.016682 195.77088 l
247.421774 196.55808 l
247.522084 197.0304 l
247.661882 197.97504 l
247.800944 198.13248 l
248.213795 198.28992 l
248.427503 198.76224 l
248.658686 198.91968 l
248.754418 199.23456 l
248.982771 199.54944 l
249.265466 199.86432 l
249.377703 200.1792 l
249.986628 200.49408 l
250.132157 200.9664 l
250.402884 201.43872 l
251.059056 201.7536 l
251.562202 203.01312 l
252.623317 203.80032 l
252.91883 204.43008 l
253.516091 204.74496 l
253.675223 205.05984 l
253.691084 205.21728 l
254.178101 205.53216 l
254.240293 205.6896 l
254.67159 206.16192 l
254.960298 206.4768 l
255.050817 206.94912 l
255.230932 207.10656 l
255.822601 207.42144 l
255.837224 207.57888 l
256.657659 207.89376 l
256.827184 208.52352 l
256.883452 208.8384 l
257.218565 209.6256 l
257.604235 209.78304 l
257.617906 209.94048 l
257.984359 210.25536 l
258.14561 210.57024 l
258.49165 210.88512 l
258.702367 211.35744 l
259.067128 211.67232 l
259.14464 211.82976 l
259.579635 212.14464 l
259.592321 212.30208 l
259.995098 212.61696 l
260.268489 213.24672 l
261.012063 213.40416 l
261.215615 213.87648 l
261.547498 214.19136 l
261.641561 214.66368 l
262.778708 215.136 l
262.778708 215.29344 l
263.488624 215.60832 l
264.083836 215.9232 l
264.137288 216.08064 l
264.874475 216.23808 l
265.132851 216.7104 l
265.601764 216.86784 l
265.913143 217.4976 l
266.191269 217.81248 l
266.299737 218.12736 l
266.476276 218.44224 l
266.534862 218.59968 l
266.825856 218.75712 l
266.883672 219.072 l
267.104138 219.22944 l
267.123222 219.38688 l
268.004986 219.8592 l
268.453225 220.33152 l
268.498539 220.48896 l
268.902907 220.80384 l
268.929646 220.96128 l
269.362601 221.27616 l
269.667569 221.74848 l
269.676231 221.90592 l
270.393878 222.37824 l
270.478028 222.53568 l
270.952638 222.69312 l
271.018573 223.16544 l
271.483659 223.63776 l
271.491746 223.7952 l
271.940703 224.26752 l
273.000295 224.5824 l
273.499592 224.73984 l
273.619227 225.05472 l
274.340404 225.3696 l
274.578887 225.99936 l
275.553504 227.41632 l
276.52021 227.88864 l
276.640263 228.20352 l
276.819327 228.5184 l
277.60081 228.99072 l
277.652096 229.3056 l
278.014659 229.77792 l
278.071454 230.0928 l
278.571005 230.40768 l
278.731347 230.72256 l
279.803702 230.88 l
279.815507 231.03744 l
280.021248 231.35232 l
280.079738 231.98208 l
280.312413 232.29696 l
281.088529 232.61184 l
281.826103 232.92672 l
282.559616 233.08416 l
283.117534 234.0288 l
283.968259 234.18624 l
284.254173 234.816 l
284.259162 234.97344 l
284.855929 235.28832 l
285.243214 235.76064 l
286.560268 235.91808 l
287.116746 236.23296 l
287.286324 236.54784 l
287.547478 236.70528 l
288.371368 236.86272 l
288.541594 237.1776 l
288.752846 237.33504 l
290.106301 237.49248 l
290.360951 237.64992 l
290.360951 237.80736 l
290.526742 237.9648 l
292.092788 238.752 l
292.262839 238.90944 l
293.978374 239.38176 l
294.602895 240.3264 l
295.090776 240.64128 l
295.28212 240.95616 l
295.657461 241.1136 l
295.693085 241.27104 l
296.845638 241.9008 l
298.482474 242.37312 l
299.370201 242.688 l
299.586154 242.84544 l
300.489491 243.00288 l
300.626799 243.16032 l
300.965655 243.31776 l
301.700316 243.4752 l
301.790408 243.79008 l
302.216098 243.94752 l
302.357323 244.41984 l
302.457738 244.57728 l
302.707119 244.73472 l
303.626682 245.0496 l
303.936497 245.52192 l
303.936497 245.67936 l
304.485175 245.99424 l
305.341384 246.30912 l
306.262012 246.46656 l
306.447953 246.624 l
307.373099 246.78144 l
307.561743 247.09632 l
308.07722 247.4112 l
309.358338 247.56864 l
309.523789 247.72608 l
310.304222 247.88352 l
310.328418 248.04096 l
311.334089 248.35584 l
311.33767 248.51328 l
312.004267 248.82816 l
312.053111 248.9856 l
312.859803 249.45792 l
312.962719 249.61536 l
313.328938 249.7728 l
314.104616 249.93024 l
314.117515 250.08768 l
314.614117 250.40256 l
314.778123 250.56 l
316.035295 251.03232 l
316.262179 251.3472 l
316.762738 251.66208 l
317.062912 251.81952 l
318.097864 252.1344 l
318.249945 252.29184 l
318.55696 252.44928 l
318.571945 252.60672 l
319.129841 252.9216 l
319.754459 253.07904 l
319.851953 253.23648 l
320.520724 253.55136 l
320.73743 253.7088 l
321.239557 253.86624 l
321.308412 254.02368 l
322.328547 254.496 l
323.232105 254.81088 l
323.358537 255.12576 l
323.893961 255.2832 l
324.895833 255.44064 l
325.452779 255.91296 l
325.501024 256.0704 l
326.16123 256.22784 l
326.396262 256.54272 l
327.453612 256.70016 l
327.937708 257.01504 l
329.643512 257.32992 l
330.341043 257.95968 l
331.275366 258.27456 l
331.82793 258.58944 l
331.871608 258.74688 l
332.159873 258.90432 l
332.703214 259.06176 l
332.73272 259.2192 l
332.939929 259.37664 l
334.018418 259.69152 l
334.854577 260.32128 l
335.955248 260.63616 l
336.007406 260.7936 l
336.356463 260.95104 l
337.390834 261.10848 l
338.035776 261.89568 l
339.313238 262.368 l
339.497143 262.68288 l
339.763599 262.84032 l
339.808765 262.99776 l
341.029081 263.1552 l
341.122667 263.31264 l
342.422994 263.47008 l
343.483576 263.9424 l
344.856243 264.09984 l
345.232423 264.41472 l
345.518457 264.57216 l
346.842343 264.88704 l
347.741924 265.20192 l
347.769915 265.35936 l
347.960996 265.5168 l
350.138686 265.83168 l
350.22518 266.14656 l
350.933162 266.304 l
351.154816 266.77632 l
352.603121 267.24864 l
354.131636 267.40608 l
354.303816 267.56352 l
356.370208 267.8784 l
356.664162 268.19328 l
357.672492 268.50816 l
357.744369 268.6656 l
358.658414 268.98048 l
358.771149 269.29536 l
359.097385 269.4528 l
359.216461 270.24 l
359.486638 270.39744 l
359.673672 270.86976 l
361.265322 271.8144 l
362.097275 271.97184 l
362.41472 272.28672 l
364.236487 272.75904 l
364.41978 272.91648 l
365.853701 273.23136 l
365.87077 273.3888 l
367.070937 273.86112 l
367.132173 274.01856 l
367.475885 274.176 l
367.544522 274.33344 l
370.195084 274.80576 l
370.334761 274.9632 l
371.82111 275.12064 l
373.297279 275.90784 l
373.443741 276.06528 l
374.48729 276.38016 l
374.572871 276.5376 l
375.001822 276.85248 l
375.150053 277.16736 l
375.162381 277.3248 l
379.293248 277.63968 l
379.857962 278.112 l
380.737213 278.26944 l
381.407407 278.8992 l
381.837776 279.05664 l
382.675876 279.21408 l
383.114685 279.52896 l
384.241613 280.00128 l
385.709778 280.31616 l
385.804338 280.4736 l
386.534309 280.63104 l
386.536599 280.78848 l
387.27444 281.10336 l
387.973911 281.2608 l
389.22279 281.41824 l
389.293223 281.57568 l
390.468204 281.89056 l
390.918978 282.20544 l
392.548529 282.52032 l
392.617758 282.67776 l
393.022281 282.8352 l
393.094505 282.99264 l
393.851838 283.30752 l
397.417249 283.46496 l
399.734856 283.93728 l
400.400214 284.25216 l
400.927946 284.56704 l
400.941349 284.72448 l
401.466717 284.88192 l
403.378443 285.03936 l
404.105438 285.51168 l
404.545155 285.66912 l
409.568579 286.45632 l
412.374429 286.61376 l
412.644766 286.7712 l
420.143576 287.08608 l
421.918989 287.40096 l
421.985503 287.5584 l
422.724432 287.87328 l
423.987895 288.03072 l
424.200185 288.18816 l
425.719191 288.50304 l
428.960269 288.81792 l
429.92842 288.97536 l
430.199473 289.1328 l
445.728479 289.76256 l
456.192 289.92 l
456.192 289.92 l
stroke
grestore
0.800 setlinewidth
0 setlinejoin
2 setlinecap
[] 0 setdash
0.000 setgray
gsave
57.6 38.016 m
57.6 321.408 l
stroke
grestore
gsave
456.192 38.016 m
456.192 321.408 l
stroke
grestore
gsave
57.6 38.016 m
456.192 38.016 l
stroke
grestore
gsave
57.6 321.408 m
456.192 321.408 l
stroke
grestore
/DejaVuSans findfont
12.000 scalefont
setfont
gsave
220.567875 327.408000 translate
0.000000 rotate
0.000000 0.000000 m /P glyphshow
7.236328 0.000000 m /i glyphshow
10.570312 0.000000 m /v glyphshow
17.671875 0.000000 m /o glyphshow
25.013672 0.000000 m /t glyphshow
29.718750 0.000000 m /space glyphshow
33.533203 0.000000 m /r glyphshow
38.466797 0.000000 m /a glyphshow
45.820312 0.000000 m /t glyphshow
50.525391 0.000000 m /i glyphshow
53.859375 0.000000 m /o glyphshow
61.201172 0.000000 m /space glyphshow
65.015625 0.000000 m /one glyphshow
grestore
1.000 setlinewidth
0 setlinecap
0.800 setgray
gsave
64.6 269.392375 m
202.303125 269.392375 l
203.636458 269.392375 204.303125 270.059042 204.303125 271.392375 c
204.303125 314.408 l
204.303125 315.741333 203.636458 316.408 202.303125 316.408 c
64.6 316.408 l
63.266667 316.408 62.6 315.741333 62.6 314.408 c
62.6 271.392375 l
62.6 270.059042 63.266667 269.392375 64.6 269.392375 c
cl
gsave
1.000 setgray
fill
grestore
stroke
grestore
1.500 setlinewidth
1 setlinejoin
2 setlinecap
[] 0 setdash
0.122 0.467 0.706 setrgbcolor
gsave
66.6 308.31425 m
86.6 308.31425 l
stroke
grestore
0.000 setgray
/DejaVuSans findfont
10.000 scalefont
setfont
gsave
94.600000 304.814250 translate
0.000000 rotate
0.000000 0.000000 m /R glyphshow
6.948242 0.000000 m /o glyphshow
13.066406 0.000000 m /u glyphshow
19.404297 0.000000 m /n glyphshow
25.742188 0.000000 m /d glyphshow
32.089844 0.000000 m /i glyphshow
34.868164 0.000000 m /n glyphshow
41.206055 0.000000 m /g glyphshow
47.553711 0.000000 m /S glyphshow
53.901367 0.000000 m /a glyphshow
60.029297 0.000000 m /t glyphshow
63.950195 0.000000 m /plus glyphshow
72.329102 0.000000 m /S glyphshow
78.676758 0.000000 m /o glyphshow
84.794922 0.000000 m /P glyphshow
90.825195 0.000000 m /l glyphshow
93.603516 0.000000 m /e glyphshow
99.755859 0.000000 m /x glyphshow
grestore
0 setlinecap
[9.6 2.4 1.5 2.4] 0 setdash
1.000 0.498 0.055 setrgbcolor
gsave
66.6 293.642375 m
86.6 293.642375 l
stroke
grestore
0.000 setgray
gsave
94.600000 290.142375 translate
0.000000 rotate
0.000000 0.000000 m /n glyphshow
6.337891 0.000000 m /a glyphshow
12.465820 0.000000 m /i glyphshow
15.244141 0.000000 m /v glyphshow
21.162109 0.000000 m /e glyphshow
grestore
[1.5 2.475] 0 setdash
0.173 0.627 0.173 setrgbcolor
gsave
66.6 278.9705 m
86.6 278.9705 l
stroke
grestore
0.000 setgray
gsave
94.600000 275.470500 translate
0.000000 rotate
0.000000 0.000000 m /t glyphshow
3.920898 0.000000 m /i glyphshow
6.699219 0.000000 m /g glyphshow
13.046875 0.000000 m /h glyphshow
19.384766 0.000000 m /t glyphshow
grestore

end
showpage
