%!PS-Adobe-3.0 EPSF-3.0
%%Title: /home/jodv/workspace/PB_experiments/results/summarized/abisko_addlearnts1/scripts/../graphs/learnts1_ecdf_PB16.eps
%%Creator: matplotlib version 3.0.3, http://matplotlib.org/
%%CreationDate: Fri Apr 19 21:42:22 2019
%%Orientation: portrait
%%BoundingBox: 126 216 486 576
%%EndComments
%%BeginProlog
/mpldict 8 dict def
mpldict begin
/m { moveto } bind def
/l { lineto } bind def
/r { rlineto } bind def
/c { curveto } bind def
/cl { closepath } bind def
/box {
m
1 index 0 r
0 exch r
neg 0 r
cl
} bind def
/clipbox {
box
clip
newpath
} bind def
%!PS-Adobe-3.0 Resource-Font
%%Title: DejaVu Sans
%%Copyright: Copyright (c) 2003 by Bitstream, Inc. All Rights Reserved. Copyright (c) 2006 by Tavmjong Bah. All Rights Reserved. DejaVu changes are in public domain 
%%Creator: Converted from TrueType to type 3 by PPR
25 dict begin
/_d{bind def}bind def
/_m{moveto}_d
/_l{lineto}_d
/_cl{closepath eofill}_d
/_c{curveto}_d
/_sc{7 -1 roll{setcachedevice}{pop pop pop pop pop pop}ifelse}_d
/_e{exec}_d
/FontName /DejaVuSans def
/PaintType 0 def
/FontMatrix[.001 0 0 .001 0 0]def
/FontBBox[-1021 -463 1793 1232]def
/FontType 3 def
/Encoding [ /space /parenleft /parenright /plus /zero /one /two /three /four /five /six /seven /B /N /P /R /S /T /a /b /c /d /e /f /g /h /i /l /m /n /o /r /s /t /u /v /x /minus ] def
/FontInfo 10 dict dup begin
/FamilyName (DejaVu Sans) def
/FullName (DejaVu Sans) def
/Notice (Copyright (c) 2003 by Bitstream, Inc. All Rights Reserved. Copyright (c) 2006 by Tavmjong Bah. All Rights Reserved. DejaVu changes are in public domain ) def
/Weight (Book) def
/Version (Version 2.35) def
/ItalicAngle 0.0 def
/isFixedPitch false def
/UnderlinePosition -130 def
/UnderlineThickness 90 def
end readonly def
/CharStrings 39 dict dup begin
/.notdef 0 def
/space{318 0 0 0 0 0 _sc
}_d
/parenleft{390 0 86 -131 310 759 _sc
310 759 _m
266 683 234 609 213 536 _c
191 463 181 389 181 314 _c
181 238 191 164 213 91 _c
234 17 266 -56 310 -131 _c
232 -131 _l
183 -54 146 20 122 94 _c
98 168 86 241 86 314 _c
86 386 98 459 122 533 _c
146 607 182 682 232 759 _c
310 759 _l
_cl}_d
/parenright{390 0 80 -131 304 759 _sc
80 759 _m
158 759 _l
206 682 243 607 267 533 _c
291 459 304 386 304 314 _c
304 241 291 168 267 94 _c
243 20 206 -54 158 -131 _c
80 -131 _l
123 -56 155 17 177 91 _c
198 164 209 238 209 314 _c
209 389 198 463 177 536 _c
155 609 123 683 80 759 _c
_cl}_d
/plus{838 0 106 0 732 627 _sc
460 627 _m
460 355 _l
732 355 _l
732 272 _l
460 272 _l
460 0 _l
378 0 _l
378 272 _l
106 272 _l
106 355 _l
378 355 _l
378 627 _l
460 627 _l
_cl}_d
/zero{636 0 66 -13 570 742 _sc
318 664 _m
267 664 229 639 203 589 _c
177 539 165 464 165 364 _c
165 264 177 189 203 139 _c
229 89 267 64 318 64 _c
369 64 407 89 433 139 _c
458 189 471 264 471 364 _c
471 464 458 539 433 589 _c
407 639 369 664 318 664 _c
318 742 _m
399 742 461 709 505 645 _c
548 580 570 486 570 364 _c
570 241 548 147 505 83 _c
461 19 399 -13 318 -13 _c
236 -13 173 19 130 83 _c
87 147 66 241 66 364 _c
66 486 87 580 130 645 _c
173 709 236 742 318 742 _c
_cl}_d
/one{636 0 110 0 544 729 _sc
124 83 _m
285 83 _l
285 639 _l
110 604 _l
110 694 _l
284 729 _l
383 729 _l
383 83 _l
544 83 _l
544 0 _l
124 0 _l
124 83 _l
_cl}_d
/two{{636 0 73 0 536 742 _sc
192 83 _m
536 83 _l
536 0 _l
73 0 _l
73 83 _l
110 121 161 173 226 239 _c
290 304 331 346 348 365 _c
380 400 402 430 414 455 _c
426 479 433 504 433 528 _c
433 566 419 598 392 622 _c
365 646 330 659 286 659 _c
255 659 222 653 188 643 _c
154 632 117 616 78 594 _c
78 694 _l
118 710 155 722 189 730 _c
223 738 255 742 284 742 _c
}_e{359 742 419 723 464 685 _c
509 647 532 597 532 534 _c
532 504 526 475 515 449 _c
504 422 484 390 454 354 _c
446 344 420 317 376 272 _c
332 227 271 164 192 83 _c
_cl}_e}_d
/three{{636 0 76 -13 556 742 _sc
406 393 _m
453 383 490 362 516 330 _c
542 298 556 258 556 212 _c
556 140 531 84 482 45 _c
432 6 362 -13 271 -13 _c
240 -13 208 -10 176 -4 _c
144 1 110 10 76 22 _c
76 117 _l
103 101 133 89 166 81 _c
198 73 232 69 268 69 _c
330 69 377 81 409 105 _c
441 129 458 165 458 212 _c
458 254 443 288 413 312 _c
383 336 341 349 287 349 _c
}_e{202 349 _l
202 430 _l
291 430 _l
339 430 376 439 402 459 _c
428 478 441 506 441 543 _c
441 580 427 609 401 629 _c
374 649 336 659 287 659 _c
260 659 231 656 200 650 _c
169 644 135 635 98 623 _c
98 711 _l
135 721 170 729 203 734 _c
235 739 266 742 296 742 _c
370 742 429 725 473 691 _c
517 657 539 611 539 553 _c
539 513 527 479 504 451 _c
481 423 448 403 406 393 _c
_cl}_e}_d
/four{636 0 49 0 580 729 _sc
378 643 _m
129 254 _l
378 254 _l
378 643 _l
352 729 _m
476 729 _l
476 254 _l
580 254 _l
580 172 _l
476 172 _l
476 0 _l
378 0 _l
378 172 _l
49 172 _l
49 267 _l
352 729 _l
_cl}_d
/five{{636 0 77 -13 549 729 _sc
108 729 _m
495 729 _l
495 646 _l
198 646 _l
198 467 _l
212 472 227 476 241 478 _c
255 480 270 482 284 482 _c
365 482 429 459 477 415 _c
525 370 549 310 549 234 _c
549 155 524 94 475 51 _c
426 8 357 -13 269 -13 _c
238 -13 207 -10 175 -6 _c
143 -1 111 6 77 17 _c
77 116 _l
106 100 136 88 168 80 _c
199 72 232 69 267 69 _c
}_e{323 69 368 83 401 113 _c
433 143 450 183 450 234 _c
450 284 433 324 401 354 _c
368 384 323 399 267 399 _c
241 399 214 396 188 390 _c
162 384 135 375 108 363 _c
108 729 _l
_cl}_e}_d
/six{{636 0 70 -13 573 742 _sc
330 404 _m
286 404 251 388 225 358 _c
199 328 186 286 186 234 _c
186 181 199 139 225 109 _c
251 79 286 64 330 64 _c
374 64 409 79 435 109 _c
461 139 474 181 474 234 _c
474 286 461 328 435 358 _c
409 388 374 404 330 404 _c
526 713 _m
526 623 _l
501 635 476 644 451 650 _c
425 656 400 659 376 659 _c
310 659 260 637 226 593 _c
}_e{192 549 172 482 168 394 _c
187 422 211 444 240 459 _c
269 474 301 482 336 482 _c
409 482 467 459 509 415 _c
551 371 573 310 573 234 _c
573 159 550 99 506 54 _c
462 9 403 -13 330 -13 _c
246 -13 181 19 137 83 _c
92 147 70 241 70 364 _c
70 479 97 571 152 639 _c
206 707 280 742 372 742 _c
396 742 421 739 447 735 _c
472 730 498 723 526 713 _c
_cl}_e}_d
/seven{636 0 82 0 551 729 _sc
82 729 _m
551 729 _l
551 687 _l
286 0 _l
183 0 _l
432 646 _l
82 646 _l
82 729 _l
_cl}_d
/B{{686 0 98 0 615 729 _sc
197 348 _m
197 81 _l
355 81 _l
408 81 447 92 473 114 _c
498 136 511 169 511 215 _c
511 260 498 293 473 315 _c
447 337 408 348 355 348 _c
197 348 _l
197 648 _m
197 428 _l
343 428 _l
391 428 426 437 450 455 _c
474 473 486 500 486 538 _c
486 574 474 602 450 620 _c
426 638 391 648 343 648 _c
197 648 _l
98 729 _m
350 729 _l
}_e{425 729 483 713 524 682 _c
564 650 585 606 585 549 _c
585 504 574 468 553 442 _c
532 416 502 399 462 393 _c
510 382 548 360 575 327 _c
601 294 615 253 615 204 _c
615 138 592 88 548 53 _c
504 17 441 0 360 0 _c
98 0 _l
98 729 _l
_cl}_e}_d
/N{748 0 98 0 650 729 _sc
98 729 _m
231 729 _l
554 119 _l
554 729 _l
650 729 _l
650 0 _l
517 0 _l
194 610 _l
194 0 _l
98 0 _l
98 729 _l
_cl}_d
/P{603 0 98 0 569 729 _sc
197 648 _m
197 374 _l
321 374 _l
367 374 402 385 427 409 _c
452 433 465 467 465 511 _c
465 555 452 588 427 612 _c
402 636 367 648 321 648 _c
197 648 _l
98 729 _m
321 729 _l
402 729 464 710 506 673 _c
548 636 569 582 569 511 _c
569 439 548 384 506 348 _c
464 311 402 293 321 293 _c
197 293 _l
197 0 _l
98 0 _l
98 729 _l
_cl}_d
/R{{695 0 98 0 666 729 _sc
444 342 _m
465 334 486 319 506 296 _c
526 272 546 240 566 199 _c
666 0 _l
560 0 _l
467 187 _l
443 235 419 268 397 284 _c
374 300 343 308 304 308 _c
197 308 _l
197 0 _l
98 0 _l
98 729 _l
321 729 _l
404 729 466 711 507 677 _c
548 642 569 589 569 519 _c
569 473 558 434 537 404 _c
515 374 484 353 444 342 _c
197 648 _m
197 389 _l
321 389 _l
}_e{368 389 404 400 428 422 _c
452 444 465 476 465 519 _c
465 561 452 593 428 615 _c
404 637 368 648 321 648 _c
197 648 _l
_cl}_e}_d
/S{{635 0 66 -13 579 742 _sc
535 705 _m
535 609 _l
497 627 462 640 429 649 _c
395 657 363 662 333 662 _c
279 662 237 651 208 631 _c
179 610 165 580 165 542 _c
165 510 174 485 194 469 _c
213 452 250 439 304 429 _c
364 417 _l
437 403 491 378 526 343 _c
561 307 579 260 579 201 _c
579 130 555 77 508 41 _c
460 5 391 -13 300 -13 _c
265 -13 228 -9 189 -2 _c
}_e{150 5 110 16 69 32 _c
69 134 _l
109 111 148 94 186 83 _c
224 71 262 66 300 66 _c
356 66 399 77 430 99 _c
460 121 476 152 476 194 _c
476 230 465 258 443 278 _c
421 298 385 313 335 323 _c
275 335 _l
201 349 148 372 115 404 _c
82 435 66 478 66 534 _c
66 598 88 649 134 686 _c
179 723 242 742 322 742 _c
356 742 390 739 426 733 _c
461 727 497 717 535 705 _c
}_e{_cl}_e}_d
/T{611 0 -2 0 614 729 _sc
-2 729 _m
614 729 _l
614 646 _l
355 646 _l
355 0 _l
256 0 _l
256 646 _l
-2 646 _l
-2 729 _l
_cl}_d
/a{{613 0 60 -13 522 560 _sc
343 275 _m
270 275 220 266 192 250 _c
164 233 150 205 150 165 _c
150 133 160 107 181 89 _c
202 70 231 61 267 61 _c
317 61 357 78 387 114 _c
417 149 432 196 432 255 _c
432 275 _l
343 275 _l
522 312 _m
522 0 _l
432 0 _l
432 83 _l
411 49 385 25 355 10 _c
325 -5 287 -13 243 -13 _c
187 -13 142 2 109 33 _c
76 64 60 106 60 159 _c
}_e{60 220 80 266 122 298 _c
163 329 224 345 306 345 _c
432 345 _l
432 354 _l
432 395 418 427 391 450 _c
364 472 326 484 277 484 _c
245 484 215 480 185 472 _c
155 464 127 453 100 439 _c
100 522 _l
132 534 164 544 195 550 _c
226 556 256 560 286 560 _c
365 560 424 539 463 498 _c
502 457 522 395 522 312 _c
_cl}_e}_d
/b{{635 0 91 -13 580 760 _sc
487 273 _m
487 339 473 390 446 428 _c
418 466 381 485 334 485 _c
286 485 249 466 222 428 _c
194 390 181 339 181 273 _c
181 207 194 155 222 117 _c
249 79 286 61 334 61 _c
381 61 418 79 446 117 _c
473 155 487 207 487 273 _c
181 464 _m
199 496 223 520 252 536 _c
281 552 316 560 356 560 _c
422 560 476 533 518 481 _c
559 428 580 359 580 273 _c
}_e{580 187 559 117 518 65 _c
476 13 422 -13 356 -13 _c
316 -13 281 -5 252 10 _c
223 25 199 49 181 82 _c
181 0 _l
91 0 _l
91 760 _l
181 760 _l
181 464 _l
_cl}_e}_d
/c{{550 0 55 -13 488 560 _sc
488 526 _m
488 442 _l
462 456 437 466 411 473 _c
385 480 360 484 334 484 _c
276 484 230 465 198 428 _c
166 391 150 339 150 273 _c
150 206 166 154 198 117 _c
230 80 276 62 334 62 _c
360 62 385 65 411 72 _c
437 79 462 90 488 104 _c
488 21 _l
462 9 436 0 410 -5 _c
383 -10 354 -13 324 -13 _c
242 -13 176 12 128 64 _c
}_e{79 115 55 185 55 273 _c
55 362 79 432 128 483 _c
177 534 244 560 330 560 _c
358 560 385 557 411 551 _c
437 545 463 537 488 526 _c
_cl}_e}_d
/d{{635 0 55 -13 544 760 _sc
454 464 _m
454 760 _l
544 760 _l
544 0 _l
454 0 _l
454 82 _l
435 49 411 25 382 10 _c
353 -5 319 -13 279 -13 _c
213 -13 159 13 117 65 _c
75 117 55 187 55 273 _c
55 359 75 428 117 481 _c
159 533 213 560 279 560 _c
319 560 353 552 382 536 _c
411 520 435 496 454 464 _c
148 273 _m
148 207 161 155 188 117 _c
215 79 253 61 301 61 _c
}_e{348 61 385 79 413 117 _c
440 155 454 207 454 273 _c
454 339 440 390 413 428 _c
385 466 348 485 301 485 _c
253 485 215 466 188 428 _c
161 390 148 339 148 273 _c
_cl}_e}_d
/e{{615 0 55 -13 562 560 _sc
562 296 _m
562 252 _l
149 252 _l
153 190 171 142 205 110 _c
238 78 284 62 344 62 _c
378 62 412 66 444 74 _c
476 82 509 95 541 113 _c
541 28 _l
509 14 476 3 442 -3 _c
408 -9 373 -13 339 -13 _c
251 -13 182 12 131 62 _c
80 112 55 181 55 268 _c
55 357 79 428 127 481 _c
175 533 241 560 323 560 _c
397 560 455 536 498 489 _c
}_e{540 441 562 377 562 296 _c
472 322 _m
471 371 457 410 431 440 _c
404 469 368 484 324 484 _c
274 484 234 469 204 441 _c
174 413 156 373 152 322 _c
472 322 _l
_cl}_e}_d
/f{352 0 23 0 371 760 _sc
371 760 _m
371 685 _l
285 685 _l
253 685 230 678 218 665 _c
205 652 199 629 199 595 _c
199 547 _l
347 547 _l
347 477 _l
199 477 _l
199 0 _l
109 0 _l
109 477 _l
23 477 _l
23 547 _l
109 547 _l
109 585 _l
109 645 123 690 151 718 _c
179 746 224 760 286 760 _c
371 760 _l
_cl}_d
/g{{635 0 55 -207 544 560 _sc
454 280 _m
454 344 440 395 414 431 _c
387 467 349 485 301 485 _c
253 485 215 467 188 431 _c
161 395 148 344 148 280 _c
148 215 161 165 188 129 _c
215 93 253 75 301 75 _c
349 75 387 93 414 129 _c
440 165 454 215 454 280 _c
544 68 _m
544 -24 523 -93 482 -139 _c
440 -184 377 -207 292 -207 _c
260 -207 231 -204 203 -200 _c
175 -195 147 -188 121 -178 _c
}_e{121 -91 _l
147 -105 173 -115 199 -122 _c
225 -129 251 -133 278 -133 _c
336 -133 380 -117 410 -87 _c
439 -56 454 -10 454 52 _c
454 96 _l
435 64 411 40 382 24 _c
353 8 319 0 279 0 _c
211 0 157 25 116 76 _c
75 127 55 195 55 280 _c
55 364 75 432 116 483 _c
157 534 211 560 279 560 _c
319 560 353 552 382 536 _c
411 520 435 496 454 464 _c
454 547 _l
544 547 _l
}_e{544 68 _l
_cl}_e}_d
/h{634 0 91 0 549 760 _sc
549 330 _m
549 0 _l
459 0 _l
459 327 _l
459 379 448 417 428 443 _c
408 469 378 482 338 482 _c
289 482 251 466 223 435 _c
195 404 181 362 181 309 _c
181 0 _l
91 0 _l
91 760 _l
181 760 _l
181 462 _l
202 494 227 519 257 535 _c
286 551 320 560 358 560 _c
420 560 468 540 500 501 _c
532 462 549 405 549 330 _c
_cl}_d
/i{278 0 94 0 184 760 _sc
94 547 _m
184 547 _l
184 0 _l
94 0 _l
94 547 _l
94 760 _m
184 760 _l
184 646 _l
94 646 _l
94 760 _l
_cl}_d
/l{278 0 94 0 184 760 _sc
94 760 _m
184 760 _l
184 0 _l
94 0 _l
94 760 _l
_cl}_d
/m{{974 0 91 0 889 560 _sc
520 442 _m
542 482 569 511 600 531 _c
631 550 668 560 711 560 _c
767 560 811 540 842 500 _c
873 460 889 403 889 330 _c
889 0 _l
799 0 _l
799 327 _l
799 379 789 418 771 444 _c
752 469 724 482 686 482 _c
639 482 602 466 575 435 _c
548 404 535 362 535 309 _c
535 0 _l
445 0 _l
445 327 _l
445 379 435 418 417 444 _c
398 469 369 482 331 482 _c
}_e{285 482 248 466 221 435 _c
194 404 181 362 181 309 _c
181 0 _l
91 0 _l
91 547 _l
181 547 _l
181 462 _l
201 495 226 520 255 536 _c
283 552 317 560 357 560 _c
397 560 430 550 458 530 _c
486 510 506 480 520 442 _c
_cl}_e}_d
/n{634 0 91 0 549 560 _sc
549 330 _m
549 0 _l
459 0 _l
459 327 _l
459 379 448 417 428 443 _c
408 469 378 482 338 482 _c
289 482 251 466 223 435 _c
195 404 181 362 181 309 _c
181 0 _l
91 0 _l
91 547 _l
181 547 _l
181 462 _l
202 494 227 519 257 535 _c
286 551 320 560 358 560 _c
420 560 468 540 500 501 _c
532 462 549 405 549 330 _c
_cl}_d
/o{612 0 55 -13 557 560 _sc
306 484 _m
258 484 220 465 192 427 _c
164 389 150 338 150 273 _c
150 207 163 156 191 118 _c
219 80 257 62 306 62 _c
354 62 392 80 420 118 _c
448 156 462 207 462 273 _c
462 337 448 389 420 427 _c
392 465 354 484 306 484 _c
306 560 _m
384 560 445 534 490 484 _c
534 433 557 363 557 273 _c
557 183 534 113 490 63 _c
445 12 384 -13 306 -13 _c
227 -13 165 12 121 63 _c
77 113 55 183 55 273 _c
55 363 77 433 121 484 _c
165 534 227 560 306 560 _c
_cl}_d
/r{411 0 91 0 411 560 _sc
411 463 _m
401 469 390 473 378 476 _c
366 478 353 480 339 480 _c
288 480 249 463 222 430 _c
194 397 181 350 181 288 _c
181 0 _l
91 0 _l
91 547 _l
181 547 _l
181 462 _l
199 495 224 520 254 536 _c
284 552 321 560 365 560 _c
371 560 378 559 386 559 _c
393 558 401 557 411 555 _c
411 463 _l
_cl}_d
/s{{521 0 54 -13 472 560 _sc
443 531 _m
443 446 _l
417 458 391 468 364 475 _c
336 481 308 485 279 485 _c
234 485 200 478 178 464 _c
156 450 145 430 145 403 _c
145 382 153 366 169 354 _c
185 342 217 330 265 320 _c
296 313 _l
360 299 405 279 432 255 _c
458 230 472 195 472 151 _c
472 100 452 60 412 31 _c
372 1 316 -13 246 -13 _c
216 -13 186 -10 154 -5 _c
}_e{122 0 89 8 54 20 _c
54 113 _l
87 95 120 82 152 74 _c
184 65 216 61 248 61 _c
290 61 323 68 346 82 _c
368 96 380 117 380 144 _c
380 168 371 187 355 200 _c
339 213 303 226 247 238 _c
216 245 _l
160 257 119 275 95 299 _c
70 323 58 356 58 399 _c
58 450 76 490 112 518 _c
148 546 200 560 268 560 _c
301 560 332 557 362 552 _c
391 547 418 540 443 531 _c
}_e{_cl}_e}_d
/t{392 0 27 0 368 702 _sc
183 702 _m
183 547 _l
368 547 _l
368 477 _l
183 477 _l
183 180 _l
183 135 189 106 201 94 _c
213 81 238 75 276 75 _c
368 75 _l
368 0 _l
276 0 _l
206 0 158 13 132 39 _c
106 65 93 112 93 180 _c
93 477 _l
27 477 _l
27 547 _l
93 547 _l
93 702 _l
183 702 _l
_cl}_d
/u{634 0 85 -13 543 560 _sc
85 216 _m
85 547 _l
175 547 _l
175 219 _l
175 167 185 129 205 103 _c
225 77 255 64 296 64 _c
344 64 383 79 411 110 _c
439 141 453 183 453 237 _c
453 547 _l
543 547 _l
543 0 _l
453 0 _l
453 84 _l
431 50 405 26 377 10 _c
348 -5 315 -13 277 -13 _c
214 -13 166 6 134 45 _c
101 83 85 140 85 216 _c
311 560 _m
311 560 _l
_cl}_d
/v{592 0 30 0 562 547 _sc
30 547 _m
125 547 _l
296 88 _l
467 547 _l
562 547 _l
357 0 _l
235 0 _l
30 547 _l
_cl}_d
/x{592 0 29 0 559 547 _sc
549 547 _m
351 281 _l
559 0 _l
453 0 _l
294 215 _l
135 0 _l
29 0 _l
241 286 _l
47 547 _l
153 547 _l
298 352 _l
443 547 _l
549 547 _l
_cl}_d
/minus{838 0 106 272 732 355 _sc
106 355 _m
732 355 _l
732 272 _l
106 272 _l
106 355 _l
_cl}_d
end readonly def

/BuildGlyph
 {exch begin
 CharStrings exch
 2 copy known not{pop /.notdef}if
 true 3 1 roll get exec
 end}_d

/BuildChar {
 1 index /Encoding get exch get
 1 index /BuildGlyph get exec
}_d

FontName currentdict end definefont pop
end
%%EndProlog
mpldict begin
126 216 translate
360 360 0 0 clipbox
gsave
0 0 m
360 0 l
360 360 l
0 360 l
cl
1.000 setgray
fill
grestore
gsave
45 39.6 m
356.4 39.6 l
356.4 334.8 l
45 334.8 l
cl
1.000 setgray
fill
grestore
0.800 setlinewidth
1 setlinejoin
0 setlinecap
[] 0 setdash
0.000 setgray
gsave
/o {
gsave
newpath
translate
0.8 setlinewidth
1 setlinejoin
0 setlinecap
0 0 m
0 -3.5 l

gsave
0.000 setgray
fill
grestore
stroke
grestore
} bind def
45 39.6 o
grestore
gsave
33.000000 23.678125 translate
0.000000 rotate
/DejaVuSans findfont
10.0 scalefont
setfont
0.000000 0.976562 moveto
/one glyphshow

6.362305 0.976562 moveto
/zero glyphshow

/DejaVuSans findfont
7.0 scalefont
setfont
12.820312 4.804688 moveto
/minus glyphshow

18.685547 4.804688 moveto
/two glyphshow


grestore
gsave
/o {
gsave
newpath
translate
0.8 setlinewidth
1 setlinejoin
0 setlinecap
0 0 m
0 -3.5 l

gsave
0.000 setgray
fill
grestore
stroke
grestore
} bind def
101.855 39.6 o
grestore
gsave
89.854684 24.678125 translate
0.000000 rotate
/DejaVuSans findfont
10.0 scalefont
setfont
0.000000 0.064063 moveto
/one glyphshow

6.362305 0.064063 moveto
/zero glyphshow

/DejaVuSans findfont
7.0 scalefont
setfont
12.820312 3.892188 moveto
/minus glyphshow

18.685547 3.892188 moveto
/one glyphshow


grestore
gsave
/o {
gsave
newpath
translate
0.8 setlinewidth
1 setlinejoin
0 setlinecap
0 0 m
0 -3.5 l

gsave
0.000 setgray
fill
grestore
stroke
grestore
} bind def
158.709 39.6 o
grestore
gsave
149.709369 23.678125 translate
0.000000 rotate
/DejaVuSans findfont
10.0 scalefont
setfont
0.000000 0.976562 moveto
/one glyphshow

6.362305 0.976562 moveto
/zero glyphshow

/DejaVuSans findfont
7.0 scalefont
setfont
12.820312 4.804688 moveto
/zero glyphshow


grestore
gsave
/o {
gsave
newpath
translate
0.8 setlinewidth
1 setlinejoin
0 setlinecap
0 0 m
0 -3.5 l

gsave
0.000 setgray
fill
grestore
stroke
grestore
} bind def
215.564 39.6 o
grestore
gsave
206.564053 24.678125 translate
0.000000 rotate
/DejaVuSans findfont
10.0 scalefont
setfont
0.000000 0.064063 moveto
/one glyphshow

6.362305 0.064063 moveto
/zero glyphshow

/DejaVuSans findfont
7.0 scalefont
setfont
12.820312 3.892188 moveto
/one glyphshow


grestore
gsave
/o {
gsave
newpath
translate
0.8 setlinewidth
1 setlinejoin
0 setlinecap
0 0 m
0 -3.5 l

gsave
0.000 setgray
fill
grestore
stroke
grestore
} bind def
272.419 39.6 o
grestore
gsave
263.418737 23.678125 translate
0.000000 rotate
/DejaVuSans findfont
10.0 scalefont
setfont
0.000000 0.976562 moveto
/one glyphshow

6.362305 0.976562 moveto
/zero glyphshow

/DejaVuSans findfont
7.0 scalefont
setfont
12.820312 4.804688 moveto
/two glyphshow


grestore
gsave
/o {
gsave
newpath
translate
0.8 setlinewidth
1 setlinejoin
0 setlinecap
0 0 m
0 -3.5 l

gsave
0.000 setgray
fill
grestore
stroke
grestore
} bind def
329.273 39.6 o
grestore
gsave
320.273422 23.678125 translate
0.000000 rotate
/DejaVuSans findfont
10.0 scalefont
setfont
0.000000 0.976562 moveto
/one glyphshow

6.362305 0.976562 moveto
/zero glyphshow

/DejaVuSans findfont
7.0 scalefont
setfont
12.820312 4.804688 moveto
/three glyphshow


grestore
0.600 setlinewidth
gsave
/o {
gsave
newpath
translate
0.6 setlinewidth
1 setlinejoin
0 setlinecap
0 0 m
0 -2 l

gsave
0.000 setgray
fill
grestore
stroke
grestore
} bind def
62.115 39.6 o
grestore
gsave
/o {
gsave
newpath
translate
0.6 setlinewidth
1 setlinejoin
0 setlinecap
0 0 m
0 -2 l

gsave
0.000 setgray
fill
grestore
stroke
grestore
} bind def
72.1266 39.6 o
grestore
gsave
/o {
gsave
newpath
translate
0.6 setlinewidth
1 setlinejoin
0 setlinecap
0 0 m
0 -2 l

gsave
0.000 setgray
fill
grestore
stroke
grestore
} bind def
79.2299 39.6 o
grestore
gsave
/o {
gsave
newpath
translate
0.6 setlinewidth
1 setlinejoin
0 setlinecap
0 0 m
0 -2 l

gsave
0.000 setgray
fill
grestore
stroke
grestore
} bind def
84.7397 39.6 o
grestore
gsave
/o {
gsave
newpath
translate
0.6 setlinewidth
1 setlinejoin
0 setlinecap
0 0 m
0 -2 l

gsave
0.000 setgray
fill
grestore
stroke
grestore
} bind def
89.2415 39.6 o
grestore
gsave
/o {
gsave
newpath
translate
0.6 setlinewidth
1 setlinejoin
0 setlinecap
0 0 m
0 -2 l

gsave
0.000 setgray
fill
grestore
stroke
grestore
} bind def
93.0478 39.6 o
grestore
gsave
/o {
gsave
newpath
translate
0.6 setlinewidth
1 setlinejoin
0 setlinecap
0 0 m
0 -2 l

gsave
0.000 setgray
fill
grestore
stroke
grestore
} bind def
96.3449 39.6 o
grestore
gsave
/o {
gsave
newpath
translate
0.6 setlinewidth
1 setlinejoin
0 setlinecap
0 0 m
0 -2 l

gsave
0.000 setgray
fill
grestore
stroke
grestore
} bind def
99.2532 39.6 o
grestore
gsave
/o {
gsave
newpath
translate
0.6 setlinewidth
1 setlinejoin
0 setlinecap
0 0 m
0 -2 l

gsave
0.000 setgray
fill
grestore
stroke
grestore
} bind def
118.97 39.6 o
grestore
gsave
/o {
gsave
newpath
translate
0.6 setlinewidth
1 setlinejoin
0 setlinecap
0 0 m
0 -2 l

gsave
0.000 setgray
fill
grestore
stroke
grestore
} bind def
128.981 39.6 o
grestore
gsave
/o {
gsave
newpath
translate
0.6 setlinewidth
1 setlinejoin
0 setlinecap
0 0 m
0 -2 l

gsave
0.000 setgray
fill
grestore
stroke
grestore
} bind def
136.085 39.6 o
grestore
gsave
/o {
gsave
newpath
translate
0.6 setlinewidth
1 setlinejoin
0 setlinecap
0 0 m
0 -2 l

gsave
0.000 setgray
fill
grestore
stroke
grestore
} bind def
141.594 39.6 o
grestore
gsave
/o {
gsave
newpath
translate
0.6 setlinewidth
1 setlinejoin
0 setlinecap
0 0 m
0 -2 l

gsave
0.000 setgray
fill
grestore
stroke
grestore
} bind def
146.096 39.6 o
grestore
gsave
/o {
gsave
newpath
translate
0.6 setlinewidth
1 setlinejoin
0 setlinecap
0 0 m
0 -2 l

gsave
0.000 setgray
fill
grestore
stroke
grestore
} bind def
149.902 39.6 o
grestore
gsave
/o {
gsave
newpath
translate
0.6 setlinewidth
1 setlinejoin
0 setlinecap
0 0 m
0 -2 l

gsave
0.000 setgray
fill
grestore
stroke
grestore
} bind def
153.2 39.6 o
grestore
gsave
/o {
gsave
newpath
translate
0.6 setlinewidth
1 setlinejoin
0 setlinecap
0 0 m
0 -2 l

gsave
0.000 setgray
fill
grestore
stroke
grestore
} bind def
156.108 39.6 o
grestore
gsave
/o {
gsave
newpath
translate
0.6 setlinewidth
1 setlinejoin
0 setlinecap
0 0 m
0 -2 l

gsave
0.000 setgray
fill
grestore
stroke
grestore
} bind def
175.824 39.6 o
grestore
gsave
/o {
gsave
newpath
translate
0.6 setlinewidth
1 setlinejoin
0 setlinecap
0 0 m
0 -2 l

gsave
0.000 setgray
fill
grestore
stroke
grestore
} bind def
185.836 39.6 o
grestore
gsave
/o {
gsave
newpath
translate
0.6 setlinewidth
1 setlinejoin
0 setlinecap
0 0 m
0 -2 l

gsave
0.000 setgray
fill
grestore
stroke
grestore
} bind def
192.939 39.6 o
grestore
gsave
/o {
gsave
newpath
translate
0.6 setlinewidth
1 setlinejoin
0 setlinecap
0 0 m
0 -2 l

gsave
0.000 setgray
fill
grestore
stroke
grestore
} bind def
198.449 39.6 o
grestore
gsave
/o {
gsave
newpath
translate
0.6 setlinewidth
1 setlinejoin
0 setlinecap
0 0 m
0 -2 l

gsave
0.000 setgray
fill
grestore
stroke
grestore
} bind def
202.951 39.6 o
grestore
gsave
/o {
gsave
newpath
translate
0.6 setlinewidth
1 setlinejoin
0 setlinecap
0 0 m
0 -2 l

gsave
0.000 setgray
fill
grestore
stroke
grestore
} bind def
206.757 39.6 o
grestore
gsave
/o {
gsave
newpath
translate
0.6 setlinewidth
1 setlinejoin
0 setlinecap
0 0 m
0 -2 l

gsave
0.000 setgray
fill
grestore
stroke
grestore
} bind def
210.054 39.6 o
grestore
gsave
/o {
gsave
newpath
translate
0.6 setlinewidth
1 setlinejoin
0 setlinecap
0 0 m
0 -2 l

gsave
0.000 setgray
fill
grestore
stroke
grestore
} bind def
212.963 39.6 o
grestore
gsave
/o {
gsave
newpath
translate
0.6 setlinewidth
1 setlinejoin
0 setlinecap
0 0 m
0 -2 l

gsave
0.000 setgray
fill
grestore
stroke
grestore
} bind def
232.679 39.6 o
grestore
gsave
/o {
gsave
newpath
translate
0.6 setlinewidth
1 setlinejoin
0 setlinecap
0 0 m
0 -2 l

gsave
0.000 setgray
fill
grestore
stroke
grestore
} bind def
242.691 39.6 o
grestore
gsave
/o {
gsave
newpath
translate
0.6 setlinewidth
1 setlinejoin
0 setlinecap
0 0 m
0 -2 l

gsave
0.000 setgray
fill
grestore
stroke
grestore
} bind def
249.794 39.6 o
grestore
gsave
/o {
gsave
newpath
translate
0.6 setlinewidth
1 setlinejoin
0 setlinecap
0 0 m
0 -2 l

gsave
0.000 setgray
fill
grestore
stroke
grestore
} bind def
255.304 39.6 o
grestore
gsave
/o {
gsave
newpath
translate
0.6 setlinewidth
1 setlinejoin
0 setlinecap
0 0 m
0 -2 l

gsave
0.000 setgray
fill
grestore
stroke
grestore
} bind def
259.806 39.6 o
grestore
gsave
/o {
gsave
newpath
translate
0.6 setlinewidth
1 setlinejoin
0 setlinecap
0 0 m
0 -2 l

gsave
0.000 setgray
fill
grestore
stroke
grestore
} bind def
263.612 39.6 o
grestore
gsave
/o {
gsave
newpath
translate
0.6 setlinewidth
1 setlinejoin
0 setlinecap
0 0 m
0 -2 l

gsave
0.000 setgray
fill
grestore
stroke
grestore
} bind def
266.909 39.6 o
grestore
gsave
/o {
gsave
newpath
translate
0.6 setlinewidth
1 setlinejoin
0 setlinecap
0 0 m
0 -2 l

gsave
0.000 setgray
fill
grestore
stroke
grestore
} bind def
269.817 39.6 o
grestore
gsave
/o {
gsave
newpath
translate
0.6 setlinewidth
1 setlinejoin
0 setlinecap
0 0 m
0 -2 l

gsave
0.000 setgray
fill
grestore
stroke
grestore
} bind def
289.534 39.6 o
grestore
gsave
/o {
gsave
newpath
translate
0.6 setlinewidth
1 setlinejoin
0 setlinecap
0 0 m
0 -2 l

gsave
0.000 setgray
fill
grestore
stroke
grestore
} bind def
299.545 39.6 o
grestore
gsave
/o {
gsave
newpath
translate
0.6 setlinewidth
1 setlinejoin
0 setlinecap
0 0 m
0 -2 l

gsave
0.000 setgray
fill
grestore
stroke
grestore
} bind def
306.649 39.6 o
grestore
gsave
/o {
gsave
newpath
translate
0.6 setlinewidth
1 setlinejoin
0 setlinecap
0 0 m
0 -2 l

gsave
0.000 setgray
fill
grestore
stroke
grestore
} bind def
312.158 39.6 o
grestore
gsave
/o {
gsave
newpath
translate
0.6 setlinewidth
1 setlinejoin
0 setlinecap
0 0 m
0 -2 l

gsave
0.000 setgray
fill
grestore
stroke
grestore
} bind def
316.66 39.6 o
grestore
gsave
/o {
gsave
newpath
translate
0.6 setlinewidth
1 setlinejoin
0 setlinecap
0 0 m
0 -2 l

gsave
0.000 setgray
fill
grestore
stroke
grestore
} bind def
320.467 39.6 o
grestore
gsave
/o {
gsave
newpath
translate
0.6 setlinewidth
1 setlinejoin
0 setlinecap
0 0 m
0 -2 l

gsave
0.000 setgray
fill
grestore
stroke
grestore
} bind def
323.764 39.6 o
grestore
gsave
/o {
gsave
newpath
translate
0.6 setlinewidth
1 setlinejoin
0 setlinecap
0 0 m
0 -2 l

gsave
0.000 setgray
fill
grestore
stroke
grestore
} bind def
326.672 39.6 o
grestore
gsave
/o {
gsave
newpath
translate
0.6 setlinewidth
1 setlinejoin
0 setlinecap
0 0 m
0 -2 l

gsave
0.000 setgray
fill
grestore
stroke
grestore
} bind def
346.388 39.6 o
grestore
gsave
/o {
gsave
newpath
translate
0.6 setlinewidth
1 setlinejoin
0 setlinecap
0 0 m
0 -2 l

gsave
0.000 setgray
fill
grestore
stroke
grestore
} bind def
356.4 39.6 o
grestore
/DejaVuSans findfont
10.000 scalefont
setfont
gsave
159.395312 10.006250 translate
0.000000 rotate
0.000000 0.000000 m /T glyphshow
6.108398 0.000000 m /i glyphshow
8.886719 0.000000 m /m glyphshow
18.627930 0.000000 m /e glyphshow
24.780273 0.000000 m /o glyphshow
30.898438 0.000000 m /u glyphshow
37.236328 0.000000 m /t glyphshow
41.157227 0.000000 m /space glyphshow
44.335938 0.000000 m /l glyphshow
47.114258 0.000000 m /i glyphshow
49.892578 0.000000 m /m glyphshow
59.633789 0.000000 m /i glyphshow
62.412109 0.000000 m /t glyphshow
66.333008 0.000000 m /space glyphshow
69.511719 0.000000 m /parenleft glyphshow
73.413086 0.000000 m /s glyphshow
78.623047 0.000000 m /parenright glyphshow
grestore
0.800 setlinewidth
gsave
/o {
gsave
newpath
translate
0.8 setlinewidth
1 setlinejoin
0 setlinecap
0 0 m
-3.5 0 l

gsave
0.000 setgray
fill
grestore
stroke
grestore
} bind def
45 39.6 o
grestore
gsave
31.640625 35.803125 translate
0.000000 rotate
0.000000 0.000000 m /zero glyphshow
grestore
gsave
/o {
gsave
newpath
translate
0.8 setlinewidth
1 setlinejoin
0 setlinecap
0 0 m
-3.5 0 l

gsave
0.000 setgray
fill
grestore
stroke
grestore
} bind def
45 77.5923 o
grestore
gsave
18.921875 73.795403 translate
0.000000 rotate
0.000000 0.000000 m /one glyphshow
6.362305 0.000000 m /zero glyphshow
12.724609 0.000000 m /zero glyphshow
grestore
gsave
/o {
gsave
newpath
translate
0.8 setlinewidth
1 setlinejoin
0 setlinecap
0 0 m
-3.5 0 l

gsave
0.000 setgray
fill
grestore
stroke
grestore
} bind def
45 115.585 o
grestore
gsave
18.921875 111.787681 translate
0.000000 rotate
0.000000 0.000000 m /two glyphshow
6.362305 0.000000 m /zero glyphshow
12.724609 0.000000 m /zero glyphshow
grestore
gsave
/o {
gsave
newpath
translate
0.8 setlinewidth
1 setlinejoin
0 setlinecap
0 0 m
-3.5 0 l

gsave
0.000 setgray
fill
grestore
stroke
grestore
} bind def
45 153.577 o
grestore
gsave
18.921875 149.779959 translate
0.000000 rotate
0.000000 0.000000 m /three glyphshow
6.362305 0.000000 m /zero glyphshow
12.724609 0.000000 m /zero glyphshow
grestore
gsave
/o {
gsave
newpath
translate
0.8 setlinewidth
1 setlinejoin
0 setlinecap
0 0 m
-3.5 0 l

gsave
0.000 setgray
fill
grestore
stroke
grestore
} bind def
45 191.569 o
grestore
gsave
18.921875 187.772237 translate
0.000000 rotate
0.000000 0.000000 m /four glyphshow
6.362305 0.000000 m /zero glyphshow
12.724609 0.000000 m /zero glyphshow
grestore
gsave
/o {
gsave
newpath
translate
0.8 setlinewidth
1 setlinejoin
0 setlinecap
0 0 m
-3.5 0 l

gsave
0.000 setgray
fill
grestore
stroke
grestore
} bind def
45 229.561 o
grestore
gsave
18.921875 225.764515 translate
0.000000 rotate
0.000000 0.000000 m /five glyphshow
6.362305 0.000000 m /zero glyphshow
12.724609 0.000000 m /zero glyphshow
grestore
gsave
/o {
gsave
newpath
translate
0.8 setlinewidth
1 setlinejoin
0 setlinecap
0 0 m
-3.5 0 l

gsave
0.000 setgray
fill
grestore
stroke
grestore
} bind def
45 267.554 o
grestore
gsave
18.921875 263.756793 translate
0.000000 rotate
0.000000 0.000000 m /six glyphshow
6.362305 0.000000 m /zero glyphshow
12.724609 0.000000 m /zero glyphshow
grestore
gsave
/o {
gsave
newpath
translate
0.8 setlinewidth
1 setlinejoin
0 setlinecap
0 0 m
-3.5 0 l

gsave
0.000 setgray
fill
grestore
stroke
grestore
} bind def
45 305.546 o
grestore
gsave
18.921875 301.749071 translate
0.000000 rotate
0.000000 0.000000 m /seven glyphshow
6.362305 0.000000 m /zero glyphshow
12.724609 0.000000 m /zero glyphshow
grestore
gsave
12.843750 117.426563 translate
90.000000 rotate
0.000000 0.000000 m /N glyphshow
7.480469 0.000000 m /u glyphshow
13.818359 0.000000 m /m glyphshow
23.559570 0.000000 m /b glyphshow
29.907227 0.000000 m /e glyphshow
36.059570 0.000000 m /r glyphshow
40.170898 0.000000 m /space glyphshow
43.349609 0.000000 m /o glyphshow
49.467773 0.000000 m /f glyphshow
52.988281 0.000000 m /space glyphshow
56.166992 0.000000 m /s glyphshow
61.376953 0.000000 m /o glyphshow
67.495117 0.000000 m /l glyphshow
70.273438 0.000000 m /v glyphshow
76.191406 0.000000 m /e glyphshow
82.343750 0.000000 m /d glyphshow
88.691406 0.000000 m /space glyphshow
91.870117 0.000000 m /i glyphshow
94.648438 0.000000 m /n glyphshow
100.986328 0.000000 m /s glyphshow
106.196289 0.000000 m /t glyphshow
110.117188 0.000000 m /a glyphshow
116.245117 0.000000 m /n glyphshow
122.583008 0.000000 m /c glyphshow
128.081055 0.000000 m /e glyphshow
134.233398 0.000000 m /s glyphshow
grestore
1.500 setlinewidth
2 setlinecap
0.122 0.467 0.706 setrgbcolor
gsave
311.4 295.2 45 39.6 clipbox
-1 160.795059 m
45 160.795367 l
45 162.315058 l
62.114965 162.694981 l
62.114965 163.074903 l
79.229931 163.834749 l
79.229931 165.734363 l
84.739719 166.114286 l
84.739719 166.874131 l
89.241544 167.254054 l
89.241544 168.0139 l
93.047782 168.393822 l
93.047782 169.153668 l
96.344896 169.533591 l
96.344896 171.813127 l
99.253157 172.19305 l
99.253157 172.952896 l
101.854684 173.332819 l
101.854684 177.511969 l
104.208052 177.891892 l
104.208052 181.69112 l
106.356509 182.071042 l
106.356509 185.490347 l
124.479438 185.87027 l
129.790898 186.250193 l
130.574827 186.630116 l
133.483087 187.010039 l
134.818098 187.769884 l
134.818098 188.52973 l
136.084615 189.289575 l
136.084615 190.429344 l
136.694317 190.809266 l
136.694317 191.189189 l
145.259142 191.569112 l
147.689792 191.949035 l
148.449596 192.328958 l
148.820906 192.70888 l
148.820906 193.468726 l
149.547185 193.848649 l
149.902467 194.228571 l
149.902467 194.608494 l
150.252709 194.988417 l
157.181561 195.36834 l
157.181561 195.748263 l
157.95728 196.888031 l
158.709369 197.267954 l
158.709369 197.647876 l
158.955059 198.027799 l
160.148126 198.407722 l
163.820895 198.787645 l
164.415904 199.167568 l
164.415904 199.54749 l
164.804758 199.927413 l
164.804758 200.307336 l
164.996912 200.687259 l
165.376791 201.067181 l
168.555819 201.447104 l
169.847182 201.827027 l
170.159739 202.20695 l
170.159739 202.586873 l
177.610052 203.346718 l
177.610052 203.726641 l
178.842092 204.486486 l
178.842092 204.866409 l
180.935861 205.246332 l
180.935861 205.626255 l
182.302547 206.006178 l
184.56943 206.3861 l
186.081637 206.766023 l
190.269088 207.145946 l
190.474568 207.905792 l
190.610611 208.285714 l
192.059605 208.665637 l
194.261311 209.04556 l
194.782374 209.425483 l
195.010474 209.805405 l
195.067171 210.185328 l
195.682398 210.565251 l
195.737575 210.945174 l
199.606722 211.325097 l
200.757521 211.705019 l
201.423105 212.464865 l
201.554096 212.844788 l
202.494031 213.604633 l
204.889285 213.984556 l
205.341664 214.364479 l
205.564783 215.124324 l
211.258976 215.88417 l
211.463887 216.264093 l
211.522122 216.644015 l
212.097042 217.023938 l
212.351452 217.403861 l
213.370661 217.783784 l
213.424573 218.163707 l
213.798697 218.543629 l
213.93095 218.923552 l
215.040006 219.303475 l
215.440285 219.683398 l
222.605599 220.06332 l
222.698251 220.443243 l
224.047859 221.962934 l
225.592122 222.342857 l
226.369366 222.72278 l
226.889874 223.102703 l
226.983345 223.482625 l
228.607987 223.862548 l
229.410107 224.242471 l
229.536624 225.002317 l
229.939932 225.382239 l
230.526072 225.762162 l
231.438479 226.142085 l
231.451457 226.522008 l
232.55525 226.901931 l
235.587279 227.281853 l
237.005321 227.661776 l
237.273264 228.041699 l
238.316871 228.421622 l
238.52235 228.801544 l
239.128725 229.181467 l
239.384109 229.941313 l
239.71128 230.321236 l
240.262251 230.701158 l
240.569096 231.461004 l
242.166584 231.840927 l
242.707087 232.220849 l
245.267455 232.600772 l
246.721597 232.980695 l
248.160881 233.740541 l
248.455887 234.120463 l
249.583207 234.500386 l
250.493856 235.260232 l
250.643413 235.640154 l
252.926194 236.020077 l
255.61782 236.779923 l
258.22081 237.539768 l
258.750434 238.299614 l
259.582366 239.439382 l
259.91646 240.199228 l
260.603282 240.579151 l
261.660126 240.959073 l
264.197436 241.338996 l
264.224978 241.718919 l
264.464672 242.098842 l
266.55143 242.478764 l
270.995778 242.858687 l
271.81385 243.618533 l
272.873784 243.998456 l
274.421703 244.378378 l
274.839355 244.758301 l
275.059987 245.138224 l
276.918504 245.518147 l
277.021181 246.277992 l
277.346907 246.657915 l
277.365102 247.037838 l
278.086049 247.417761 l
278.182038 247.797683 l
279.830652 248.177606 l
281.980175 248.557529 l
282.095576 248.937452 l
283.702382 249.317375 l
286.539489 249.697297 l
286.960965 250.07722 l
287.004771 250.457143 l
289.274317 251.216988 l
290.731358 251.976834 l
290.77601 252.356757 l
291.357291 253.116602 l
293.708261 253.876448 l
294.058151 254.636293 l
296.705787 255.016216 l
298.436838 255.396139 l
298.859322 255.776062 l
301.504984 256.155985 l
302.646694 256.535907 l
303.046321 256.91583 l
305.193646 257.675676 l
305.305357 258.435521 l
309.998504 258.815444 l
310.328834 259.195367 l
310.421727 259.57529 l
311.791291 259.955212 l
311.792293 260.335135 l
312.086746 260.715058 l
313.036497 261.474903 l
313.245307 261.854826 l
313.944634 262.234749 l
314.949235 262.614672 l
316.416694 262.994595 l
316.526998 263.374517 l
320.145567 263.75444 l
322.056887 264.134363 l
323.985782 264.894208 l
324.051764 265.274131 l
325.977437 265.654054 l
326.855301 266.033977 l
326.875717 266.4139 l
327.5139 266.793822 l
329.149902 267.173745 l
332.219842 267.553668 l
332.302758 267.933591 l
336.254929 269.073359 l
336.998097 269.453282 l
337.04176 269.833205 l
339.180615 270.59305 l
341.55596 271.352896 l
343.42941 271.732819 l
344.331166 272.492664 l
346.586849 272.872587 l
346.811657 273.25251 l
347.187786 273.632432 l
347.297624 274.012355 l
347.525515 274.392278 l
348.63986 274.772201 l
348.949078 275.152124 l
354.364686 275.532046 l
354.752824 275.911969 l
361 276.038471 l
361 276.038471 l
stroke
grestore
0 setlinecap
[9.6 2.4 1.5 2.4] 0 setdash
1.000 0.498 0.055 setrgbcolor
gsave
311.4 295.2 45 39.6 clipbox
-1 150.917067 m
45 150.917375 l
45 151.297297 l
62.114965 151.67722 l
62.114965 154.33668 l
79.229931 155.096525 l
79.229931 156.616216 l
84.739719 156.996139 l
84.739719 158.135907 l
89.241544 158.51583 l
89.241544 160.035521 l
93.047782 160.415444 l
93.047782 161.555212 l
96.344896 161.935135 l
96.344896 164.974517 l
99.253157 165.35444 l
99.253157 167.633977 l
101.854684 168.0139 l
101.854684 170.293436 l
104.208052 170.673359 l
104.208052 171.813127 l
106.356509 172.19305 l
106.356509 172.952896 l
131.334631 173.332819 l
132.787501 174.092664 l
134.159614 174.472587 l
134.159614 174.85251 l
134.818098 175.232432 l
134.818098 176.372201 l
135.459476 176.752124 l
136.694317 177.132046 l
136.694317 178.271815 l
137.870333 178.651737 l
137.870333 179.03166 l
139.535572 179.411583 l
146.096228 179.791506 l
147.689792 180.551351 l
148.820906 180.931274 l
148.820906 181.311197 l
149.547185 181.69112 l
149.902467 182.071042 l
150.598053 182.450965 l
150.938633 182.830888 l
151.606016 183.210811 l
151.606016 183.970656 l
156.917477 184.350579 l
157.181561 184.730502 l
157.701405 185.110425 l
158.461209 185.490347 l
158.955059 185.87027 l
162.796198 186.250193 l
165.750915 187.389961 l
165.935872 187.769884 l
170.159739 188.149807 l
170.924248 188.52973 l
171.07435 188.909653 l
171.665795 189.669498 l
174.687432 190.049421 l
174.944639 190.429344 l
176.070024 191.189189 l
178.512132 191.569112 l
179.059641 191.949035 l
182.679527 192.328958 l
182.679527 192.70888 l
184.132397 193.848649 l
186.883386 194.228571 l
187.040658 194.608494 l
187.506552 194.988417 l
187.583354 195.36834 l
187.888193 195.748263 l
188.412771 196.128185 l
188.486809 196.508108 l
189.35837 196.888031 l
191.080943 197.267954 l
191.279803 197.647876 l
191.995554 198.027799 l
193.488704 198.407722 l
193.788728 198.787645 l
194.261311 199.167568 l
198.100962 199.927413 l
202.535916 200.307336 l
203.560614 200.687259 l
205.822566 201.067181 l
206.0414 201.447104 l
206.932893 201.827027 l
210.60367 202.20695 l
212.491666 202.586873 l
213.181037 202.966795 l
214.427151 204.106564 l
215.882976 204.866409 l
216.862649 205.246332 l
219.440739 205.626255 l
220.514459 206.006178 l
220.554838 206.3861 l
222.937531 206.766023 l
223.337258 207.525869 l
227.929034 208.285714 l
231.399502 209.04556 l
231.773723 209.425483 l
233.13164 209.805405 l
235.411066 210.185328 l
235.598251 210.565251 l
237.293755 210.945174 l
237.700044 211.325097 l
241.605386 211.705019 l
241.708375 212.084942 l
243.666969 212.464865 l
243.801099 212.844788 l
244.106083 213.22471 l
244.137152 213.604633 l
245.839149 213.984556 l
246.120108 214.364479 l
246.992745 214.744402 l
247.165006 215.124324 l
248.088229 215.88417 l
250.750535 217.023938 l
251.337342 217.403861 l
254.120287 217.783784 l
254.228845 218.543629 l
254.815009 218.923552 l
257.476908 219.683398 l
257.78699 220.443243 l
259.268936 220.823166 l
260.169167 221.203089 l
260.746307 221.962934 l
265.110419 222.342857 l
267.942579 223.102703 l
267.960332 223.482625 l
268.268963 224.242471 l
271.162614 225.382239 l
272.332165 225.762162 l
272.779063 226.142085 l
274.794542 226.522008 l
275.582465 226.901931 l
275.884719 227.281853 l
276.497195 227.661776 l
276.524392 228.041699 l
277.308451 228.421622 l
280.698565 228.801544 l
281.073565 229.181467 l
282.222064 229.56139 l
282.266845 229.941313 l
282.519081 230.321236 l
284.332171 231.081081 l
285.15208 231.461004 l
285.296141 231.840927 l
286.417934 232.220849 l
286.531125 232.600772 l
287.29169 232.980695 l
287.386144 233.740541 l
287.7365 234.120463 l
289.081432 234.500386 l
291.274591 234.880309 l
292.718058 235.260232 l
293.283439 235.640154 l
295.186289 236.4 l
295.487869 236.779923 l
297.993856 237.159846 l
298.292656 237.539768 l
299.971256 237.919691 l
302.179168 238.299614 l
302.892277 238.679537 l
303.212892 239.059459 l
305.143834 239.439382 l
305.449636 239.819305 l
305.586632 240.199228 l
307.676377 240.959073 l
307.800412 241.718919 l
309.039606 242.098842 l
309.18709 242.478764 l
310.030283 243.23861 l
314.934675 243.998456 l
315.126344 244.378378 l
319.297093 244.758301 l
319.550245 245.138224 l
320.533449 245.518147 l
320.732458 245.898069 l
321.07691 246.277992 l
322.104137 246.657915 l
322.762421 247.797683 l
323.506119 248.177606 l
330.304446 248.557529 l
331.183548 248.937452 l
331.614441 249.317375 l
332.65902 249.697297 l
333.881603 250.457143 l
335.034962 250.837066 l
340.606578 251.596911 l
342.222688 252.356757 l
345.783626 252.73668 l
346.560014 253.496525 l
347.959912 254.256371 l
350.67653 255.016216 l
351.042112 255.396139 l
353.468333 255.776062 l
353.469074 256.155985 l
354.517761 256.535907 l
355.080056 256.91583 l
361 257.037834 l
361 257.037834 l
stroke
grestore
[1.5 2.475] 0 setdash
0.173 0.627 0.173 setrgbcolor
gsave
311.4 295.2 45 39.6 clipbox
-1 158.895445 m
45 158.895753 l
45 160.035521 l
62.114965 160.415444 l
62.114965 161.935135 l
72.126578 162.315058 l
72.126578 162.694981 l
79.229931 163.074903 l
79.229931 164.594595 l
84.739719 164.974517 l
84.739719 165.734363 l
89.241544 166.114286 l
89.241544 167.254054 l
93.047782 167.633977 l
93.047782 169.533591 l
96.344896 169.913514 l
96.344896 170.673359 l
99.253157 171.053282 l
99.253157 172.19305 l
101.854684 172.572973 l
101.854684 174.85251 l
104.208052 175.232432 l
104.208052 179.791506 l
106.356509 180.171429 l
106.356509 182.830888 l
108.332898 183.210811 l
114.956785 183.590734 l
131.334631 183.970656 l
133.483087 184.350579 l
136.084615 185.87027 l
136.084615 186.250193 l
136.694317 186.630116 l
136.694317 187.389961 l
137.870333 187.769884 l
146.504364 188.149807 l
146.905864 188.52973 l
148.072617 188.909653 l
148.820906 189.289575 l
148.820906 189.669498 l
149.547185 190.049421 l
149.547185 191.189189 l
149.902467 191.569112 l
149.902467 192.328958 l
150.598053 193.088803 l
150.598053 193.468726 l
151.274579 193.848649 l
151.274579 194.228571 l
157.442851 194.608494 l
157.442851 194.988417 l
157.701405 195.36834 l
158.709369 196.128185 l
159.91408 196.508108 l
160.148126 196.888031 l
160.148126 197.267954 l
163.211193 197.647876 l
163.61933 198.027799 l
165.376791 198.787645 l
165.564561 199.167568 l
166.482573 199.927413 l
166.84043 200.307336 l
169.3708 200.687259 l
170.621279 201.067181 l
173.495645 201.447104 l
174.816371 201.827027 l
176.434036 202.586873 l
176.55419 202.966795 l
178.512132 203.346718 l
178.512132 203.726641 l
179.911163 204.486486 l
180.734295 204.866409 l
183.416647 205.246332 l
183.777115 205.626255 l
184.655915 206.006178 l
189.992428 206.3861 l
190.131146 206.766023 l
191.014298 207.145946 l
192.503369 207.525869 l
192.815531 207.905792 l
194.14401 208.285714 l
195.010474 208.665637 l
196.390256 209.04556 l
196.92128 209.425483 l
197.747857 209.805405 l
198.25076 210.185328 l
199.980845 210.565251 l
200.027215 210.945174 l
200.757521 211.705019 l
200.936772 212.084942 l
203.277959 212.844788 l
203.600731 213.22471 l
204.467194 213.604633 l
205.003159 213.984556 l
209.429126 214.364479 l
210.814069 214.744402 l
211.229563 215.124324 l
211.229563 215.504247 l
212.068611 215.88417 l
214.888212 216.644015 l
215.040006 217.023938 l
216.293909 217.403861 l
218.864253 217.783784 l
219.292567 218.163707 l
219.921421 218.543629 l
224.533385 219.303475 l
225.393926 219.683398 l
225.509734 220.06332 l
225.999988 220.443243 l
226.064626 220.823166 l
229.155114 221.203089 l
229.592646 221.583012 l
231.111778 221.962934 l
231.151211 222.342857 l
231.503303 222.72278 l
231.61956 223.482625 l
231.939654 223.862548 l
235.009929 224.242471 l
236.54515 224.622394 l
236.89108 225.002317 l
237.057075 225.382239 l
237.375549 225.762162 l
237.416345 226.142085 l
238.424716 226.901931 l
239.337015 227.661776 l
239.923941 228.041699 l
240.280407 228.421622 l
241.276389 228.801544 l
241.398109 229.181467 l
241.963985 229.56139 l
242.23375 229.941313 l
243.595663 230.321236 l
244.051619 230.701158 l
245.76659 231.461004 l
248.246468 231.840927 l
248.266176 232.220849 l
249.830994 232.600772 l
249.830994 232.980695 l
250.064109 233.360618 l
251.418393 233.740541 l
252.287248 234.120463 l
252.663805 234.500386 l
252.751578 234.880309 l
256.081527 235.260232 l
256.45198 235.640154 l
256.522588 236.020077 l
256.830888 236.4 l
258.304043 236.779923 l
258.521746 237.159846 l
259.239478 237.539768 l
261.368277 237.919691 l
261.606623 238.299614 l
263.56947 238.679537 l
263.713918 239.059459 l
264.416919 239.439382 l
264.782929 239.819305 l
266.201367 240.579151 l
266.261641 240.959073 l
271.60548 242.478764 l
274.353305 242.858687 l
274.634798 243.23861 l
277.066224 243.618533 l
277.131595 243.998456 l
277.616434 244.378378 l
279.417546 245.138224 l
279.704135 246.277992 l
279.735366 246.657915 l
280.494669 247.037838 l
283.465164 247.417761 l
284.59444 247.797683 l
285.019035 248.177606 l
286.21824 248.937452 l
286.295778 249.317375 l
286.563172 249.697297 l
286.686786 250.07722 l
288.007209 250.457143 l
290.754869 251.596911 l
290.825269 251.976834 l
293.659213 252.73668 l
294.4143 253.496525 l
295.067184 253.876448 l
299.65454 254.256371 l
303.296466 255.016216 l
304.868721 255.396139 l
304.938283 255.776062 l
308.460213 256.155985 l
309.762928 256.535907 l
310.351692 256.91583 l
311.762704 257.295753 l
312.770567 258.055598 l
314.05418 258.435521 l
314.351482 258.815444 l
314.614865 259.57529 l
314.72371 260.335135 l
315.562562 260.715058 l
315.712259 261.094981 l
316.758851 261.474903 l
319.816405 261.854826 l
323.592049 262.614672 l
324.222316 262.994595 l
324.43709 263.374517 l
327.288019 263.75444 l
328.936061 264.134363 l
330.654809 264.894208 l
330.682577 265.274131 l
331.607478 265.654054 l
338.209763 266.793822 l
338.570421 267.173745 l
341.419852 267.933591 l
341.514033 268.693436 l
341.866603 269.073359 l
343.463624 269.453282 l
345.08988 270.213127 l
345.344904 270.59305 l
346.514486 270.972973 l
346.543579 271.352896 l
347.234118 271.732819 l
354.342779 273.25251 l
354.656824 273.632432 l
355.48813 274.012355 l
356.374225 274.772201 l
361 274.874731 l
361 274.874731 l
stroke
grestore
0.800 setlinewidth
0 setlinejoin
2 setlinecap
[] 0 setdash
0.000 setgray
gsave
45 39.6 m
45 334.8 l
stroke
grestore
gsave
356.4 39.6 m
356.4 334.8 l
stroke
grestore
gsave
45 39.6 m
356.4 39.6 l
stroke
grestore
gsave
45 334.8 m
356.4 334.8 l
stroke
grestore
/DejaVuSans findfont
12.000 scalefont
setfont
gsave
185.325000 340.800000 translate
0.000000 rotate
0.000000 0.000000 m /P glyphshow
7.236328 0.000000 m /B glyphshow
15.468750 0.000000 m /one glyphshow
23.103516 0.000000 m /six glyphshow
grestore
1.000 setlinewidth
0 setlinecap
0.800 setgray
gsave
211.696875 282.784375 m
349.4 282.784375 l
350.733333 282.784375 351.4 283.451042 351.4 284.784375 c
351.4 327.8 l
351.4 329.133333 350.733333 329.8 349.4 329.8 c
211.696875 329.8 l
210.363542 329.8 209.696875 329.133333 209.696875 327.8 c
209.696875 284.784375 l
209.696875 283.451042 210.363542 282.784375 211.696875 282.784375 c
cl
gsave
1.000 setgray
fill
grestore
stroke
grestore
1.500 setlinewidth
1 setlinejoin
2 setlinecap
[] 0 setdash
0.122 0.467 0.706 setrgbcolor
gsave
213.696875 321.70625 m
233.696875 321.70625 l
stroke
grestore
0.000 setgray
/DejaVuSans findfont
10.000 scalefont
setfont
gsave
241.696875 318.206250 translate
0.000000 rotate
0.000000 0.000000 m /R glyphshow
6.948242 0.000000 m /o glyphshow
13.066406 0.000000 m /u glyphshow
19.404297 0.000000 m /n glyphshow
25.742188 0.000000 m /d glyphshow
32.089844 0.000000 m /i glyphshow
34.868164 0.000000 m /n glyphshow
41.206055 0.000000 m /g glyphshow
47.553711 0.000000 m /S glyphshow
53.901367 0.000000 m /a glyphshow
60.029297 0.000000 m /t glyphshow
63.950195 0.000000 m /plus glyphshow
72.329102 0.000000 m /S glyphshow
78.676758 0.000000 m /o glyphshow
84.794922 0.000000 m /P glyphshow
90.825195 0.000000 m /l glyphshow
93.603516 0.000000 m /e glyphshow
99.755859 0.000000 m /x glyphshow
grestore
0 setlinecap
[9.6 2.4 1.5 2.4] 0 setdash
1.000 0.498 0.055 setrgbcolor
gsave
213.696875 307.034375 m
233.696875 307.034375 l
stroke
grestore
0.000 setgray
gsave
241.696875 303.534375 translate
0.000000 rotate
0.000000 0.000000 m /n glyphshow
6.337891 0.000000 m /a glyphshow
12.465820 0.000000 m /i glyphshow
15.244141 0.000000 m /v glyphshow
21.162109 0.000000 m /e glyphshow
grestore
[1.5 2.475] 0 setdash
0.173 0.627 0.173 setrgbcolor
gsave
213.696875 292.3625 m
233.696875 292.3625 l
stroke
grestore
0.000 setgray
gsave
241.696875 288.862500 translate
0.000000 rotate
0.000000 0.000000 m /t glyphshow
3.920898 0.000000 m /i glyphshow
6.699219 0.000000 m /g glyphshow
13.046875 0.000000 m /h glyphshow
19.384766 0.000000 m /t glyphshow
grestore

end
showpage
