%!PS-Adobe-3.0 EPSF-3.0
%%Title: /home/jodv/workspace/PB_experiments/results/summarized/abisko_addlearnts1/scripts/../graphs/learnts1_ecdf_conflicts.eps
%%Creator: matplotlib version 3.0.3, http://matplotlib.org/
%%CreationDate: Fri Apr 19 21:24:03 2019
%%Orientation: portrait
%%BoundingBox: 75 223 536 568
%%EndComments
%%BeginProlog
/mpldict 8 dict def
mpldict begin
/m { moveto } bind def
/l { lineto } bind def
/r { rlineto } bind def
/c { curveto } bind def
/cl { closepath } bind def
/box {
m
1 index 0 r
0 exch r
neg 0 r
cl
} bind def
/clipbox {
box
clip
newpath
} bind def
%!PS-Adobe-3.0 Resource-Font
%%Title: DejaVu Sans
%%Copyright: Copyright (c) 2003 by Bitstream, Inc. All Rights Reserved. Copyright (c) 2006 by Tavmjong Bah. All Rights Reserved. DejaVu changes are in public domain 
%%Creator: Converted from TrueType to type 3 by PPR
25 dict begin
/_d{bind def}bind def
/_m{moveto}_d
/_l{lineto}_d
/_cl{closepath eofill}_d
/_c{curveto}_d
/_sc{7 -1 roll{setcachedevice}{pop pop pop pop pop pop}ifelse}_d
/_e{exec}_d
/FontName /DejaVuSans def
/PaintType 0 def
/FontMatrix[.001 0 0 .001 0 0]def
/FontBBox[-1021 -463 1793 1232]def
/FontType 3 def
/Encoding [ /space /plus /zero /one /two /three /four /five /six /eight /L /N /P /R /S /a /b /c /d /e /f /g /h /i /l /m /n /o /r /s /t /u /v /x ] def
/FontInfo 10 dict dup begin
/FamilyName (DejaVu Sans) def
/FullName (DejaVu Sans) def
/Notice (Copyright (c) 2003 by Bitstream, Inc. All Rights Reserved. Copyright (c) 2006 by Tavmjong Bah. All Rights Reserved. DejaVu changes are in public domain ) def
/Weight (Book) def
/Version (Version 2.35) def
/ItalicAngle 0.0 def
/isFixedPitch false def
/UnderlinePosition -130 def
/UnderlineThickness 90 def
end readonly def
/CharStrings 35 dict dup begin
/.notdef 0 def
/space{318 0 0 0 0 0 _sc
}_d
/plus{838 0 106 0 732 627 _sc
460 627 _m
460 355 _l
732 355 _l
732 272 _l
460 272 _l
460 0 _l
378 0 _l
378 272 _l
106 272 _l
106 355 _l
378 355 _l
378 627 _l
460 627 _l
_cl}_d
/zero{636 0 66 -13 570 742 _sc
318 664 _m
267 664 229 639 203 589 _c
177 539 165 464 165 364 _c
165 264 177 189 203 139 _c
229 89 267 64 318 64 _c
369 64 407 89 433 139 _c
458 189 471 264 471 364 _c
471 464 458 539 433 589 _c
407 639 369 664 318 664 _c
318 742 _m
399 742 461 709 505 645 _c
548 580 570 486 570 364 _c
570 241 548 147 505 83 _c
461 19 399 -13 318 -13 _c
236 -13 173 19 130 83 _c
87 147 66 241 66 364 _c
66 486 87 580 130 645 _c
173 709 236 742 318 742 _c
_cl}_d
/one{636 0 110 0 544 729 _sc
124 83 _m
285 83 _l
285 639 _l
110 604 _l
110 694 _l
284 729 _l
383 729 _l
383 83 _l
544 83 _l
544 0 _l
124 0 _l
124 83 _l
_cl}_d
/two{{636 0 73 0 536 742 _sc
192 83 _m
536 83 _l
536 0 _l
73 0 _l
73 83 _l
110 121 161 173 226 239 _c
290 304 331 346 348 365 _c
380 400 402 430 414 455 _c
426 479 433 504 433 528 _c
433 566 419 598 392 622 _c
365 646 330 659 286 659 _c
255 659 222 653 188 643 _c
154 632 117 616 78 594 _c
78 694 _l
118 710 155 722 189 730 _c
223 738 255 742 284 742 _c
}_e{359 742 419 723 464 685 _c
509 647 532 597 532 534 _c
532 504 526 475 515 449 _c
504 422 484 390 454 354 _c
446 344 420 317 376 272 _c
332 227 271 164 192 83 _c
_cl}_e}_d
/three{{636 0 76 -13 556 742 _sc
406 393 _m
453 383 490 362 516 330 _c
542 298 556 258 556 212 _c
556 140 531 84 482 45 _c
432 6 362 -13 271 -13 _c
240 -13 208 -10 176 -4 _c
144 1 110 10 76 22 _c
76 117 _l
103 101 133 89 166 81 _c
198 73 232 69 268 69 _c
330 69 377 81 409 105 _c
441 129 458 165 458 212 _c
458 254 443 288 413 312 _c
383 336 341 349 287 349 _c
}_e{202 349 _l
202 430 _l
291 430 _l
339 430 376 439 402 459 _c
428 478 441 506 441 543 _c
441 580 427 609 401 629 _c
374 649 336 659 287 659 _c
260 659 231 656 200 650 _c
169 644 135 635 98 623 _c
98 711 _l
135 721 170 729 203 734 _c
235 739 266 742 296 742 _c
370 742 429 725 473 691 _c
517 657 539 611 539 553 _c
539 513 527 479 504 451 _c
481 423 448 403 406 393 _c
_cl}_e}_d
/four{636 0 49 0 580 729 _sc
378 643 _m
129 254 _l
378 254 _l
378 643 _l
352 729 _m
476 729 _l
476 254 _l
580 254 _l
580 172 _l
476 172 _l
476 0 _l
378 0 _l
378 172 _l
49 172 _l
49 267 _l
352 729 _l
_cl}_d
/five{{636 0 77 -13 549 729 _sc
108 729 _m
495 729 _l
495 646 _l
198 646 _l
198 467 _l
212 472 227 476 241 478 _c
255 480 270 482 284 482 _c
365 482 429 459 477 415 _c
525 370 549 310 549 234 _c
549 155 524 94 475 51 _c
426 8 357 -13 269 -13 _c
238 -13 207 -10 175 -6 _c
143 -1 111 6 77 17 _c
77 116 _l
106 100 136 88 168 80 _c
199 72 232 69 267 69 _c
}_e{323 69 368 83 401 113 _c
433 143 450 183 450 234 _c
450 284 433 324 401 354 _c
368 384 323 399 267 399 _c
241 399 214 396 188 390 _c
162 384 135 375 108 363 _c
108 729 _l
_cl}_e}_d
/six{{636 0 70 -13 573 742 _sc
330 404 _m
286 404 251 388 225 358 _c
199 328 186 286 186 234 _c
186 181 199 139 225 109 _c
251 79 286 64 330 64 _c
374 64 409 79 435 109 _c
461 139 474 181 474 234 _c
474 286 461 328 435 358 _c
409 388 374 404 330 404 _c
526 713 _m
526 623 _l
501 635 476 644 451 650 _c
425 656 400 659 376 659 _c
310 659 260 637 226 593 _c
}_e{192 549 172 482 168 394 _c
187 422 211 444 240 459 _c
269 474 301 482 336 482 _c
409 482 467 459 509 415 _c
551 371 573 310 573 234 _c
573 159 550 99 506 54 _c
462 9 403 -13 330 -13 _c
246 -13 181 19 137 83 _c
92 147 70 241 70 364 _c
70 479 97 571 152 639 _c
206 707 280 742 372 742 _c
396 742 421 739 447 735 _c
472 730 498 723 526 713 _c
_cl}_e}_d
/eight{{636 0 68 -13 568 742 _sc
318 346 _m
271 346 234 333 207 308 _c
180 283 167 249 167 205 _c
167 161 180 126 207 101 _c
234 76 271 64 318 64 _c
364 64 401 76 428 102 _c
455 127 469 161 469 205 _c
469 249 455 283 429 308 _c
402 333 365 346 318 346 _c
219 388 _m
177 398 144 418 120 447 _c
96 476 85 511 85 553 _c
85 611 105 657 147 691 _c
188 725 245 742 318 742 _c
}_e{390 742 447 725 489 691 _c
530 657 551 611 551 553 _c
551 511 539 476 515 447 _c
491 418 459 398 417 388 _c
464 377 501 355 528 323 _c
554 291 568 251 568 205 _c
568 134 546 80 503 43 _c
459 5 398 -13 318 -13 _c
237 -13 175 5 132 43 _c
89 80 68 134 68 205 _c
68 251 81 291 108 323 _c
134 355 171 377 219 388 _c
183 544 _m
183 506 194 476 218 455 _c
}_e{242 434 275 424 318 424 _c
360 424 393 434 417 455 _c
441 476 453 506 453 544 _c
453 582 441 611 417 632 _c
393 653 360 664 318 664 _c
275 664 242 653 218 632 _c
194 611 183 582 183 544 _c
_cl}_e}_d
/L{557 0 98 0 552 729 _sc
98 729 _m
197 729 _l
197 83 _l
552 83 _l
552 0 _l
98 0 _l
98 729 _l
_cl}_d
/N{748 0 98 0 650 729 _sc
98 729 _m
231 729 _l
554 119 _l
554 729 _l
650 729 _l
650 0 _l
517 0 _l
194 610 _l
194 0 _l
98 0 _l
98 729 _l
_cl}_d
/P{603 0 98 0 569 729 _sc
197 648 _m
197 374 _l
321 374 _l
367 374 402 385 427 409 _c
452 433 465 467 465 511 _c
465 555 452 588 427 612 _c
402 636 367 648 321 648 _c
197 648 _l
98 729 _m
321 729 _l
402 729 464 710 506 673 _c
548 636 569 582 569 511 _c
569 439 548 384 506 348 _c
464 311 402 293 321 293 _c
197 293 _l
197 0 _l
98 0 _l
98 729 _l
_cl}_d
/R{{695 0 98 0 666 729 _sc
444 342 _m
465 334 486 319 506 296 _c
526 272 546 240 566 199 _c
666 0 _l
560 0 _l
467 187 _l
443 235 419 268 397 284 _c
374 300 343 308 304 308 _c
197 308 _l
197 0 _l
98 0 _l
98 729 _l
321 729 _l
404 729 466 711 507 677 _c
548 642 569 589 569 519 _c
569 473 558 434 537 404 _c
515 374 484 353 444 342 _c
197 648 _m
197 389 _l
321 389 _l
}_e{368 389 404 400 428 422 _c
452 444 465 476 465 519 _c
465 561 452 593 428 615 _c
404 637 368 648 321 648 _c
197 648 _l
_cl}_e}_d
/S{{635 0 66 -13 579 742 _sc
535 705 _m
535 609 _l
497 627 462 640 429 649 _c
395 657 363 662 333 662 _c
279 662 237 651 208 631 _c
179 610 165 580 165 542 _c
165 510 174 485 194 469 _c
213 452 250 439 304 429 _c
364 417 _l
437 403 491 378 526 343 _c
561 307 579 260 579 201 _c
579 130 555 77 508 41 _c
460 5 391 -13 300 -13 _c
265 -13 228 -9 189 -2 _c
}_e{150 5 110 16 69 32 _c
69 134 _l
109 111 148 94 186 83 _c
224 71 262 66 300 66 _c
356 66 399 77 430 99 _c
460 121 476 152 476 194 _c
476 230 465 258 443 278 _c
421 298 385 313 335 323 _c
275 335 _l
201 349 148 372 115 404 _c
82 435 66 478 66 534 _c
66 598 88 649 134 686 _c
179 723 242 742 322 742 _c
356 742 390 739 426 733 _c
461 727 497 717 535 705 _c
}_e{_cl}_e}_d
/a{{613 0 60 -13 522 560 _sc
343 275 _m
270 275 220 266 192 250 _c
164 233 150 205 150 165 _c
150 133 160 107 181 89 _c
202 70 231 61 267 61 _c
317 61 357 78 387 114 _c
417 149 432 196 432 255 _c
432 275 _l
343 275 _l
522 312 _m
522 0 _l
432 0 _l
432 83 _l
411 49 385 25 355 10 _c
325 -5 287 -13 243 -13 _c
187 -13 142 2 109 33 _c
76 64 60 106 60 159 _c
}_e{60 220 80 266 122 298 _c
163 329 224 345 306 345 _c
432 345 _l
432 354 _l
432 395 418 427 391 450 _c
364 472 326 484 277 484 _c
245 484 215 480 185 472 _c
155 464 127 453 100 439 _c
100 522 _l
132 534 164 544 195 550 _c
226 556 256 560 286 560 _c
365 560 424 539 463 498 _c
502 457 522 395 522 312 _c
_cl}_e}_d
/b{{635 0 91 -13 580 760 _sc
487 273 _m
487 339 473 390 446 428 _c
418 466 381 485 334 485 _c
286 485 249 466 222 428 _c
194 390 181 339 181 273 _c
181 207 194 155 222 117 _c
249 79 286 61 334 61 _c
381 61 418 79 446 117 _c
473 155 487 207 487 273 _c
181 464 _m
199 496 223 520 252 536 _c
281 552 316 560 356 560 _c
422 560 476 533 518 481 _c
559 428 580 359 580 273 _c
}_e{580 187 559 117 518 65 _c
476 13 422 -13 356 -13 _c
316 -13 281 -5 252 10 _c
223 25 199 49 181 82 _c
181 0 _l
91 0 _l
91 760 _l
181 760 _l
181 464 _l
_cl}_e}_d
/c{{550 0 55 -13 488 560 _sc
488 526 _m
488 442 _l
462 456 437 466 411 473 _c
385 480 360 484 334 484 _c
276 484 230 465 198 428 _c
166 391 150 339 150 273 _c
150 206 166 154 198 117 _c
230 80 276 62 334 62 _c
360 62 385 65 411 72 _c
437 79 462 90 488 104 _c
488 21 _l
462 9 436 0 410 -5 _c
383 -10 354 -13 324 -13 _c
242 -13 176 12 128 64 _c
}_e{79 115 55 185 55 273 _c
55 362 79 432 128 483 _c
177 534 244 560 330 560 _c
358 560 385 557 411 551 _c
437 545 463 537 488 526 _c
_cl}_e}_d
/d{{635 0 55 -13 544 760 _sc
454 464 _m
454 760 _l
544 760 _l
544 0 _l
454 0 _l
454 82 _l
435 49 411 25 382 10 _c
353 -5 319 -13 279 -13 _c
213 -13 159 13 117 65 _c
75 117 55 187 55 273 _c
55 359 75 428 117 481 _c
159 533 213 560 279 560 _c
319 560 353 552 382 536 _c
411 520 435 496 454 464 _c
148 273 _m
148 207 161 155 188 117 _c
215 79 253 61 301 61 _c
}_e{348 61 385 79 413 117 _c
440 155 454 207 454 273 _c
454 339 440 390 413 428 _c
385 466 348 485 301 485 _c
253 485 215 466 188 428 _c
161 390 148 339 148 273 _c
_cl}_e}_d
/e{{615 0 55 -13 562 560 _sc
562 296 _m
562 252 _l
149 252 _l
153 190 171 142 205 110 _c
238 78 284 62 344 62 _c
378 62 412 66 444 74 _c
476 82 509 95 541 113 _c
541 28 _l
509 14 476 3 442 -3 _c
408 -9 373 -13 339 -13 _c
251 -13 182 12 131 62 _c
80 112 55 181 55 268 _c
55 357 79 428 127 481 _c
175 533 241 560 323 560 _c
397 560 455 536 498 489 _c
}_e{540 441 562 377 562 296 _c
472 322 _m
471 371 457 410 431 440 _c
404 469 368 484 324 484 _c
274 484 234 469 204 441 _c
174 413 156 373 152 322 _c
472 322 _l
_cl}_e}_d
/f{352 0 23 0 371 760 _sc
371 760 _m
371 685 _l
285 685 _l
253 685 230 678 218 665 _c
205 652 199 629 199 595 _c
199 547 _l
347 547 _l
347 477 _l
199 477 _l
199 0 _l
109 0 _l
109 477 _l
23 477 _l
23 547 _l
109 547 _l
109 585 _l
109 645 123 690 151 718 _c
179 746 224 760 286 760 _c
371 760 _l
_cl}_d
/g{{635 0 55 -207 544 560 _sc
454 280 _m
454 344 440 395 414 431 _c
387 467 349 485 301 485 _c
253 485 215 467 188 431 _c
161 395 148 344 148 280 _c
148 215 161 165 188 129 _c
215 93 253 75 301 75 _c
349 75 387 93 414 129 _c
440 165 454 215 454 280 _c
544 68 _m
544 -24 523 -93 482 -139 _c
440 -184 377 -207 292 -207 _c
260 -207 231 -204 203 -200 _c
175 -195 147 -188 121 -178 _c
}_e{121 -91 _l
147 -105 173 -115 199 -122 _c
225 -129 251 -133 278 -133 _c
336 -133 380 -117 410 -87 _c
439 -56 454 -10 454 52 _c
454 96 _l
435 64 411 40 382 24 _c
353 8 319 0 279 0 _c
211 0 157 25 116 76 _c
75 127 55 195 55 280 _c
55 364 75 432 116 483 _c
157 534 211 560 279 560 _c
319 560 353 552 382 536 _c
411 520 435 496 454 464 _c
454 547 _l
544 547 _l
}_e{544 68 _l
_cl}_e}_d
/h{634 0 91 0 549 760 _sc
549 330 _m
549 0 _l
459 0 _l
459 327 _l
459 379 448 417 428 443 _c
408 469 378 482 338 482 _c
289 482 251 466 223 435 _c
195 404 181 362 181 309 _c
181 0 _l
91 0 _l
91 760 _l
181 760 _l
181 462 _l
202 494 227 519 257 535 _c
286 551 320 560 358 560 _c
420 560 468 540 500 501 _c
532 462 549 405 549 330 _c
_cl}_d
/i{278 0 94 0 184 760 _sc
94 547 _m
184 547 _l
184 0 _l
94 0 _l
94 547 _l
94 760 _m
184 760 _l
184 646 _l
94 646 _l
94 760 _l
_cl}_d
/l{278 0 94 0 184 760 _sc
94 760 _m
184 760 _l
184 0 _l
94 0 _l
94 760 _l
_cl}_d
/m{{974 0 91 0 889 560 _sc
520 442 _m
542 482 569 511 600 531 _c
631 550 668 560 711 560 _c
767 560 811 540 842 500 _c
873 460 889 403 889 330 _c
889 0 _l
799 0 _l
799 327 _l
799 379 789 418 771 444 _c
752 469 724 482 686 482 _c
639 482 602 466 575 435 _c
548 404 535 362 535 309 _c
535 0 _l
445 0 _l
445 327 _l
445 379 435 418 417 444 _c
398 469 369 482 331 482 _c
}_e{285 482 248 466 221 435 _c
194 404 181 362 181 309 _c
181 0 _l
91 0 _l
91 547 _l
181 547 _l
181 462 _l
201 495 226 520 255 536 _c
283 552 317 560 357 560 _c
397 560 430 550 458 530 _c
486 510 506 480 520 442 _c
_cl}_e}_d
/n{634 0 91 0 549 560 _sc
549 330 _m
549 0 _l
459 0 _l
459 327 _l
459 379 448 417 428 443 _c
408 469 378 482 338 482 _c
289 482 251 466 223 435 _c
195 404 181 362 181 309 _c
181 0 _l
91 0 _l
91 547 _l
181 547 _l
181 462 _l
202 494 227 519 257 535 _c
286 551 320 560 358 560 _c
420 560 468 540 500 501 _c
532 462 549 405 549 330 _c
_cl}_d
/o{612 0 55 -13 557 560 _sc
306 484 _m
258 484 220 465 192 427 _c
164 389 150 338 150 273 _c
150 207 163 156 191 118 _c
219 80 257 62 306 62 _c
354 62 392 80 420 118 _c
448 156 462 207 462 273 _c
462 337 448 389 420 427 _c
392 465 354 484 306 484 _c
306 560 _m
384 560 445 534 490 484 _c
534 433 557 363 557 273 _c
557 183 534 113 490 63 _c
445 12 384 -13 306 -13 _c
227 -13 165 12 121 63 _c
77 113 55 183 55 273 _c
55 363 77 433 121 484 _c
165 534 227 560 306 560 _c
_cl}_d
/r{411 0 91 0 411 560 _sc
411 463 _m
401 469 390 473 378 476 _c
366 478 353 480 339 480 _c
288 480 249 463 222 430 _c
194 397 181 350 181 288 _c
181 0 _l
91 0 _l
91 547 _l
181 547 _l
181 462 _l
199 495 224 520 254 536 _c
284 552 321 560 365 560 _c
371 560 378 559 386 559 _c
393 558 401 557 411 555 _c
411 463 _l
_cl}_d
/s{{521 0 54 -13 472 560 _sc
443 531 _m
443 446 _l
417 458 391 468 364 475 _c
336 481 308 485 279 485 _c
234 485 200 478 178 464 _c
156 450 145 430 145 403 _c
145 382 153 366 169 354 _c
185 342 217 330 265 320 _c
296 313 _l
360 299 405 279 432 255 _c
458 230 472 195 472 151 _c
472 100 452 60 412 31 _c
372 1 316 -13 246 -13 _c
216 -13 186 -10 154 -5 _c
}_e{122 0 89 8 54 20 _c
54 113 _l
87 95 120 82 152 74 _c
184 65 216 61 248 61 _c
290 61 323 68 346 82 _c
368 96 380 117 380 144 _c
380 168 371 187 355 200 _c
339 213 303 226 247 238 _c
216 245 _l
160 257 119 275 95 299 _c
70 323 58 356 58 399 _c
58 450 76 490 112 518 _c
148 546 200 560 268 560 _c
301 560 332 557 362 552 _c
391 547 418 540 443 531 _c
}_e{_cl}_e}_d
/t{392 0 27 0 368 702 _sc
183 702 _m
183 547 _l
368 547 _l
368 477 _l
183 477 _l
183 180 _l
183 135 189 106 201 94 _c
213 81 238 75 276 75 _c
368 75 _l
368 0 _l
276 0 _l
206 0 158 13 132 39 _c
106 65 93 112 93 180 _c
93 477 _l
27 477 _l
27 547 _l
93 547 _l
93 702 _l
183 702 _l
_cl}_d
/u{634 0 85 -13 543 560 _sc
85 216 _m
85 547 _l
175 547 _l
175 219 _l
175 167 185 129 205 103 _c
225 77 255 64 296 64 _c
344 64 383 79 411 110 _c
439 141 453 183 453 237 _c
453 547 _l
543 547 _l
543 0 _l
453 0 _l
453 84 _l
431 50 405 26 377 10 _c
348 -5 315 -13 277 -13 _c
214 -13 166 6 134 45 _c
101 83 85 140 85 216 _c
311 560 _m
311 560 _l
_cl}_d
/v{592 0 30 0 562 547 _sc
30 547 _m
125 547 _l
296 88 _l
467 547 _l
562 547 _l
357 0 _l
235 0 _l
30 547 _l
_cl}_d
/x{592 0 29 0 559 547 _sc
549 547 _m
351 281 _l
559 0 _l
453 0 _l
294 215 _l
135 0 _l
29 0 _l
241 286 _l
47 547 _l
153 547 _l
298 352 _l
443 547 _l
549 547 _l
_cl}_d
end readonly def

/BuildGlyph
 {exch begin
 CharStrings exch
 2 copy known not{pop /.notdef}if
 true 3 1 roll get exec
 end}_d

/BuildChar {
 1 index /Encoding get exch get
 1 index /BuildGlyph get exec
}_d

FontName currentdict end definefont pop
end
%%EndProlog
mpldict begin
75.6 223.2 translate
460.8 345.6 0 0 clipbox
gsave
0 0 m
460.8 0 l
460.8 345.6 l
0 345.6 l
cl
1.000 setgray
fill
grestore
gsave
57.6 38.016 m
456.192 38.016 l
456.192 321.408 l
57.6 321.408 l
cl
1.000 setgray
fill
grestore
0.800 setlinewidth
1 setlinejoin
0 setlinecap
[] 0 setdash
0.000 setgray
gsave
/o {
gsave
newpath
translate
0.8 setlinewidth
1 setlinejoin
0 setlinecap
0 0 m
0 -3.5 l

gsave
0.000 setgray
fill
grestore
stroke
grestore
} bind def
57.6 38.016 o
grestore
gsave
48.600000 22.094125 translate
0.000000 rotate
/DejaVuSans findfont
10.0 scalefont
setfont
0.000000 0.976562 moveto
/one glyphshow

6.362305 0.976562 moveto
/zero glyphshow

/DejaVuSans findfont
7.0 scalefont
setfont
12.820312 4.804688 moveto
/zero glyphshow


grestore
gsave
/o {
gsave
newpath
translate
0.8 setlinewidth
1 setlinejoin
0 setlinecap
0 0 m
0 -3.5 l

gsave
0.000 setgray
fill
grestore
stroke
grestore
} bind def
118.3 38.016 o
grestore
gsave
109.299687 23.094125 translate
0.000000 rotate
/DejaVuSans findfont
10.0 scalefont
setfont
0.000000 0.064063 moveto
/one glyphshow

6.362305 0.064063 moveto
/zero glyphshow

/DejaVuSans findfont
7.0 scalefont
setfont
12.820312 3.892188 moveto
/one glyphshow


grestore
gsave
/o {
gsave
newpath
translate
0.8 setlinewidth
1 setlinejoin
0 setlinecap
0 0 m
0 -3.5 l

gsave
0.000 setgray
fill
grestore
stroke
grestore
} bind def
178.999 38.016 o
grestore
gsave
169.999374 22.094125 translate
0.000000 rotate
/DejaVuSans findfont
10.0 scalefont
setfont
0.000000 0.976562 moveto
/one glyphshow

6.362305 0.976562 moveto
/zero glyphshow

/DejaVuSans findfont
7.0 scalefont
setfont
12.820312 4.804688 moveto
/two glyphshow


grestore
gsave
/o {
gsave
newpath
translate
0.8 setlinewidth
1 setlinejoin
0 setlinecap
0 0 m
0 -3.5 l

gsave
0.000 setgray
fill
grestore
stroke
grestore
} bind def
239.699 38.016 o
grestore
gsave
230.699061 22.094125 translate
0.000000 rotate
/DejaVuSans findfont
10.0 scalefont
setfont
0.000000 0.976562 moveto
/one glyphshow

6.362305 0.976562 moveto
/zero glyphshow

/DejaVuSans findfont
7.0 scalefont
setfont
12.820312 4.804688 moveto
/three glyphshow


grestore
gsave
/o {
gsave
newpath
translate
0.8 setlinewidth
1 setlinejoin
0 setlinecap
0 0 m
0 -3.5 l

gsave
0.000 setgray
fill
grestore
stroke
grestore
} bind def
300.399 38.016 o
grestore
gsave
291.398747 23.094125 translate
0.000000 rotate
/DejaVuSans findfont
10.0 scalefont
setfont
0.000000 0.064063 moveto
/one glyphshow

6.362305 0.064063 moveto
/zero glyphshow

/DejaVuSans findfont
7.0 scalefont
setfont
12.820312 3.892188 moveto
/four glyphshow


grestore
gsave
/o {
gsave
newpath
translate
0.8 setlinewidth
1 setlinejoin
0 setlinecap
0 0 m
0 -3.5 l

gsave
0.000 setgray
fill
grestore
stroke
grestore
} bind def
361.098 38.016 o
grestore
gsave
352.098434 23.094125 translate
0.000000 rotate
/DejaVuSans findfont
10.0 scalefont
setfont
0.000000 0.064063 moveto
/one glyphshow

6.362305 0.064063 moveto
/zero glyphshow

/DejaVuSans findfont
7.0 scalefont
setfont
12.820312 3.892188 moveto
/five glyphshow


grestore
gsave
/o {
gsave
newpath
translate
0.8 setlinewidth
1 setlinejoin
0 setlinecap
0 0 m
0 -3.5 l

gsave
0.000 setgray
fill
grestore
stroke
grestore
} bind def
421.798 38.016 o
grestore
gsave
412.798121 22.094125 translate
0.000000 rotate
/DejaVuSans findfont
10.0 scalefont
setfont
0.000000 0.976562 moveto
/one glyphshow

6.362305 0.976562 moveto
/zero glyphshow

/DejaVuSans findfont
7.0 scalefont
setfont
12.820312 4.804688 moveto
/six glyphshow


grestore
0.600 setlinewidth
gsave
/o {
gsave
newpath
translate
0.6 setlinewidth
1 setlinejoin
0 setlinecap
0 0 m
0 -2 l

gsave
0.000 setgray
fill
grestore
stroke
grestore
} bind def
75.8724 38.016 o
grestore
gsave
/o {
gsave
newpath
translate
0.6 setlinewidth
1 setlinejoin
0 setlinecap
0 0 m
0 -2 l

gsave
0.000 setgray
fill
grestore
stroke
grestore
} bind def
86.5611 38.016 o
grestore
gsave
/o {
gsave
newpath
translate
0.6 setlinewidth
1 setlinejoin
0 setlinecap
0 0 m
0 -2 l

gsave
0.000 setgray
fill
grestore
stroke
grestore
} bind def
94.1449 38.016 o
grestore
gsave
/o {
gsave
newpath
translate
0.6 setlinewidth
1 setlinejoin
0 setlinecap
0 0 m
0 -2 l

gsave
0.000 setgray
fill
grestore
stroke
grestore
} bind def
100.027 38.016 o
grestore
gsave
/o {
gsave
newpath
translate
0.6 setlinewidth
1 setlinejoin
0 setlinecap
0 0 m
0 -2 l

gsave
0.000 setgray
fill
grestore
stroke
grestore
} bind def
104.834 38.016 o
grestore
gsave
/o {
gsave
newpath
translate
0.6 setlinewidth
1 setlinejoin
0 setlinecap
0 0 m
0 -2 l

gsave
0.000 setgray
fill
grestore
stroke
grestore
} bind def
108.897 38.016 o
grestore
gsave
/o {
gsave
newpath
translate
0.6 setlinewidth
1 setlinejoin
0 setlinecap
0 0 m
0 -2 l

gsave
0.000 setgray
fill
grestore
stroke
grestore
} bind def
112.417 38.016 o
grestore
gsave
/o {
gsave
newpath
translate
0.6 setlinewidth
1 setlinejoin
0 setlinecap
0 0 m
0 -2 l

gsave
0.000 setgray
fill
grestore
stroke
grestore
} bind def
115.522 38.016 o
grestore
gsave
/o {
gsave
newpath
translate
0.6 setlinewidth
1 setlinejoin
0 setlinecap
0 0 m
0 -2 l

gsave
0.000 setgray
fill
grestore
stroke
grestore
} bind def
136.572 38.016 o
grestore
gsave
/o {
gsave
newpath
translate
0.6 setlinewidth
1 setlinejoin
0 setlinecap
0 0 m
0 -2 l

gsave
0.000 setgray
fill
grestore
stroke
grestore
} bind def
147.261 38.016 o
grestore
gsave
/o {
gsave
newpath
translate
0.6 setlinewidth
1 setlinejoin
0 setlinecap
0 0 m
0 -2 l

gsave
0.000 setgray
fill
grestore
stroke
grestore
} bind def
154.845 38.016 o
grestore
gsave
/o {
gsave
newpath
translate
0.6 setlinewidth
1 setlinejoin
0 setlinecap
0 0 m
0 -2 l

gsave
0.000 setgray
fill
grestore
stroke
grestore
} bind def
160.727 38.016 o
grestore
gsave
/o {
gsave
newpath
translate
0.6 setlinewidth
1 setlinejoin
0 setlinecap
0 0 m
0 -2 l

gsave
0.000 setgray
fill
grestore
stroke
grestore
} bind def
165.533 38.016 o
grestore
gsave
/o {
gsave
newpath
translate
0.6 setlinewidth
1 setlinejoin
0 setlinecap
0 0 m
0 -2 l

gsave
0.000 setgray
fill
grestore
stroke
grestore
} bind def
169.597 38.016 o
grestore
gsave
/o {
gsave
newpath
translate
0.6 setlinewidth
1 setlinejoin
0 setlinecap
0 0 m
0 -2 l

gsave
0.000 setgray
fill
grestore
stroke
grestore
} bind def
173.117 38.016 o
grestore
gsave
/o {
gsave
newpath
translate
0.6 setlinewidth
1 setlinejoin
0 setlinecap
0 0 m
0 -2 l

gsave
0.000 setgray
fill
grestore
stroke
grestore
} bind def
176.222 38.016 o
grestore
gsave
/o {
gsave
newpath
translate
0.6 setlinewidth
1 setlinejoin
0 setlinecap
0 0 m
0 -2 l

gsave
0.000 setgray
fill
grestore
stroke
grestore
} bind def
197.272 38.016 o
grestore
gsave
/o {
gsave
newpath
translate
0.6 setlinewidth
1 setlinejoin
0 setlinecap
0 0 m
0 -2 l

gsave
0.000 setgray
fill
grestore
stroke
grestore
} bind def
207.96 38.016 o
grestore
gsave
/o {
gsave
newpath
translate
0.6 setlinewidth
1 setlinejoin
0 setlinecap
0 0 m
0 -2 l

gsave
0.000 setgray
fill
grestore
stroke
grestore
} bind def
215.544 38.016 o
grestore
gsave
/o {
gsave
newpath
translate
0.6 setlinewidth
1 setlinejoin
0 setlinecap
0 0 m
0 -2 l

gsave
0.000 setgray
fill
grestore
stroke
grestore
} bind def
221.427 38.016 o
grestore
gsave
/o {
gsave
newpath
translate
0.6 setlinewidth
1 setlinejoin
0 setlinecap
0 0 m
0 -2 l

gsave
0.000 setgray
fill
grestore
stroke
grestore
} bind def
226.233 38.016 o
grestore
gsave
/o {
gsave
newpath
translate
0.6 setlinewidth
1 setlinejoin
0 setlinecap
0 0 m
0 -2 l

gsave
0.000 setgray
fill
grestore
stroke
grestore
} bind def
230.297 38.016 o
grestore
gsave
/o {
gsave
newpath
translate
0.6 setlinewidth
1 setlinejoin
0 setlinecap
0 0 m
0 -2 l

gsave
0.000 setgray
fill
grestore
stroke
grestore
} bind def
233.817 38.016 o
grestore
gsave
/o {
gsave
newpath
translate
0.6 setlinewidth
1 setlinejoin
0 setlinecap
0 0 m
0 -2 l

gsave
0.000 setgray
fill
grestore
stroke
grestore
} bind def
236.922 38.016 o
grestore
gsave
/o {
gsave
newpath
translate
0.6 setlinewidth
1 setlinejoin
0 setlinecap
0 0 m
0 -2 l

gsave
0.000 setgray
fill
grestore
stroke
grestore
} bind def
257.971 38.016 o
grestore
gsave
/o {
gsave
newpath
translate
0.6 setlinewidth
1 setlinejoin
0 setlinecap
0 0 m
0 -2 l

gsave
0.000 setgray
fill
grestore
stroke
grestore
} bind def
268.66 38.016 o
grestore
gsave
/o {
gsave
newpath
translate
0.6 setlinewidth
1 setlinejoin
0 setlinecap
0 0 m
0 -2 l

gsave
0.000 setgray
fill
grestore
stroke
grestore
} bind def
276.244 38.016 o
grestore
gsave
/o {
gsave
newpath
translate
0.6 setlinewidth
1 setlinejoin
0 setlinecap
0 0 m
0 -2 l

gsave
0.000 setgray
fill
grestore
stroke
grestore
} bind def
282.126 38.016 o
grestore
gsave
/o {
gsave
newpath
translate
0.6 setlinewidth
1 setlinejoin
0 setlinecap
0 0 m
0 -2 l

gsave
0.000 setgray
fill
grestore
stroke
grestore
} bind def
286.933 38.016 o
grestore
gsave
/o {
gsave
newpath
translate
0.6 setlinewidth
1 setlinejoin
0 setlinecap
0 0 m
0 -2 l

gsave
0.000 setgray
fill
grestore
stroke
grestore
} bind def
290.996 38.016 o
grestore
gsave
/o {
gsave
newpath
translate
0.6 setlinewidth
1 setlinejoin
0 setlinecap
0 0 m
0 -2 l

gsave
0.000 setgray
fill
grestore
stroke
grestore
} bind def
294.516 38.016 o
grestore
gsave
/o {
gsave
newpath
translate
0.6 setlinewidth
1 setlinejoin
0 setlinecap
0 0 m
0 -2 l

gsave
0.000 setgray
fill
grestore
stroke
grestore
} bind def
297.621 38.016 o
grestore
gsave
/o {
gsave
newpath
translate
0.6 setlinewidth
1 setlinejoin
0 setlinecap
0 0 m
0 -2 l

gsave
0.000 setgray
fill
grestore
stroke
grestore
} bind def
318.671 38.016 o
grestore
gsave
/o {
gsave
newpath
translate
0.6 setlinewidth
1 setlinejoin
0 setlinecap
0 0 m
0 -2 l

gsave
0.000 setgray
fill
grestore
stroke
grestore
} bind def
329.36 38.016 o
grestore
gsave
/o {
gsave
newpath
translate
0.6 setlinewidth
1 setlinejoin
0 setlinecap
0 0 m
0 -2 l

gsave
0.000 setgray
fill
grestore
stroke
grestore
} bind def
336.944 38.016 o
grestore
gsave
/o {
gsave
newpath
translate
0.6 setlinewidth
1 setlinejoin
0 setlinecap
0 0 m
0 -2 l

gsave
0.000 setgray
fill
grestore
stroke
grestore
} bind def
342.826 38.016 o
grestore
gsave
/o {
gsave
newpath
translate
0.6 setlinewidth
1 setlinejoin
0 setlinecap
0 0 m
0 -2 l

gsave
0.000 setgray
fill
grestore
stroke
grestore
} bind def
347.632 38.016 o
grestore
gsave
/o {
gsave
newpath
translate
0.6 setlinewidth
1 setlinejoin
0 setlinecap
0 0 m
0 -2 l

gsave
0.000 setgray
fill
grestore
stroke
grestore
} bind def
351.696 38.016 o
grestore
gsave
/o {
gsave
newpath
translate
0.6 setlinewidth
1 setlinejoin
0 setlinecap
0 0 m
0 -2 l

gsave
0.000 setgray
fill
grestore
stroke
grestore
} bind def
355.216 38.016 o
grestore
gsave
/o {
gsave
newpath
translate
0.6 setlinewidth
1 setlinejoin
0 setlinecap
0 0 m
0 -2 l

gsave
0.000 setgray
fill
grestore
stroke
grestore
} bind def
358.321 38.016 o
grestore
gsave
/o {
gsave
newpath
translate
0.6 setlinewidth
1 setlinejoin
0 setlinecap
0 0 m
0 -2 l

gsave
0.000 setgray
fill
grestore
stroke
grestore
} bind def
379.371 38.016 o
grestore
gsave
/o {
gsave
newpath
translate
0.6 setlinewidth
1 setlinejoin
0 setlinecap
0 0 m
0 -2 l

gsave
0.000 setgray
fill
grestore
stroke
grestore
} bind def
390.06 38.016 o
grestore
gsave
/o {
gsave
newpath
translate
0.6 setlinewidth
1 setlinejoin
0 setlinecap
0 0 m
0 -2 l

gsave
0.000 setgray
fill
grestore
stroke
grestore
} bind def
397.643 38.016 o
grestore
gsave
/o {
gsave
newpath
translate
0.6 setlinewidth
1 setlinejoin
0 setlinecap
0 0 m
0 -2 l

gsave
0.000 setgray
fill
grestore
stroke
grestore
} bind def
403.526 38.016 o
grestore
gsave
/o {
gsave
newpath
translate
0.6 setlinewidth
1 setlinejoin
0 setlinecap
0 0 m
0 -2 l

gsave
0.000 setgray
fill
grestore
stroke
grestore
} bind def
408.332 38.016 o
grestore
gsave
/o {
gsave
newpath
translate
0.6 setlinewidth
1 setlinejoin
0 setlinecap
0 0 m
0 -2 l

gsave
0.000 setgray
fill
grestore
stroke
grestore
} bind def
412.396 38.016 o
grestore
gsave
/o {
gsave
newpath
translate
0.6 setlinewidth
1 setlinejoin
0 setlinecap
0 0 m
0 -2 l

gsave
0.000 setgray
fill
grestore
stroke
grestore
} bind def
415.916 38.016 o
grestore
gsave
/o {
gsave
newpath
translate
0.6 setlinewidth
1 setlinejoin
0 setlinecap
0 0 m
0 -2 l

gsave
0.000 setgray
fill
grestore
stroke
grestore
} bind def
419.021 38.016 o
grestore
gsave
/o {
gsave
newpath
translate
0.6 setlinewidth
1 setlinejoin
0 setlinecap
0 0 m
0 -2 l

gsave
0.000 setgray
fill
grestore
stroke
grestore
} bind def
440.071 38.016 o
grestore
gsave
/o {
gsave
newpath
translate
0.6 setlinewidth
1 setlinejoin
0 setlinecap
0 0 m
0 -2 l

gsave
0.000 setgray
fill
grestore
stroke
grestore
} bind def
450.759 38.016 o
grestore
/DejaVuSans findfont
10.000 scalefont
setfont
gsave
186.692875 8.422250 translate
0.000000 rotate
0.000000 0.000000 m /L glyphshow
5.571289 0.000000 m /i glyphshow
8.349609 0.000000 m /m glyphshow
18.090820 0.000000 m /i glyphshow
20.869141 0.000000 m /t glyphshow
24.790039 0.000000 m /space glyphshow
27.968750 0.000000 m /o glyphshow
34.086914 0.000000 m /n glyphshow
40.424805 0.000000 m /space glyphshow
43.603516 0.000000 m /n glyphshow
49.941406 0.000000 m /u glyphshow
56.279297 0.000000 m /m glyphshow
66.020508 0.000000 m /b glyphshow
72.368164 0.000000 m /e glyphshow
78.520508 0.000000 m /r glyphshow
82.631836 0.000000 m /space glyphshow
85.810547 0.000000 m /o glyphshow
91.928711 0.000000 m /f glyphshow
95.449219 0.000000 m /space glyphshow
98.627930 0.000000 m /c glyphshow
104.125977 0.000000 m /o glyphshow
110.244141 0.000000 m /n glyphshow
116.582031 0.000000 m /f glyphshow
120.102539 0.000000 m /l glyphshow
122.880859 0.000000 m /i glyphshow
125.659180 0.000000 m /c glyphshow
131.157227 0.000000 m /t glyphshow
135.078125 0.000000 m /s glyphshow
grestore
0.800 setlinewidth
gsave
/o {
gsave
newpath
translate
0.8 setlinewidth
1 setlinejoin
0 setlinecap
0 0 m
-3.5 0 l

gsave
0.000 setgray
fill
grestore
stroke
grestore
} bind def
57.6 38.016 o
grestore
gsave
44.240625 34.219125 translate
0.000000 rotate
0.000000 0.000000 m /zero glyphshow
grestore
gsave
/o {
gsave
newpath
translate
0.8 setlinewidth
1 setlinejoin
0 setlinecap
0 0 m
-3.5 0 l

gsave
0.000 setgray
fill
grestore
stroke
grestore
} bind def
57.6 69.504 o
grestore
gsave
31.521875 65.707125 translate
0.000000 rotate
0.000000 0.000000 m /two glyphshow
6.362305 0.000000 m /zero glyphshow
12.724609 0.000000 m /zero glyphshow
grestore
gsave
/o {
gsave
newpath
translate
0.8 setlinewidth
1 setlinejoin
0 setlinecap
0 0 m
-3.5 0 l

gsave
0.000 setgray
fill
grestore
stroke
grestore
} bind def
57.6 100.992 o
grestore
gsave
31.521875 97.195125 translate
0.000000 rotate
0.000000 0.000000 m /four glyphshow
6.362305 0.000000 m /zero glyphshow
12.724609 0.000000 m /zero glyphshow
grestore
gsave
/o {
gsave
newpath
translate
0.8 setlinewidth
1 setlinejoin
0 setlinecap
0 0 m
-3.5 0 l

gsave
0.000 setgray
fill
grestore
stroke
grestore
} bind def
57.6 132.48 o
grestore
gsave
31.521875 128.683125 translate
0.000000 rotate
0.000000 0.000000 m /six glyphshow
6.362305 0.000000 m /zero glyphshow
12.724609 0.000000 m /zero glyphshow
grestore
gsave
/o {
gsave
newpath
translate
0.8 setlinewidth
1 setlinejoin
0 setlinecap
0 0 m
-3.5 0 l

gsave
0.000 setgray
fill
grestore
stroke
grestore
} bind def
57.6 163.968 o
grestore
gsave
31.521875 160.171125 translate
0.000000 rotate
0.000000 0.000000 m /eight glyphshow
6.362305 0.000000 m /zero glyphshow
12.724609 0.000000 m /zero glyphshow
grestore
gsave
/o {
gsave
newpath
translate
0.8 setlinewidth
1 setlinejoin
0 setlinecap
0 0 m
-3.5 0 l

gsave
0.000 setgray
fill
grestore
stroke
grestore
} bind def
57.6 195.456 o
grestore
gsave
25.162500 191.659125 translate
0.000000 rotate
0.000000 0.000000 m /one glyphshow
6.362305 0.000000 m /zero glyphshow
12.724609 0.000000 m /zero glyphshow
19.086914 0.000000 m /zero glyphshow
grestore
gsave
/o {
gsave
newpath
translate
0.8 setlinewidth
1 setlinejoin
0 setlinecap
0 0 m
-3.5 0 l

gsave
0.000 setgray
fill
grestore
stroke
grestore
} bind def
57.6 226.944 o
grestore
gsave
25.162500 223.147125 translate
0.000000 rotate
0.000000 0.000000 m /one glyphshow
6.362305 0.000000 m /two glyphshow
12.724609 0.000000 m /zero glyphshow
19.086914 0.000000 m /zero glyphshow
grestore
gsave
/o {
gsave
newpath
translate
0.8 setlinewidth
1 setlinejoin
0 setlinecap
0 0 m
-3.5 0 l

gsave
0.000 setgray
fill
grestore
stroke
grestore
} bind def
57.6 258.432 o
grestore
gsave
25.162500 254.635125 translate
0.000000 rotate
0.000000 0.000000 m /one glyphshow
6.362305 0.000000 m /four glyphshow
12.724609 0.000000 m /zero glyphshow
19.086914 0.000000 m /zero glyphshow
grestore
gsave
/o {
gsave
newpath
translate
0.8 setlinewidth
1 setlinejoin
0 setlinecap
0 0 m
-3.5 0 l

gsave
0.000 setgray
fill
grestore
stroke
grestore
} bind def
57.6 289.92 o
grestore
gsave
25.162500 286.123125 translate
0.000000 rotate
0.000000 0.000000 m /one glyphshow
6.362305 0.000000 m /six glyphshow
12.724609 0.000000 m /zero glyphshow
19.086914 0.000000 m /zero glyphshow
grestore
gsave
/o {
gsave
newpath
translate
0.8 setlinewidth
1 setlinejoin
0 setlinecap
0 0 m
-3.5 0 l

gsave
0.000 setgray
fill
grestore
stroke
grestore
} bind def
57.6 321.408 o
grestore
gsave
25.162500 317.611125 translate
0.000000 rotate
0.000000 0.000000 m /one glyphshow
6.362305 0.000000 m /eight glyphshow
12.724609 0.000000 m /zero glyphshow
19.086914 0.000000 m /zero glyphshow
grestore
gsave
19.084375 109.938562 translate
90.000000 rotate
0.000000 0.000000 m /N glyphshow
7.480469 0.000000 m /u glyphshow
13.818359 0.000000 m /m glyphshow
23.559570 0.000000 m /b glyphshow
29.907227 0.000000 m /e glyphshow
36.059570 0.000000 m /r glyphshow
40.170898 0.000000 m /space glyphshow
43.349609 0.000000 m /o glyphshow
49.467773 0.000000 m /f glyphshow
52.988281 0.000000 m /space glyphshow
56.166992 0.000000 m /s glyphshow
61.376953 0.000000 m /o glyphshow
67.495117 0.000000 m /l glyphshow
70.273438 0.000000 m /v glyphshow
76.191406 0.000000 m /e glyphshow
82.343750 0.000000 m /d glyphshow
88.691406 0.000000 m /space glyphshow
91.870117 0.000000 m /i glyphshow
94.648438 0.000000 m /n glyphshow
100.986328 0.000000 m /s glyphshow
106.196289 0.000000 m /t glyphshow
110.117188 0.000000 m /a glyphshow
116.245117 0.000000 m /n glyphshow
122.583008 0.000000 m /c glyphshow
128.081055 0.000000 m /e glyphshow
134.233398 0.000000 m /s glyphshow
grestore
1.500 setlinewidth
2 setlinecap
0.122 0.467 0.706 setrgbcolor
gsave
398.6 283.4 57.6 38.02 clipbox
-1 61.946728 m
57.6 61.94688 l
57.6 62.4192 l
75.872426 62.57664 l
75.872426 62.89152 l
86.561111 63.04896 l
86.561111 63.36384 l
94.144853 63.52128 l
94.144853 63.83616 l
100.02726 63.9936 l
100.02726 64.46592 l
104.833537 64.62336 l
104.833537 65.41056 l
108.897186 65.568 l
108.897186 69.504 l
112.417279 69.66144 l
112.417279 70.60608 l
115.522222 70.76352 l
115.522222 71.8656 l
118.299687 72.02304 l
118.299687 72.6528 l
120.81221 72.81024 l
120.81221 73.28256 l
123.105964 73.44 l
123.105964 74.2272 l
125.216013 74.38464 l
125.216013 75.17184 l
127.169613 75.32928 l
127.169613 76.74624 l
128.988371 76.90368 l
128.988371 77.84832 l
130.689706 78.00576 l
130.689706 79.10784 l
132.287864 79.26528 l
132.287864 80.20992 l
133.794648 80.36736 l
133.794648 81.15456 l
135.219943 81.312 l
135.219943 81.94176 l
136.572113 82.0992 l
136.572113 83.35872 l
137.858297 83.51616 l
137.858297 84.14592 l
139.084636 84.30336 l
139.084636 85.09056 l
140.256453 85.248 l
140.256453 85.72032 l
141.37839 85.87776 l
141.37839 86.8224 l
142.454521 86.97984 l
142.454521 87.92448 l
143.488439 88.08192 l
143.488439 88.86912 l
144.483332 89.02656 l
144.483332 89.65632 l
145.442039 89.81376 l
145.442039 90.44352 l
146.367101 90.60096 l
146.367101 90.7584 l
147.260798 90.91584 l
147.260798 91.38816 l
148.125188 91.5456 l
148.125188 91.86048 l
148.962132 92.01792 l
148.962132 92.64768 l
149.773321 92.80512 l
149.773321 93.74976 l
150.560291 93.9072 l
150.560291 94.22208 l
151.324447 94.37952 l
151.324447 94.6944 l
152.067074 94.85184 l
152.067074 95.00928 l
153.49237 95.32416 l
153.49237 95.63904 l
154.177123 95.79648 l
154.177123 96.2688 l
154.84454 96.42624 l
154.84454 96.89856 l
155.495475 97.056 l
155.495475 97.21344 l
156.130724 97.37088 l
156.130724 97.8432 l
157.357063 98.15808 l
157.357063 98.6304 l
157.949482 98.78784 l
157.949482 99.73248 l
158.52888 99.88992 l
158.52888 100.2048 l
159.095816 100.36224 l
159.095816 100.67712 l
159.650817 100.83456 l
159.650817 101.30688 l
160.194373 101.46432 l
160.194373 101.62176 l
160.726947 101.7792 l
162.263005 102.09408 l
163.23947 102.40896 l
163.23947 102.5664 l
163.714466 102.72384 l
163.714466 102.88128 l
164.639527 103.03872 l
164.639527 103.19616 l
165.090163 103.3536 l
165.090163 103.51104 l
165.533224 103.66848 l
165.533224 103.82592 l
166.397614 104.1408 l
167.234559 104.29824 l
167.234559 104.77056 l
168.045747 104.928 l
168.045747 105.08544 l
168.442169 105.24288 l
168.442169 105.40032 l
168.832717 105.55776 l
168.832717 105.87264 l
169.596873 106.18752 l
169.596873 106.65984 l
169.970802 106.81728 l
171.764796 107.13216 l
171.764796 107.2896 l
172.44955 107.44704 l
172.44955 107.60448 l
174.087439 108.0768 l
174.087439 108.23424 l
175.02345 108.70656 l
175.02345 108.864 l
175.328211 109.02144 l
175.328211 109.33632 l
175.629489 109.49376 l
175.629489 109.80864 l
175.927363 109.96608 l
177.368243 110.4384 l
177.368243 110.59584 l
177.647204 110.75328 l
177.647204 110.91072 l
177.923243 111.06816 l
177.923243 111.54048 l
178.196422 111.69792 l
178.196422 112.17024 l
178.466799 112.32768 l
178.466799 112.48512 l
179.521401 112.8 l
179.521401 113.11488 l
180.033292 113.42976 l
180.033292 113.5872 l
180.285558 113.74464 l
180.285558 114.05952 l
180.535432 114.21696 l
181.511897 114.3744 l
181.511897 114.53184 l
181.986892 114.68928 l
181.986892 114.84672 l
182.221219 115.00416 l
182.221219 115.1616 l
182.45348 115.31904 l
182.45348 115.63392 l
182.911953 115.9488 l
182.911953 116.10624 l
183.138234 116.26368 l
183.138234 116.42112 l
183.362589 116.57856 l
183.362589 116.736 l
183.805651 117.05088 l
183.805651 117.20832 l
184.241388 117.5232 l
184.241388 117.99552 l
184.670041 118.3104 l
185.091834 118.46784 l
185.091834 118.78272 l
185.506985 118.94016 l
185.506985 119.0976 l
185.9157 119.25504 l
185.9157 119.56992 l
186.117705 119.72736 l
186.117705 119.8848 l
186.318174 120.04224 l
186.318174 120.19968 l
186.714595 120.35712 l
186.714595 120.82944 l
186.910593 120.98688 l
186.910593 121.14432 l
187.48999 121.30176 l
187.48999 121.4592 l
187.8693 121.61664 l
187.8693 121.77408 l
188.056927 121.93152 l
188.056927 122.2464 l
188.975541 122.56128 l
188.975541 122.71872 l
189.334207 122.87616 l
190.037223 123.0336 l
190.037223 123.19104 l
190.210086 123.34848 l
190.210086 123.50592 l
191.057797 123.8208 l
191.057797 124.29312 l
192.518194 125.08032 l
192.518194 125.23776 l
192.987551 125.3952 l
192.987551 125.55264 l
193.448698 125.86752 l
194.494335 126.1824 l
195.216614 126.33984 l
195.216614 126.49728 l
195.358725 126.65472 l
197.664287 127.59936 l
197.664287 127.91424 l
198.305719 128.38656 l
198.305719 128.544 l
198.931913 129.3312 l
199.422374 129.64608 l
199.422374 129.80352 l
199.784323 130.43328 l
199.784323 130.59072 l
200.022891 130.74816 l
200.022891 130.9056 l
200.376742 131.22048 l
200.841275 131.53536 l
200.841275 131.85024 l
201.070507 132.32256 l
201.070507 132.63744 l
201.523077 133.42464 l
202.187689 133.58208 l
202.187689 133.89696 l
202.729012 134.36928 l
202.942467 134.8416 l
203.04855 135.31392 l
203.154208 135.47136 l
203.882186 135.78624 l
203.882186 135.94368 l
204.888474 136.10112 l
205.37757 136.57344 l
206.141726 137.83296 l
206.608314 137.9904 l
206.700649 138.14784 l
207.338092 138.30528 l
207.517423 138.62016 l
207.872466 138.7776 l
207.872466 138.93504 l
208.7397 139.5648 l
208.7397 139.72224 l
208.909775 139.87968 l
208.994403 140.19456 l
209.246668 140.82432 l
209.57931 140.98176 l
209.57931 141.29664 l
209.989296 141.76896 l
209.989296 141.9264 l
210.232261 142.08384 l
211.026343 142.39872 l
211.026343 142.7136 l
211.644824 143.34336 l
211.721124 143.65824 l
211.873064 143.97312 l
211.948707 144.288 l
212.3237 144.44544 l
212.398062 144.76032 l
212.472216 144.91776 l
213.48904 145.39008 l
213.560192 145.70496 l
214.122593 146.01984 l
214.192056 146.33472 l
214.468096 146.80704 l
214.741275 147.27936 l
215.011652 147.4368 l
215.011652 147.75168 l
215.544227 148.224 l
216.130787 148.38144 l
216.130787 148.53888 l
216.25938 148.69632 l
216.578145 148.85376 l
216.76757 149.16864 l
216.955644 149.32608 l
217.018038 149.7984 l
217.204339 150.27072 l
218.531745 151.21536 l
218.998333 152.00256 l
219.05608 152.47488 l
219.05608 152.63232 l
219.285812 153.10464 l
219.513559 153.57696 l
219.683087 153.7344 l
219.683087 153.89184 l
220.295526 154.20672 l
220.67798 155.15136 l
221.001439 155.46624 l
221.267988 156.096 l
221.793136 156.56832 l
221.793136 156.72576 l
222.000301 156.8832 l
222.051838 157.19808 l
222.409808 157.35552 l
222.511199 157.6704 l
222.863027 157.98528 l
222.863027 158.14272 l
223.308584 158.4576 l
223.552901 158.61504 l
223.552901 158.77248 l
224.508133 159.87456 l
224.788081 160.66176 l
225.110974 160.97664 l
225.429959 161.13408 l
225.475215 161.6064 l
225.655466 161.76384 l
225.745131 162.55104 l
226.056579 162.70848 l
226.408071 164.28288 l
226.840947 164.59776 l
227.351186 164.91264 l
228.139395 166.01472 l
228.302372 166.3296 l
229.220429 167.58912 l
229.687018 167.74656 l
229.802386 168.06144 l
230.221134 168.37632 l
230.29656 168.84864 l
230.409297 169.16352 l
230.596126 169.4784 l
231.075776 170.2656 l
231.510914 170.58048 l
231.903578 171.0528 l
232.185522 171.21024 l
232.220554 171.36768 l
232.568337 171.52512 l
232.671783 171.84 l
232.809083 172.15488 l
233.115418 173.09952 l
233.216744 173.57184 l
233.284079 173.72928 l
233.684515 174.04416 l
233.882475 174.51648 l
234.14413 174.9888 l
234.20914 175.46112 l
234.787126 176.09088 l
234.787126 176.24832 l
234.977006 176.40576 l
235.692466 176.72064 l
235.875958 177.19296 l
236.058181 177.50784 l
236.209078 178.76736 l
236.299203 179.39712 l
236.62705 181.60128 l
236.71576 182.38848 l
236.892288 183.49056 l
237.500993 184.12032 l
237.529631 184.27776 l
237.700811 184.4352 l
237.785985 184.75008 l
238.151928 185.06496 l
238.207779 185.37984 l
238.430006 185.69472 l
238.62293 186.0096 l
238.732542 186.48192 l
239.22023 186.95424 l
239.699061 187.584 l
240.298508 187.74144 l
240.324265 188.05632 l
240.985244 188.68608 l
241.035409 188.84352 l
241.556454 189.00096 l
241.995011 189.78816 l
241.995011 189.9456 l
242.354983 190.26048 l
242.40261 190.57536 l
243.474934 191.52 l
243.520581 191.83488 l
243.860443 192.14976 l
243.882945 192.3072 l
244.218196 192.77952 l
244.329005 192.93696 l
244.789385 193.0944 l
245.623613 194.82624 l
245.707701 194.98368 l
246.062112 195.29856 l
246.206672 195.77088 l
246.5138 196.08576 l
246.5138 196.2432 l
246.716582 196.40064 l
246.736775 196.55808 l
247.335473 197.18784 l
247.335473 197.50272 l
247.746616 197.97504 l
247.766035 198.13248 l
248.170568 198.44736 l
248.285018 198.91968 l
248.304044 199.23456 l
248.58781 199.392 l
248.662967 199.86432 l
249.035575 200.49408 l
249.693277 200.65152 l
249.891012 200.9664 l
249.980404 201.28128 l
249.998246 201.59616 l
250.650051 201.91104 l
251.012949 202.22592 l
251.16696 202.69824 l
251.47231 203.01312 l
256.522016 208.99584 l
256.522016 209.15328 l
256.647051 209.46816 l
256.660907 209.6256 l
257.073244 209.94048 l
257.371578 210.4128 l
257.371578 210.57024 l
258.089848 211.67232 l
258.142283 212.14464 l
258.337989 212.30208 l
258.94196 212.61696 l
259.792003 213.24672 l
260.994288 214.82112 l
261.181665 214.97856 l
262.042667 215.45088 l
263.407258 215.76576 l
263.588952 216.23808 l
264.220396 216.55296 l
264.540811 216.7104 l
264.540811 216.86784 l
265.049541 217.34016 l
265.079754 217.4976 l
265.696543 218.2848 l
266.135343 219.072 l
266.193302 219.22944 l
266.784863 219.54432 l
267.711877 220.48896 l
268.163439 220.80384 l
268.404103 221.59104 l
269.182199 222.37824 l
269.293955 222.69312 l
269.353936 223.008 l
269.744736 223.16544 l
269.803701 223.63776 l
270.377977 223.95264 l
270.71338 224.89728 l
270.737755 225.05472 l
271.26042 225.3696 l
271.419177 225.68448 l
271.466618 225.84192 l
272.382689 226.1568 l
272.603034 226.31424 l
272.603034 226.47168 l
272.859047 226.78656 l
272.881517 226.944 l
273.363731 227.25888 l
273.554174 227.88864 l
273.801156 228.20352 l
273.923785 228.36096 l
274.252772 228.5184 l
274.380397 228.83328 l
275.009414 228.99072 l
275.064606 229.14816 l
276.045457 229.77792 l
276.158099 230.0928 l
276.512744 230.40768 l
277.296836 231.50976 l
277.353765 231.6672 l
277.804829 231.82464 l
277.81104 231.98208 l
277.953485 232.13952 l
278.382337 232.29696 l
278.388413 232.4544 l
278.816281 232.76928 l
279.413216 233.55648 l
280.019787 233.71392 l
280.967682 234.816 l
281.856053 235.13088 l
281.951758 235.44576 l
282.221052 235.6032 l
282.346833 235.91808 l
283.462669 236.54784 l
283.756714 237.02016 l
284.072011 237.33504 l
284.653219 237.49248 l
284.667586 237.64992 l
286.985268 237.80736 l
287.094661 238.12224 l
287.771464 238.27968 l
287.856447 238.43712 l
288.924771 238.59456 l
288.997997 238.752 l
289.667851 238.90944 l
291.078968 240.3264 l
292.185414 240.79872 l
292.192613 240.95616 l
292.475399 241.1136 l
293.460796 241.42848 l
293.573738 241.9008 l
294.798214 242.37312 l
295.269949 242.53056 l
295.423215 242.84544 l
296.401358 243.00288 l
296.508513 243.16032 l
297.796442 243.31776 l
298.3179 243.79008 l
298.409027 243.94752 l
299.454096 244.2624 l
299.994976 244.41984 l
300.192321 244.73472 l
300.511859 244.89216 l
301.134418 245.0496 l
301.264838 245.36448 l
302.694698 245.8368 l
302.745391 245.99424 l
303.393326 246.30912 l
303.834348 246.624 l
304.293141 247.09632 l
305.675312 247.25376 l
305.894509 247.72608 l
307.52915 248.04096 l
307.681575 248.35584 l
307.681575 248.51328 l
309.155453 248.67072 l
309.338251 248.82816 l
310.308023 249.14304 l
310.398376 249.30048 l
310.815388 249.45792 l
310.90933 249.61536 l
311.464331 249.93024 l
311.856408 250.24512 l
311.888819 250.40256 l
312.328386 250.56 l
312.410412 250.71744 l
313.689273 251.3472 l
313.692457 251.50464 l
315.004556 251.66208 l
315.437239 251.97696 l
315.504209 252.1344 l
315.78658 252.29184 l
316.568922 252.44928 l
316.702767 252.60672 l
317.647166 252.9216 l
317.742911 253.07904 l
318.034832 253.23648 l
319.051971 253.39392 l
319.400434 253.7088 l
320.304045 253.86624 l
320.347371 254.02368 l
320.870296 254.33856 l
321.140525 254.65344 l
321.205257 254.81088 l
322.477868 254.96832 l
322.733317 255.12576 l
322.888776 255.59808 l
323.075686 255.75552 l
324.783503 256.0704 l
324.787684 256.22784 l
325.695765 256.54272 l
325.698794 256.70016 l
326.408027 256.8576 l
326.409009 257.01504 l
329.192371 257.6448 l
329.497457 257.95968 l
329.667366 258.27456 l
330.029647 258.432 l
331.150013 258.58944 l
331.626797 259.2192 l
332.229428 259.53408 l
332.267229 259.69152 l
332.454644 259.84896 l
333.836022 260.16384 l
333.866406 260.32128 l
334.608354 260.47872 l
334.917609 260.7936 l
335.126019 261.10848 l
335.465566 261.26592 l
335.505268 261.42336 l
335.86335 261.5808 l
336.62268 261.73824 l
336.937668 262.368 l
337.029793 262.68288 l
337.541115 262.99776 l
338.16191 263.47008 l
338.329393 263.78496 l
338.815117 263.9424 l
338.876433 264.09984 l
339.42615 264.41472 l
340.842541 265.35936 l
341.703704 265.5168 l
341.94358 265.67424 l
342.789604 265.83168 l
342.986849 265.98912 l
344.305801 266.14656 l
344.343158 266.304 l
344.869948 266.61888 l
346.777193 267.0912 l
346.840202 267.24864 l
347.210215 267.40608 l
347.294014 267.56352 l
349.722454 267.8784 l
349.736249 268.03584 l
350.448999 268.19328 l
350.625687 268.35072 l
351.052454 268.50816 l
351.065571 268.6656 l
352.055378 268.98048 l
353.593308 269.13792 l
353.737295 269.29536 l
355.035493 269.4528 l
355.329795 269.61024 l
358.094166 270.24 l
358.135789 270.39744 l
358.530732 270.55488 l
358.560355 270.71232 l
359.342492 271.0272 l
359.542355 271.65696 l
359.665391 271.8144 l
360.566129 271.97184 l
360.800186 272.28672 l
363.103314 272.91648 l
365.307049 273.3888 l
365.378188 273.70368 l
365.480632 273.86112 l
365.80589 274.01856 l
367.027829 274.33344 l
367.329659 274.49088 l
368.50496 274.80576 l
368.862399 274.9632 l
370.628112 275.27808 l
370.674166 275.43552 l
372.503982 276.06528 l
373.430229 276.5376 l
374.625935 277.16736 l
377.132073 277.48224 l
377.507061 278.112 l
377.745759 278.26944 l
378.193759 278.42688 l
378.233148 278.58432 l
378.481345 278.74176 l
380.561342 279.21408 l
380.696808 279.37152 l
381.222112 279.52896 l
381.224323 279.6864 l
382.33118 279.84384 l
383.003114 280.31616 l
383.491352 280.4736 l
386.308369 280.94592 l
386.715809 281.10336 l
386.978746 281.41824 l
387.71849 281.57568 l
387.80047 281.73312 l
390.329767 282.36288 l
392.051229 282.67776 l
392.430213 282.99264 l
392.772451 283.15008 l
392.876734 283.46496 l
397.417791 283.93728 l
398.818582 284.09472 l
402.853465 284.25216 l
403.66457 285.03936 l
405.948772 285.1968 l
406.456192 285.35424 l
408.674155 285.66912 l
408.877464 285.82656 l
410.954027 285.984 l
412.51818 286.45632 l
413.824095 286.61376 l
413.87787 286.7712 l
414.36313 286.92864 l
415.728244 287.08608 l
419.171888 287.24352 l
419.819742 287.40096 l
422.286918 287.71584 l
422.754183 287.87328 l
424.533366 288.03072 l
424.899197 288.18816 l
428.019875 288.50304 l
428.357684 288.66048 l
429.205104 288.81792 l
434.603797 289.29024 l
442.234335 289.60512 l
456.192 289.92 l
456.192 289.92 l
stroke
grestore
0 setlinecap
[9.6 2.4 1.5 2.4] 0 setdash
1.000 0.498 0.055 setrgbcolor
gsave
398.6 283.4 57.6 38.02 clipbox
-1 61.946728 m
57.6 61.94688 l
57.6 62.4192 l
75.872426 62.57664 l
75.872426 62.89152 l
86.561111 63.04896 l
86.561111 63.36384 l
94.144853 63.52128 l
94.144853 63.83616 l
100.02726 63.9936 l
100.02726 64.46592 l
104.833537 64.62336 l
104.833537 65.41056 l
108.897186 65.568 l
108.897186 69.504 l
112.417279 69.66144 l
112.417279 70.60608 l
115.522222 70.76352 l
115.522222 71.8656 l
118.299687 72.02304 l
118.299687 72.6528 l
120.81221 72.81024 l
120.81221 73.28256 l
123.105964 73.44 l
123.105964 74.2272 l
125.216013 74.38464 l
125.216013 75.17184 l
127.169613 75.32928 l
127.169613 76.74624 l
128.988371 76.90368 l
128.988371 77.84832 l
130.689706 78.00576 l
130.689706 79.10784 l
132.287864 79.26528 l
132.287864 80.20992 l
133.794648 80.36736 l
133.794648 81.15456 l
135.219943 81.312 l
135.219943 81.94176 l
136.572113 82.0992 l
136.572113 83.35872 l
137.858297 83.51616 l
137.858297 84.14592 l
139.084636 84.30336 l
139.084636 85.09056 l
140.256453 85.248 l
140.256453 85.72032 l
141.37839 85.87776 l
141.37839 86.8224 l
142.454521 86.97984 l
142.454521 87.92448 l
143.488439 88.08192 l
143.488439 88.86912 l
144.483332 89.02656 l
144.483332 89.65632 l
145.442039 89.81376 l
145.442039 90.44352 l
146.367101 90.60096 l
146.367101 90.7584 l
147.260798 90.91584 l
147.260798 91.38816 l
148.125188 91.5456 l
148.125188 91.86048 l
148.962132 92.01792 l
148.962132 92.64768 l
149.773321 92.80512 l
149.773321 93.74976 l
150.560291 93.9072 l
150.560291 94.37952 l
151.324447 94.53696 l
151.324447 94.85184 l
152.067074 95.00928 l
152.067074 95.16672 l
153.49237 95.4816 l
153.49237 95.79648 l
154.177123 95.95392 l
154.177123 96.2688 l
154.84454 96.42624 l
154.84454 96.89856 l
155.495475 97.056 l
155.495475 97.21344 l
156.130724 97.37088 l
156.130724 97.8432 l
157.357063 98.15808 l
157.357063 98.47296 l
157.949482 98.6304 l
157.949482 99.57504 l
158.52888 99.73248 l
158.52888 100.04736 l
159.095816 100.2048 l
159.095816 100.51968 l
159.650817 100.67712 l
159.650817 100.992 l
160.194373 101.14944 l
160.194373 101.30688 l
160.726947 101.46432 l
160.726947 101.62176 l
163.23947 102.09408 l
163.23947 102.25152 l
163.714466 102.40896 l
163.714466 102.5664 l
164.639527 102.72384 l
164.639527 102.88128 l
165.090163 103.03872 l
165.090163 103.3536 l
166.397614 103.82592 l
167.234559 103.98336 l
167.234559 104.29824 l
168.442169 104.61312 l
168.442169 104.77056 l
168.832717 104.928 l
168.832717 105.24288 l
169.596873 105.40032 l
169.596873 105.87264 l
169.970802 106.03008 l
169.970802 106.18752 l
171.764796 106.5024 l
172.44955 106.81728 l
172.44955 106.97472 l
172.78537 107.13216 l
173.767902 107.44704 l
173.767902 107.60448 l
174.087439 107.76192 l
174.087439 107.91936 l
174.715125 108.23424 l
174.715125 108.39168 l
175.02345 108.54912 l
175.02345 108.70656 l
175.328211 108.864 l
175.328211 109.17888 l
176.801306 109.96608 l
176.801306 110.12352 l
177.368243 110.28096 l
177.368243 110.4384 l
177.923243 110.75328 l
177.923243 111.2256 l
178.196422 111.38304 l
178.196422 111.54048 l
178.466799 111.69792 l
178.466799 112.0128 l
178.734431 112.17024 l
180.033292 112.64256 l
180.033292 112.95744 l
180.535432 113.27232 l
181.511897 113.5872 l
181.750464 113.74464 l
181.750464 113.90208 l
181.986892 114.05952 l
181.986892 114.21696 l
182.221219 114.3744 l
182.221219 114.53184 l
182.45348 114.68928 l
182.45348 115.00416 l
182.911953 115.31904 l
182.911953 115.47648 l
183.138234 115.63392 l
183.138234 115.79136 l
183.362589 115.9488 l
183.362589 116.42112 l
183.805651 116.736 l
183.805651 116.89344 l
184.241388 117.05088 l
184.241388 117.36576 l
185.091834 117.99552 l
185.091834 118.15296 l
186.117705 118.62528 l
186.117705 118.78272 l
186.318174 118.94016 l
186.318174 119.0976 l
186.714595 119.25504 l
186.714595 119.8848 l
187.105144 120.19968 l
187.8693 120.51456 l
187.8693 120.672 l
188.056927 120.82944 l
188.611927 121.14432 l
188.794361 121.30176 l
188.794361 121.4592 l
189.863218 121.61664 l
190.210086 121.93152 l
191.057797 122.2464 l
191.224116 122.40384 l
191.55364 122.56128 l
191.55364 122.71872 l
192.200581 123.19104 l
193.142165 123.66336 l
194.640383 123.8208 l
195.216614 124.45056 l
195.780519 124.608 l
197.139662 124.76544 l
198.305719 125.55264 l
198.305719 125.71008 l
198.432153 125.86752 l
198.931913 126.1824 l
198.931913 126.49728 l
199.055386 126.65472 l
199.543577 126.81216 l
200.022891 127.59936 l
200.022891 127.7568 l
200.610032 127.91424 l
201.297763 129.01632 l
201.297763 129.17376 l
201.635016 129.80352 l
202.187689 129.96096 l
202.187689 130.1184 l
202.513815 130.43328 l
202.621633 130.59072 l
203.04855 130.74816 l
203.154208 131.37792 l
203.676235 131.53536 l
203.779412 132.00768 l
203.882186 132.32256 l
204.390131 132.63744 l
204.490556 132.95232 l
205.37757 133.2672 l
205.762417 133.89696 l
206.141726 134.21184 l
206.329354 134.36928 l
206.422669 134.68416 l
206.792661 135.15648 l
207.338092 135.31392 l
207.42791 135.6288 l
208.135645 135.78624 l
208.568521 136.416 l
208.909775 136.57344 l
208.994403 137.04576 l
209.246668 137.36064 l
209.330223 137.67552 l
209.57931 137.83296 l
209.57931 137.9904 l
210.711575 138.62016 l
210.948003 138.93504 l
211.026343 139.24992 l
211.026343 139.40736 l
211.948707 140.352 l
211.948707 140.66688 l
212.472216 140.98176 l
212.472216 141.1392 l
212.766761 141.45408 l
212.839886 141.61152 l
213.48904 142.08384 l
213.631151 142.24128 l
214.261338 142.55616 l
215.011652 143.5008 l
215.078815 143.81568 l
215.145808 143.97312 l
216.25938 144.288 l
216.955644 144.44544 l
217.204339 144.76032 l
217.694801 145.0752 l
217.996769 145.70496 l
219.513559 146.49216 l
219.513559 146.6496 l
220.129904 147.27936 l
220.129904 147.4368 l
220.67798 147.59424 l
221.001439 148.38144 l
221.161692 148.53888 l
221.161692 148.69632 l
221.74109 149.0112 l
222.000301 149.7984 l
222.460552 149.95584 l
222.511199 150.11328 l
222.863027 150.27072 l
222.863027 150.42816 l
223.698411 151.21536 l
224.130184 151.53024 l
224.741629 152.16 l
224.834452 152.47488 l
225.429959 152.63232 l
225.475215 153.26208 l
225.655466 153.41952 l
225.745131 153.89184 l
225.789849 154.04928 l
226.188938 154.5216 l
226.538682 154.99392 l
226.926676 155.3088 l
227.768969 156.096 l
227.768969 156.25344 l
229.102481 157.35552 l
229.454756 157.98528 l
229.454756 158.14272 l
230.145491 158.4576 l
230.596126 159.2448 l
231.366665 159.71712 l
231.903578 160.66176 l
232.25554 160.97664 l
233.115418 161.6064 l
233.216744 161.92128 l
233.384759 162.07872 l
234.111565 162.3936 l
234.14413 162.55104 l
234.882237 162.70848 l
235.538575 163.65312 l
236.027898 163.968 l
236.148823 165.07008 l
236.239154 165.85728 l
236.686223 168.6912 l
236.745263 169.16352 l
236.862949 169.4784 l
236.862949 169.63584 l
237.067643 169.95072 l
237.500993 170.42304 l
237.842616 170.58048 l
238.123958 171.52512 l
239.166486 171.84 l
239.407477 172.31232 l
239.909114 172.94208 l
240.24692 173.09952 l
240.24692 173.25696 l
240.478276 173.4144 l
240.934984 173.57184 l
241.035409 173.88672 l
241.531875 174.2016 l
241.654544 174.35904 l
242.30727 174.51648 l
242.378807 174.67392 l
243.268535 175.30368 l
243.360467 175.61856 l
244.084607 176.5632 l
244.897824 176.72064 l
246.473056 178.29504 l
246.635657 178.9248 l
246.79726 179.23968 l
247.492856 179.55456 l
247.512463 179.86944 l
247.90157 180.18432 l
248.304044 180.34176 l
248.361042 180.4992 l
249.384739 181.12896 l
249.693277 181.60128 l
249.891012 181.91616 l
250.211413 182.70336 l
250.211413 182.8608 l
250.615227 183.17568 l
251.012949 183.49056 l
251.132813 183.96288 l
251.47231 184.12032 l
252.383991 184.4352 l
252.432824 184.59264 l
253.107151 184.90752 l
253.671727 185.53728 l
254.421249 186.32448 l
254.84017 186.48192 l
255.600933 186.63936 l
255.873518 187.11168 l
256.242018 187.26912 l
256.480205 187.74144 l
256.660907 188.05632 l
257.812841 188.3712 l
258.272915 189.00096 l
259.432831 189.31584 l
259.656341 189.47328 l
260.591633 189.63072 l
261.006038 189.9456 l
261.017783 190.26048 l
263.535643 191.20512 l
263.822242 191.52 l
263.843348 191.67744 l
264.209995 191.83488 l
264.282717 192.14976 l
264.887813 192.62208 l
265.872941 194.35392 l
266.135343 194.6688 l
266.135343 194.82624 l
266.944773 195.456 l
267.675415 196.2432 l
267.811886 196.55808 l
268.510364 197.66016 l
268.528033 197.97504 l
269.043999 198.28992 l
269.311107 198.91968 l
269.66873 199.07712 l
270.163049 199.86432 l
270.615654 200.02176 l
270.680845 200.1792 l
271.37165 200.33664 l
271.37165 200.49408 l
271.944153 200.80896 l
272.382689 201.28128 l
272.595467 201.59616 l
274.647815 202.5408 l
275.112806 203.328 l
275.515592 203.64288 l
275.515592 203.80032 l
276.629906 204.74496 l
277.303167 205.05984 l
277.3664 205.53216 l
278.92366 206.31936 l
279.56472 207.89376 l
280.145128 208.0512 l
280.269876 208.20864 l
280.668493 208.52352 l
280.674065 208.68096 l
280.89044 208.99584 l
281.214437 209.15328 l
281.350532 209.6256 l
281.51832 209.94048 l
282.215798 210.09792 l
282.221052 210.4128 l
283.462669 210.57024 l
283.904979 211.2 l
284.072011 211.51488 l
284.667586 212.45952 l
285.819828 212.7744 l
286.156809 212.93184 l
286.165857 213.08928 l
286.41795 213.24672 l
286.923809 213.40416 l
286.985268 213.5616 l
287.570671 213.87648 l
289.050757 215.136 l
289.312982 215.45088 l
289.829736 215.9232 l
290.076565 216.23808 l
290.224336 216.39552 l
290.708471 216.7104 l
291.536729 217.4976 l
291.746196 217.65504 l
292.606808 217.96992 l
292.635134 218.12736 l
293.498497 218.59968 l
293.566907 218.75712 l
295.135107 219.54432 l
295.384982 220.01664 l
296.117599 220.33152 l
296.465703 220.6464 l
296.593924 221.11872 l
297.300065 221.4336 l
297.341542 221.74848 l
297.600771 222.06336 l
298.677722 222.37824 l
298.697413 222.53568 l
298.949276 222.69312 l
299.465023 222.85056 l
299.503232 223.008 l
299.960154 223.16544 l
300.277205 224.11008 l
300.511859 224.42496 l
300.702781 224.5824 l
301.259736 224.73984 l
301.26994 225.05472 l
302.093491 225.3696 l
302.292967 225.68448 l
302.580888 225.84192 l
303.470864 225.99936 l
304.413394 227.10144 l
305.449924 227.41632 l
306.505849 228.04608 l
306.747299 228.36096 l
306.990663 228.67584 l
307.52915 228.83328 l
307.531161 228.99072 l
309.387034 229.62048 l
309.394531 229.77792 l
309.948985 230.25024 l
310.597861 230.40768 l
310.621126 230.72256 l
310.815388 230.88 l
311.464331 231.19488 l
312.370268 231.6672 l
312.645034 232.29696 l
312.99555 232.4544 l
313.021693 232.61184 l
313.556782 232.76928 l
313.851185 233.2416 l
315.437239 234.0288 l
315.8424 234.65856 l
316.221185 234.816 l
316.257322 234.97344 l
316.422914 235.13088 l
318.034832 235.91808 l
318.071265 236.07552 l
320.070094 237.49248 l
320.735354 237.80736 l
320.798656 238.12224 l
321.670458 239.06688 l
322.60874 239.5392 l
322.787493 239.85408 l
322.888776 240.16896 l
323.042207 240.48384 l
323.144742 240.64128 l
323.407059 240.79872 l
324.530373 240.95616 l
324.571501 241.27104 l
325.096277 241.74336 l
325.890932 242.05824 l
326.065754 242.21568 l
328.722166 242.688 l
329.88447 243.16032 l
329.971329 243.31776 l
330.343879 243.4752 l
331.150013 243.63264 l
331.830009 244.57728 l
332.174994 244.73472 l
332.229428 244.89216 l
332.986828 245.52192 l
333.2315 245.8368 l
333.606647 246.15168 l
333.836022 246.46656 l
334.812783 246.624 l
335.712553 247.56864 l
336.076706 247.72608 l
337.000874 248.04096 l
337.00745 248.1984 l
337.775231 248.51328 l
337.834551 248.67072 l
338.815117 249.30048 l
339.257063 249.45792 l
339.267323 249.61536 l
340.02979 249.93024 l
340.0503 250.08768 l
340.564252 250.24512 l
340.621062 250.40256 l
340.9135 250.56 l
341.013086 250.87488 l
341.342536 251.03232 l
341.377094 251.18976 l
341.599518 251.3472 l
342.68433 251.81952 l
343.317004 252.29184 l
344.305801 252.60672 l
344.343158 252.76416 l
345.383547 253.23648 l
347.298464 253.86624 l
348.603605 254.02368 l
348.827931 254.65344 l
350.014676 254.96832 l
350.25601 255.2832 l
350.624902 255.44064 l
350.625687 255.59808 l
351.451905 256.0704 l
351.782033 256.54272 l
352.055378 256.70016 l
352.095469 256.8576 l
352.799647 257.01504 l
352.90777 257.17248 l
353.23661 257.32992 l
353.253655 257.48736 l
353.593308 257.80224 l
353.913758 258.27456 l
354.758328 258.432 l
354.844023 258.74688 l
355.329795 259.2192 l
356.934244 259.37664 l
357.335605 259.53408 l
357.382692 259.69152 l
357.573822 260.0064 l
357.938009 260.63616 l
358.560355 261.26592 l
359.054075 261.5808 l
359.132299 261.89568 l
359.445981 262.21056 l
359.861172 262.68288 l
360.504457 263.1552 l
360.800186 263.47008 l
361.586843 263.78496 l
363.021588 264.09984 l
363.699479 264.25728 l
363.793655 264.41472 l
364.773603 264.57216 l
365.378188 265.04448 l
365.480632 265.20192 l
365.96067 265.5168 l
369.44347 266.46144 l
369.556174 266.77632 l
370.149069 266.93376 l
370.193727 267.0912 l
370.816041 267.72096 l
371.233016 267.8784 l
371.260282 268.03584 l
371.727826 268.19328 l
372.281564 268.82304 l
372.645726 269.13792 l
372.753356 269.29536 l
373.179705 269.4528 l
373.222512 269.61024 l
373.75973 270.08256 l
375.506736 270.71232 l
375.575629 270.86976 l
377.053179 271.18464 l
377.472663 271.8144 l
377.69749 272.12928 l
377.893942 272.44416 l
378.233148 272.6016 l
378.238927 272.75904 l
378.70047 272.91648 l
378.735599 273.07392 l
379.604179 273.23136 l
379.605747 273.3888 l
380.904432 273.70368 l
381.435163 274.01856 l
381.457701 274.176 l
381.669348 274.33344 l
382.23582 274.49088 l
383.09437 275.7504 l
384.617305 276.06528 l
385.095577 276.22272 l
385.101835 276.38016 l
385.278352 276.5376 l
386.685966 276.85248 l
387.747859 277.16736 l
387.80047 277.3248 l
388.544634 277.79712 l
390.324026 277.95456 l
390.528538 278.112 l
390.554853 278.42688 l
390.70868 278.58432 l
391.416934 278.74176 l
391.555284 278.8992 l
392.051229 279.21408 l
392.086078 279.37152 l
393.396306 280.31616 l
394.203812 280.63104 l
395.339059 280.78848 l
395.355165 280.94592 l
395.49453 281.10336 l
396.041796 281.2608 l
397.256575 281.41824 l
397.589587 282.048 l
398.882418 282.67776 l
399.12009 282.99264 l
399.977568 283.15008 l
400.021685 283.30752 l
400.218404 283.46496 l
402.150372 283.93728 l
402.508866 284.4096 l
404.329776 284.88192 l
404.3875 285.03936 l
406.817759 285.1968 l
407.79007 285.51168 l
409.3511 285.82656 l
410.151626 285.984 l
413.044204 286.14144 l
413.463483 286.45632 l
416.747855 286.92864 l
418.061003 287.24352 l
420.845162 287.40096 l
421.024749 287.5584 l
423.859888 287.87328 l
424.533366 288.03072 l
424.621287 288.18816 l
424.965904 288.3456 l
429.482596 288.66048 l
433.192926 288.81792 l
433.243762 288.97536 l
434.603797 289.29024 l
434.737049 289.60512 l
436.19073 289.76256 l
442.589612 289.92 l
442.589612 289.92 l
stroke
grestore
[1.5 2.475] 0 setdash
0.173 0.627 0.173 setrgbcolor
gsave
398.6 283.4 57.6 38.02 clipbox
-1 61.946728 m
57.6 61.94688 l
57.6 62.4192 l
75.872426 62.57664 l
75.872426 62.89152 l
86.561111 63.04896 l
86.561111 63.36384 l
94.144853 63.52128 l
94.144853 63.83616 l
100.02726 63.9936 l
100.02726 64.46592 l
104.833537 64.62336 l
104.833537 65.41056 l
108.897186 65.568 l
108.897186 69.504 l
112.417279 69.66144 l
112.417279 70.60608 l
115.522222 70.76352 l
115.522222 71.8656 l
118.299687 72.02304 l
118.299687 72.6528 l
120.81221 72.81024 l
120.81221 73.28256 l
123.105964 73.44 l
123.105964 74.2272 l
125.216013 74.38464 l
125.216013 75.17184 l
127.169613 75.32928 l
127.169613 76.74624 l
128.988371 76.90368 l
128.988371 77.84832 l
130.689706 78.00576 l
130.689706 79.10784 l
132.287864 79.26528 l
132.287864 80.20992 l
133.794648 80.36736 l
133.794648 81.15456 l
135.219943 81.312 l
135.219943 81.94176 l
136.572113 82.0992 l
136.572113 83.35872 l
137.858297 83.51616 l
137.858297 84.14592 l
139.084636 84.30336 l
139.084636 85.09056 l
140.256453 85.248 l
140.256453 85.72032 l
141.37839 85.87776 l
141.37839 86.8224 l
142.454521 86.97984 l
142.454521 87.92448 l
143.488439 88.08192 l
143.488439 88.86912 l
144.483332 89.02656 l
144.483332 89.65632 l
145.442039 89.81376 l
145.442039 90.44352 l
146.367101 90.60096 l
146.367101 90.7584 l
147.260798 90.91584 l
147.260798 91.38816 l
148.125188 91.5456 l
148.125188 91.86048 l
148.962132 92.01792 l
148.962132 92.64768 l
149.773321 92.80512 l
149.773321 93.74976 l
150.560291 93.9072 l
150.560291 94.37952 l
151.324447 94.53696 l
151.324447 94.85184 l
152.067074 95.00928 l
152.067074 95.16672 l
153.49237 95.4816 l
153.49237 95.79648 l
154.177123 95.95392 l
154.177123 96.2688 l
154.84454 96.42624 l
154.84454 96.89856 l
155.495475 97.056 l
155.495475 97.21344 l
156.130724 97.37088 l
156.130724 97.8432 l
157.357063 98.15808 l
157.357063 98.78784 l
157.949482 98.94528 l
157.949482 99.73248 l
158.52888 99.88992 l
158.52888 100.2048 l
159.095816 100.36224 l
159.095816 100.67712 l
159.650817 100.83456 l
159.650817 101.30688 l
160.194373 101.46432 l
160.194373 101.62176 l
160.726947 101.7792 l
160.726947 101.93664 l
163.23947 102.40896 l
163.23947 102.5664 l
163.714466 102.72384 l
163.714466 102.88128 l
164.639527 103.03872 l
164.639527 103.19616 l
165.090163 103.3536 l
165.090163 103.66848 l
166.397614 104.1408 l
167.234559 104.29824 l
167.234559 104.61312 l
168.442169 104.928 l
168.442169 105.08544 l
168.832717 105.24288 l
168.832717 105.40032 l
169.596873 105.7152 l
169.596873 106.18752 l
169.970802 106.34496 l
171.06178 106.65984 l
171.415632 106.81728 l
171.415632 107.13216 l
171.764796 107.2896 l
171.764796 107.44704 l
172.44955 107.60448 l
172.44955 107.76192 l
172.78537 107.91936 l
174.087439 108.23424 l
175.02345 108.70656 l
175.02345 109.02144 l
175.328211 109.17888 l
175.328211 109.49376 l
175.927363 109.80864 l
177.368243 110.28096 l
177.368243 110.4384 l
177.923243 110.75328 l
177.923243 111.54048 l
178.196422 111.69792 l
178.196422 111.85536 l
178.466799 112.0128 l
178.466799 112.17024 l
179.521401 112.48512 l
179.521401 112.64256 l
180.033292 112.95744 l
180.033292 113.27232 l
180.285558 113.42976 l
180.285558 113.90208 l
181.511897 114.05952 l
181.511897 114.21696 l
181.986892 114.53184 l
181.986892 114.68928 l
182.221219 114.84672 l
182.221219 115.00416 l
182.45348 115.1616 l
182.45348 115.47648 l
182.911953 115.79136 l
182.911953 115.9488 l
183.138234 116.10624 l
183.138234 116.26368 l
183.362589 116.42112 l
183.362589 116.57856 l
183.805651 116.736 l
183.805651 116.89344 l
184.241388 117.05088 l
184.241388 117.36576 l
184.670041 117.68064 l
185.091834 117.83808 l
185.091834 117.99552 l
185.506985 118.15296 l
185.506985 118.3104 l
185.9157 118.46784 l
185.9157 118.62528 l
186.318174 118.94016 l
186.318174 119.25504 l
186.714595 119.56992 l
186.714595 120.19968 l
186.910593 120.35712 l
186.910593 120.672 l
187.48999 120.82944 l
187.48999 120.98688 l
187.8693 121.14432 l
187.8693 121.30176 l
188.056927 121.4592 l
188.056927 121.77408 l
189.511726 122.2464 l
189.863218 122.40384 l
189.863218 122.56128 l
190.210086 122.87616 l
191.057797 123.19104 l
191.057797 123.50592 l
191.55364 123.8208 l
191.55364 123.97824 l
191.716869 124.13568 l
191.716869 124.29312 l
192.200581 124.608 l
192.518194 124.76544 l
192.518194 124.92288 l
192.987551 125.08032 l
192.987551 125.23776 l
193.448698 125.71008 l
195.216614 126.1824 l
195.216614 126.33984 l
195.780519 126.49728 l
195.780519 126.81216 l
197.139662 126.9696 l
197.2718 127.12704 l
197.664287 127.28448 l
197.664287 127.44192 l
198.432153 128.544 l
198.931913 128.70144 l
198.931913 128.85888 l
199.543577 129.17376 l
199.784323 129.64608 l
199.784323 129.80352 l
200.022891 129.96096 l
200.022891 130.1184 l
200.14137 130.43328 l
200.841275 130.59072 l
201.070507 131.06304 l
201.070507 131.37792 l
201.297763 131.53536 l
201.297763 131.85024 l
202.513815 133.58208 l
202.942467 133.89696 l
203.04855 134.36928 l
203.154208 134.52672 l
203.676235 134.8416 l
203.882186 135.15648 l
204.5906 135.47136 l
204.789556 135.6288 l
205.280474 135.78624 l
205.37757 136.10112 l
205.37757 136.25856 l
205.570696 136.416 l
205.666731 136.88832 l
206.141726 137.67552 l
207.42791 138.14784 l
207.517423 138.30528 l
207.960484 138.46272 l
208.22279 138.93504 l
208.568521 139.09248 l
208.654249 139.40736 l
208.909775 139.72224 l
208.994403 140.19456 l
209.162848 140.352 l
209.246668 140.66688 l
209.57931 140.82432 l
209.57931 140.98176 l
209.989296 141.29664 l
210.232261 141.45408 l
211.026343 141.76896 l
211.104452 142.08384 l
211.182329 142.24128 l
211.414591 142.39872 l
211.414591 142.55616 l
211.644824 142.7136 l
211.644824 142.87104 l
212.398062 143.5008 l
212.472216 143.65824 l
212.693433 143.81568 l
212.693433 143.97312 l
212.839886 144.13056 l
213.48904 144.288 l
213.560192 144.76032 l
213.631151 144.91776 l
213.983113 145.0752 l
213.983113 145.23264 l
214.330438 145.54752 l
215.011652 146.49216 l
215.279284 146.80704 l
216.001563 146.96448 l
216.25938 147.27936 l
216.76757 147.59424 l
217.080285 147.90912 l
217.204339 148.224 l
218.05675 148.69632 l
218.295317 148.85376 l
218.354623 149.16864 l
218.998333 150.11328 l
219.05608 150.5856 l
219.342933 150.90048 l
219.513559 151.05792 l
219.513559 151.21536 l
220.018907 151.68768 l
221.161692 153.41952 l
221.214894 153.7344 l
221.320976 153.89184 l
221.793136 154.04928 l
221.793136 154.20672 l
222.000301 154.36416 l
222.000301 154.5216 l
222.460552 154.67904 l
222.612201 154.99392 l
222.863027 155.15136 l
222.863027 155.3088 l
223.1609 155.78112 l
223.698411 156.56832 l
225.110974 157.04064 l
225.15678 157.35552 l
225.429959 157.98528 l
225.475215 158.14272 l
225.655466 158.30016 l
225.655466 158.77248 l
225.967969 159.08736 l
226.056579 159.40224 l
226.056579 159.55968 l
226.36439 160.032 l
227.182201 160.18944 l
227.266829 160.66176 l
227.477218 161.76384 l
227.727487 161.92128 l
227.851737 162.3936 l
228.180234 162.70848 l
228.825197 163.02336 l
229.181172 163.1808 l
229.220429 163.33824 l
229.648449 163.81056 l
229.72553 164.12544 l
229.802386 164.44032 l
229.879018 164.59776 l
230.221134 164.91264 l
230.670489 166.48704 l
230.892326 166.80192 l
231.002549 167.43168 l
231.330478 167.904 l
231.510914 168.06144 l
231.510914 168.21888 l
231.761467 168.37632 l
231.761467 168.53376 l
232.637346 169.63584 l
234.27399 173.25696 l
234.531807 173.4144 l
234.627841 173.88672 l
234.977006 174.2016 l
235.102837 174.51648 l
235.600239 174.67392 l
235.66176 174.83136 l
235.99758 174.9888 l
236.478534 177.98016 l
236.567744 178.60992 l
236.686223 179.712 l
236.774734 180.34176 l
237.009321 180.65664 l
237.785985 181.2864 l
237.983663 181.75872 l
238.179868 182.0736 l
238.179868 182.23104 l
238.540421 182.38848 l
238.732542 183.01824 l
239.085664 183.33312 l
239.166486 183.49056 l
239.778027 183.80544 l
240.758314 185.53728 l
241.010339 185.85216 l
241.110478 186.48192 l
241.605545 187.11168 l
241.898183 188.05632 l
242.16361 188.3712 l
242.354983 188.68608 l
243.106878 189.00096 l
243.153167 189.31584 l
243.634356 190.26048 l
243.657052 190.41792 l
243.905428 190.7328 l
244.306881 191.36256 l
244.505337 191.67744 l
245.048894 192.77952 l
245.454628 193.56672 l
245.707701 194.35392 l
246.020663 194.51136 l
246.186069 195.14112 l
246.309446 195.456 l
246.5951 195.92832 l
246.917817 196.40064 l
246.937856 196.55808 l
247.276212 196.87296 l
247.629799 197.50272 l
247.766035 197.66016 l
248.246923 197.8176 l
248.304044 198.13248 l
248.625415 198.28992 l
248.868553 198.76224 l
249.329915 198.91968 l
249.43945 199.23456 l
249.783341 199.54944 l
249.980404 200.1792 l
250.334969 200.49408 l
250.545441 200.9664 l
251.012949 201.12384 l
251.132813 201.43872 l
251.47231 202.06848 l
252.10555 202.85568 l
252.707847 203.01312 l
252.740015 203.17056 l
253.312423 203.64288 l
253.484875 204.27264 l
253.811001 204.58752 l
253.811001 204.74496 l
254.855009 205.6896 l
255.135375 206.00448 l
255.369182 206.16192 l
255.383726 206.31936 l
255.887786 206.63424 l
255.959015 207.10656 l
256.284208 207.264 l
256.424355 207.57888 l
256.633188 207.73632 l
256.660907 208.0512 l
257.059603 208.20864 l
257.114126 208.36608 l
257.344596 208.52352 l
257.492657 208.99584 l
257.613182 209.31072 l
258.076723 209.46816 l
258.194613 209.94048 l
258.532253 210.4128 l
258.94196 210.57024 l
259.043399 211.04256 l
260.19485 212.61696 l
260.519933 212.7744 l
260.531897 212.93184 l
261.158315 213.5616 l
261.655827 213.87648 l
261.929479 214.19136 l
262.042667 214.3488 l
263.083535 214.66368 l
263.524968 214.82112 l
263.535643 214.97856 l
263.832797 215.29344 l
264.032546 215.45088 l
264.653577 215.60832 l
265.230306 216.7104 l
265.657183 217.02528 l
265.804482 217.4976 l
266.135343 217.81248 l
266.135343 217.96992 l
266.509817 218.2848 l
266.528878 218.44224 l
267.335736 218.91456 l
267.335736 219.072 l
267.811886 219.38688 l
268.261753 219.8592 l
269.104551 220.33152 l
269.353936 220.6464 l
269.499038 220.96128 l
269.795286 221.27616 l
269.803701 221.4336 l
270.582998 221.90592 l
270.737755 222.53568 l
270.988319 222.69312 l
272.12969 223.16544 l
272.557596 223.48032 l
272.603034 223.7952 l
273.223686 224.26752 l
273.466448 224.5824 l
273.619777 224.89728 l
273.923785 225.21216 l
273.974114 225.3696 l
274.316662 225.68448 l
274.451033 225.84192 l
274.981774 225.99936 l
275.057714 226.1568 l
275.825415 226.62912 l
276.045457 226.944 l
276.078637 227.10144 l
276.427801 227.41632 l
276.875553 228.04608 l
276.946236 228.20352 l
277.284168 228.36096 l
277.353765 228.83328 l
277.467257 228.99072 l
277.953485 229.3056 l
278.388413 229.62048 l
279.095745 229.93536 l
279.207884 230.25024 l
279.413216 230.56512 l
280.184885 231.19488 l
280.201905 231.35232 l
280.679635 231.50976 l
280.940121 231.82464 l
281.776032 231.98208 l
281.951758 232.61184 l
282.47722 232.92672 l
283.134879 233.2416 l
283.53274 233.71392 l
283.542735 233.87136 l
283.9788 234.18624 l
284.072011 234.34368 l
284.653219 234.65856 l
284.667586 234.816 l
286.256167 234.97344 l
286.278697 235.13088 l
286.489536 235.28832 l
286.932598 235.44576 l
287.151367 235.91808 l
287.771464 236.07552 l
287.856447 236.23296 l
288.113964 236.3904 l
288.126564 236.54784 l
288.36899 236.70528 l
289.667851 237.02016 l
290.025821 237.1776 l
290.076565 237.49248 l
290.224336 237.64992 l
291.063947 237.9648 l
291.536729 238.12224 l
291.562543 238.27968 l
291.746196 238.43712 l
292.185414 238.59456 l
293.460796 238.752 l
293.566907 239.06688 l
294.337796 239.5392 l
294.364324 239.69664 l
294.723124 240.01152 l
294.938029 240.3264 l
295.269949 240.48384 l
295.384982 240.79872 l
295.413662 240.95616 l
297.034854 241.42848 l
297.38591 241.74336 l
297.796442 241.9008 l
297.86328 242.05824 l
299.994976 242.37312 l
299.994976 242.53056 l
301.259736 243.00288 l
301.328535 243.4752 l
301.785165 243.79008 l
301.860092 243.94752 l
302.17987 244.2624 l
303.183066 244.57728 l
303.306118 244.73472 l
303.93597 245.0496 l
303.942884 245.20704 l
304.824441 245.52192 l
305.757187 245.8368 l
305.894509 245.99424 l
307.52915 246.30912 l
307.665572 246.624 l
307.767427 246.78144 l
308.969473 246.93888 l
309.024645 247.09632 l
310.398376 247.4112 l
310.815388 247.56864 l
311.006465 247.88352 l
311.7195 248.35584 l
311.99091 248.67072 l
313.021693 249.14304 l
313.137389 249.30048 l
313.659002 249.45792 l
313.692457 249.61536 l
314.098477 249.7728 l
314.125115 250.08768 l
314.329487 250.24512 l
315.275814 250.56 l
316.568922 251.18976 l
317.647166 251.50464 l
318.034832 251.66208 l
318.362259 252.1344 l
318.59858 252.29184 l
319.400434 252.60672 l
320.031317 252.9216 l
320.173637 253.23648 l
320.347371 253.39392 l
320.870296 253.7088 l
321.205257 254.02368 l
322.771703 254.496 l
322.888776 254.81088 l
323.432378 254.96832 l
324.42886 255.12576 l
324.787684 255.44064 l
325.001071 255.75552 l
325.695765 255.91296 l
325.698794 256.0704 l
326.036864 256.22784 l
327.175159 256.38528 l
327.589072 256.70016 l
329.192371 257.01504 l
329.874131 257.6448 l
331.150013 257.80224 l
331.618733 258.27456 l
331.626797 258.432 l
332.229428 258.58944 l
332.267229 258.74688 l
332.520199 259.06176 l
333.509231 259.37664 l
333.812284 259.53408 l
333.836022 259.69152 l
334.327471 260.0064 l
335.465566 260.32128 l
335.505268 260.47872 l
335.86335 260.63616 l
336.937668 260.7936 l
337.029793 260.95104 l
337.414535 261.26592 l
337.541115 261.5808 l
338.876433 262.05312 l
338.977903 262.368 l
339.267323 262.52544 l
339.287229 262.68288 l
340.514226 262.84032 l
340.621062 262.99776 l
341.94358 263.1552 l
342.986849 263.62752 l
344.343158 263.78496 l
344.512345 263.9424 l
344.980469 264.09984 l
346.011902 264.25728 l
347.456837 265.04448 l
349.624457 265.35936 l
349.736249 265.67424 l
350.377041 265.83168 l
350.625687 266.46144 l
352.048319 266.93376 l
353.593308 267.0912 l
353.737295 267.24864 l
355.817729 267.56352 l
356.162668 267.8784 l
357.152227 268.03584 l
357.184969 268.19328 l
358.114248 268.50816 l
358.22619 268.82304 l
358.530732 268.98048 l
358.678226 269.76768 l
358.99447 269.92512 l
359.254715 270.39744 l
360.009394 271.0272 l
360.566129 271.18464 l
360.744137 271.49952 l
361.763254 271.8144 l
361.871507 271.97184 l
363.719535 272.44416 l
363.904565 272.6016 l
365.307049 272.75904 l
365.322325 272.91648 l
365.80589 273.23136 l
366.395491 273.3888 l
366.558861 273.70368 l
367.027829 273.86112 l
369.609101 274.33344 l
369.745039 274.49088 l
370.962779 274.64832 l
371.61061 274.9632 l
372.65474 275.27808 l
372.715549 275.43552 l
374.024853 275.7504 l
374.06615 275.90784 l
374.41506 276.22272 l
374.600832 276.5376 l
374.625935 276.69504 l
375.155217 277.00992 l
378.692762 277.3248 l
379.235013 277.63968 l
379.25885 277.79712 l
380.137148 277.95456 l
380.292504 278.112 l
382.917648 279.21408 l
382.963809 279.37152 l
383.456268 279.52896 l
385.066071 279.84384 l
385.191087 280.15872 l
385.919013 280.31616 l
385.927546 280.4736 l
387.351407 280.78848 l
387.55492 280.94592 l
388.624182 281.10336 l
388.870036 281.2608 l
389.967294 281.41824 l
390.329767 281.89056 l
391.5864 282.048 l
392.389141 282.52032 l
392.461437 282.67776 l
392.876734 282.8352 l
393.907126 282.99264 l
398.955192 283.30752 l
399.747597 283.6224 l
400.179345 283.93728 l
400.386955 284.4096 l
400.857024 284.56704 l
402.715404 284.72448 l
403.441943 285.1968 l
406.035198 285.51168 l
406.047419 285.66912 l
407.414083 285.82656 l
407.79007 285.984 l
408.891533 286.14144 l
411.961353 286.29888 l
412.265223 286.45632 l
416.889363 286.7712 l
421.210857 287.08608 l
421.276197 287.24352 l
421.559767 287.40096 l
421.608162 287.5584 l
424.483963 287.87328 l
424.707994 288.03072 l
425.721584 288.3456 l
428.914057 288.66048 l
429.788462 288.97536 l
433.658255 289.1328 l
434.603797 289.29024 l
441.935102 289.44768 l
442.162782 289.60512 l
444.956437 289.76256 l
455.391668 289.92 l
455.391668 289.92 l
stroke
grestore
0.800 setlinewidth
0 setlinejoin
2 setlinecap
[] 0 setdash
0.000 setgray
gsave
57.6 38.016 m
57.6 321.408 l
stroke
grestore
gsave
456.192 38.016 m
456.192 321.408 l
stroke
grestore
gsave
57.6 38.016 m
456.192 38.016 l
stroke
grestore
gsave
57.6 321.408 m
456.192 321.408 l
stroke
grestore
/DejaVuSans findfont
12.000 scalefont
setfont
gsave
220.567875 327.408000 translate
0.000000 rotate
0.000000 0.000000 m /P glyphshow
7.236328 0.000000 m /i glyphshow
10.570312 0.000000 m /v glyphshow
17.671875 0.000000 m /o glyphshow
25.013672 0.000000 m /t glyphshow
29.718750 0.000000 m /space glyphshow
33.533203 0.000000 m /r glyphshow
38.466797 0.000000 m /a glyphshow
45.820312 0.000000 m /t glyphshow
50.525391 0.000000 m /i glyphshow
53.859375 0.000000 m /o glyphshow
61.201172 0.000000 m /space glyphshow
65.015625 0.000000 m /one glyphshow
grestore
1.000 setlinewidth
0 setlinecap
0.800 setgray
gsave
64.6 269.392375 m
202.303125 269.392375 l
203.636458 269.392375 204.303125 270.059042 204.303125 271.392375 c
204.303125 314.408 l
204.303125 315.741333 203.636458 316.408 202.303125 316.408 c
64.6 316.408 l
63.266667 316.408 62.6 315.741333 62.6 314.408 c
62.6 271.392375 l
62.6 270.059042 63.266667 269.392375 64.6 269.392375 c
cl
gsave
1.000 setgray
fill
grestore
stroke
grestore
1.500 setlinewidth
1 setlinejoin
2 setlinecap
[] 0 setdash
0.122 0.467 0.706 setrgbcolor
gsave
66.6 308.31425 m
86.6 308.31425 l
stroke
grestore
0.000 setgray
/DejaVuSans findfont
10.000 scalefont
setfont
gsave
94.600000 304.814250 translate
0.000000 rotate
0.000000 0.000000 m /R glyphshow
6.948242 0.000000 m /o glyphshow
13.066406 0.000000 m /u glyphshow
19.404297 0.000000 m /n glyphshow
25.742188 0.000000 m /d glyphshow
32.089844 0.000000 m /i glyphshow
34.868164 0.000000 m /n glyphshow
41.206055 0.000000 m /g glyphshow
47.553711 0.000000 m /S glyphshow
53.901367 0.000000 m /a glyphshow
60.029297 0.000000 m /t glyphshow
63.950195 0.000000 m /plus glyphshow
72.329102 0.000000 m /S glyphshow
78.676758 0.000000 m /o glyphshow
84.794922 0.000000 m /P glyphshow
90.825195 0.000000 m /l glyphshow
93.603516 0.000000 m /e glyphshow
99.755859 0.000000 m /x glyphshow
grestore
0 setlinecap
[9.6 2.4 1.5 2.4] 0 setdash
1.000 0.498 0.055 setrgbcolor
gsave
66.6 293.642375 m
86.6 293.642375 l
stroke
grestore
0.000 setgray
gsave
94.600000 290.142375 translate
0.000000 rotate
0.000000 0.000000 m /n glyphshow
6.337891 0.000000 m /a glyphshow
12.465820 0.000000 m /i glyphshow
15.244141 0.000000 m /v glyphshow
21.162109 0.000000 m /e glyphshow
grestore
[1.5 2.475] 0 setdash
0.173 0.627 0.173 setrgbcolor
gsave
66.6 278.9705 m
86.6 278.9705 l
stroke
grestore
0.000 setgray
gsave
94.600000 275.470500 translate
0.000000 rotate
0.000000 0.000000 m /t glyphshow
3.920898 0.000000 m /i glyphshow
6.699219 0.000000 m /g glyphshow
13.046875 0.000000 m /h glyphshow
19.384766 0.000000 m /t glyphshow
grestore

end
showpage
