%!PS-Adobe-3.0 EPSF-3.0
%%Title: /home/jodv/workspace/PB_experiments/results/summarized/abisko_addlearnts1/scripts/../graphs/learnts1_ecdf_PROOF.eps
%%Creator: matplotlib version 3.0.3, http://matplotlib.org/
%%CreationDate: Fri Apr 19 21:42:22 2019
%%Orientation: portrait
%%BoundingBox: 126 216 486 576
%%EndComments
%%BeginProlog
/mpldict 8 dict def
mpldict begin
/m { moveto } bind def
/l { lineto } bind def
/r { rlineto } bind def
/c { curveto } bind def
/cl { closepath } bind def
/box {
m
1 index 0 r
0 exch r
neg 0 r
cl
} bind def
/clipbox {
box
clip
newpath
} bind def
%!PS-Adobe-3.0 Resource-Font
%%Title: DejaVu Sans
%%Copyright: Copyright (c) 2003 by Bitstream, Inc. All Rights Reserved. Copyright (c) 2006 by Tavmjong Bah. All Rights Reserved. DejaVu changes are in public domain 
%%Creator: Converted from TrueType to type 3 by PPR
25 dict begin
/_d{bind def}bind def
/_m{moveto}_d
/_l{lineto}_d
/_cl{closepath eofill}_d
/_c{curveto}_d
/_sc{7 -1 roll{setcachedevice}{pop pop pop pop pop pop}ifelse}_d
/_e{exec}_d
/FontName /DejaVuSans def
/PaintType 0 def
/FontMatrix[.001 0 0 .001 0 0]def
/FontBBox[-1021 -463 1793 1232]def
/FontType 3 def
/Encoding [ /space /parenleft /parenright /plus /zero /one /two /three /four /six /eight /F /N /O /P /R /S /T /a /b /c /d /e /f /g /h /i /l /m /n /o /r /s /t /u /v /x /minus ] def
/FontInfo 10 dict dup begin
/FamilyName (DejaVu Sans) def
/FullName (DejaVu Sans) def
/Notice (Copyright (c) 2003 by Bitstream, Inc. All Rights Reserved. Copyright (c) 2006 by Tavmjong Bah. All Rights Reserved. DejaVu changes are in public domain ) def
/Weight (Book) def
/Version (Version 2.35) def
/ItalicAngle 0.0 def
/isFixedPitch false def
/UnderlinePosition -130 def
/UnderlineThickness 90 def
end readonly def
/CharStrings 39 dict dup begin
/.notdef 0 def
/space{318 0 0 0 0 0 _sc
}_d
/parenleft{390 0 86 -131 310 759 _sc
310 759 _m
266 683 234 609 213 536 _c
191 463 181 389 181 314 _c
181 238 191 164 213 91 _c
234 17 266 -56 310 -131 _c
232 -131 _l
183 -54 146 20 122 94 _c
98 168 86 241 86 314 _c
86 386 98 459 122 533 _c
146 607 182 682 232 759 _c
310 759 _l
_cl}_d
/parenright{390 0 80 -131 304 759 _sc
80 759 _m
158 759 _l
206 682 243 607 267 533 _c
291 459 304 386 304 314 _c
304 241 291 168 267 94 _c
243 20 206 -54 158 -131 _c
80 -131 _l
123 -56 155 17 177 91 _c
198 164 209 238 209 314 _c
209 389 198 463 177 536 _c
155 609 123 683 80 759 _c
_cl}_d
/plus{838 0 106 0 732 627 _sc
460 627 _m
460 355 _l
732 355 _l
732 272 _l
460 272 _l
460 0 _l
378 0 _l
378 272 _l
106 272 _l
106 355 _l
378 355 _l
378 627 _l
460 627 _l
_cl}_d
/zero{636 0 66 -13 570 742 _sc
318 664 _m
267 664 229 639 203 589 _c
177 539 165 464 165 364 _c
165 264 177 189 203 139 _c
229 89 267 64 318 64 _c
369 64 407 89 433 139 _c
458 189 471 264 471 364 _c
471 464 458 539 433 589 _c
407 639 369 664 318 664 _c
318 742 _m
399 742 461 709 505 645 _c
548 580 570 486 570 364 _c
570 241 548 147 505 83 _c
461 19 399 -13 318 -13 _c
236 -13 173 19 130 83 _c
87 147 66 241 66 364 _c
66 486 87 580 130 645 _c
173 709 236 742 318 742 _c
_cl}_d
/one{636 0 110 0 544 729 _sc
124 83 _m
285 83 _l
285 639 _l
110 604 _l
110 694 _l
284 729 _l
383 729 _l
383 83 _l
544 83 _l
544 0 _l
124 0 _l
124 83 _l
_cl}_d
/two{{636 0 73 0 536 742 _sc
192 83 _m
536 83 _l
536 0 _l
73 0 _l
73 83 _l
110 121 161 173 226 239 _c
290 304 331 346 348 365 _c
380 400 402 430 414 455 _c
426 479 433 504 433 528 _c
433 566 419 598 392 622 _c
365 646 330 659 286 659 _c
255 659 222 653 188 643 _c
154 632 117 616 78 594 _c
78 694 _l
118 710 155 722 189 730 _c
223 738 255 742 284 742 _c
}_e{359 742 419 723 464 685 _c
509 647 532 597 532 534 _c
532 504 526 475 515 449 _c
504 422 484 390 454 354 _c
446 344 420 317 376 272 _c
332 227 271 164 192 83 _c
_cl}_e}_d
/three{{636 0 76 -13 556 742 _sc
406 393 _m
453 383 490 362 516 330 _c
542 298 556 258 556 212 _c
556 140 531 84 482 45 _c
432 6 362 -13 271 -13 _c
240 -13 208 -10 176 -4 _c
144 1 110 10 76 22 _c
76 117 _l
103 101 133 89 166 81 _c
198 73 232 69 268 69 _c
330 69 377 81 409 105 _c
441 129 458 165 458 212 _c
458 254 443 288 413 312 _c
383 336 341 349 287 349 _c
}_e{202 349 _l
202 430 _l
291 430 _l
339 430 376 439 402 459 _c
428 478 441 506 441 543 _c
441 580 427 609 401 629 _c
374 649 336 659 287 659 _c
260 659 231 656 200 650 _c
169 644 135 635 98 623 _c
98 711 _l
135 721 170 729 203 734 _c
235 739 266 742 296 742 _c
370 742 429 725 473 691 _c
517 657 539 611 539 553 _c
539 513 527 479 504 451 _c
481 423 448 403 406 393 _c
_cl}_e}_d
/four{636 0 49 0 580 729 _sc
378 643 _m
129 254 _l
378 254 _l
378 643 _l
352 729 _m
476 729 _l
476 254 _l
580 254 _l
580 172 _l
476 172 _l
476 0 _l
378 0 _l
378 172 _l
49 172 _l
49 267 _l
352 729 _l
_cl}_d
/six{{636 0 70 -13 573 742 _sc
330 404 _m
286 404 251 388 225 358 _c
199 328 186 286 186 234 _c
186 181 199 139 225 109 _c
251 79 286 64 330 64 _c
374 64 409 79 435 109 _c
461 139 474 181 474 234 _c
474 286 461 328 435 358 _c
409 388 374 404 330 404 _c
526 713 _m
526 623 _l
501 635 476 644 451 650 _c
425 656 400 659 376 659 _c
310 659 260 637 226 593 _c
}_e{192 549 172 482 168 394 _c
187 422 211 444 240 459 _c
269 474 301 482 336 482 _c
409 482 467 459 509 415 _c
551 371 573 310 573 234 _c
573 159 550 99 506 54 _c
462 9 403 -13 330 -13 _c
246 -13 181 19 137 83 _c
92 147 70 241 70 364 _c
70 479 97 571 152 639 _c
206 707 280 742 372 742 _c
396 742 421 739 447 735 _c
472 730 498 723 526 713 _c
_cl}_e}_d
/eight{{636 0 68 -13 568 742 _sc
318 346 _m
271 346 234 333 207 308 _c
180 283 167 249 167 205 _c
167 161 180 126 207 101 _c
234 76 271 64 318 64 _c
364 64 401 76 428 102 _c
455 127 469 161 469 205 _c
469 249 455 283 429 308 _c
402 333 365 346 318 346 _c
219 388 _m
177 398 144 418 120 447 _c
96 476 85 511 85 553 _c
85 611 105 657 147 691 _c
188 725 245 742 318 742 _c
}_e{390 742 447 725 489 691 _c
530 657 551 611 551 553 _c
551 511 539 476 515 447 _c
491 418 459 398 417 388 _c
464 377 501 355 528 323 _c
554 291 568 251 568 205 _c
568 134 546 80 503 43 _c
459 5 398 -13 318 -13 _c
237 -13 175 5 132 43 _c
89 80 68 134 68 205 _c
68 251 81 291 108 323 _c
134 355 171 377 219 388 _c
183 544 _m
183 506 194 476 218 455 _c
}_e{242 434 275 424 318 424 _c
360 424 393 434 417 455 _c
441 476 453 506 453 544 _c
453 582 441 611 417 632 _c
393 653 360 664 318 664 _c
275 664 242 653 218 632 _c
194 611 183 582 183 544 _c
_cl}_e}_d
/F{575 0 98 0 517 729 _sc
98 729 _m
517 729 _l
517 646 _l
197 646 _l
197 431 _l
486 431 _l
486 348 _l
197 348 _l
197 0 _l
98 0 _l
98 729 _l
_cl}_d
/N{748 0 98 0 650 729 _sc
98 729 _m
231 729 _l
554 119 _l
554 729 _l
650 729 _l
650 0 _l
517 0 _l
194 610 _l
194 0 _l
98 0 _l
98 729 _l
_cl}_d
/O{787 0 56 -13 731 742 _sc
394 662 _m
322 662 265 635 223 582 _c
181 528 160 456 160 364 _c
160 272 181 199 223 146 _c
265 92 322 66 394 66 _c
465 66 522 92 564 146 _c
606 199 627 272 627 364 _c
627 456 606 528 564 582 _c
522 635 465 662 394 662 _c
394 742 _m
496 742 577 707 639 639 _c
700 571 731 479 731 364 _c
731 248 700 157 639 89 _c
577 21 496 -13 394 -13 _c
291 -13 209 21 148 89 _c
86 157 56 248 56 364 _c
56 479 86 571 148 639 _c
209 707 291 742 394 742 _c
_cl}_d
/P{603 0 98 0 569 729 _sc
197 648 _m
197 374 _l
321 374 _l
367 374 402 385 427 409 _c
452 433 465 467 465 511 _c
465 555 452 588 427 612 _c
402 636 367 648 321 648 _c
197 648 _l
98 729 _m
321 729 _l
402 729 464 710 506 673 _c
548 636 569 582 569 511 _c
569 439 548 384 506 348 _c
464 311 402 293 321 293 _c
197 293 _l
197 0 _l
98 0 _l
98 729 _l
_cl}_d
/R{{695 0 98 0 666 729 _sc
444 342 _m
465 334 486 319 506 296 _c
526 272 546 240 566 199 _c
666 0 _l
560 0 _l
467 187 _l
443 235 419 268 397 284 _c
374 300 343 308 304 308 _c
197 308 _l
197 0 _l
98 0 _l
98 729 _l
321 729 _l
404 729 466 711 507 677 _c
548 642 569 589 569 519 _c
569 473 558 434 537 404 _c
515 374 484 353 444 342 _c
197 648 _m
197 389 _l
321 389 _l
}_e{368 389 404 400 428 422 _c
452 444 465 476 465 519 _c
465 561 452 593 428 615 _c
404 637 368 648 321 648 _c
197 648 _l
_cl}_e}_d
/S{{635 0 66 -13 579 742 _sc
535 705 _m
535 609 _l
497 627 462 640 429 649 _c
395 657 363 662 333 662 _c
279 662 237 651 208 631 _c
179 610 165 580 165 542 _c
165 510 174 485 194 469 _c
213 452 250 439 304 429 _c
364 417 _l
437 403 491 378 526 343 _c
561 307 579 260 579 201 _c
579 130 555 77 508 41 _c
460 5 391 -13 300 -13 _c
265 -13 228 -9 189 -2 _c
}_e{150 5 110 16 69 32 _c
69 134 _l
109 111 148 94 186 83 _c
224 71 262 66 300 66 _c
356 66 399 77 430 99 _c
460 121 476 152 476 194 _c
476 230 465 258 443 278 _c
421 298 385 313 335 323 _c
275 335 _l
201 349 148 372 115 404 _c
82 435 66 478 66 534 _c
66 598 88 649 134 686 _c
179 723 242 742 322 742 _c
356 742 390 739 426 733 _c
461 727 497 717 535 705 _c
}_e{_cl}_e}_d
/T{611 0 -2 0 614 729 _sc
-2 729 _m
614 729 _l
614 646 _l
355 646 _l
355 0 _l
256 0 _l
256 646 _l
-2 646 _l
-2 729 _l
_cl}_d
/a{{613 0 60 -13 522 560 _sc
343 275 _m
270 275 220 266 192 250 _c
164 233 150 205 150 165 _c
150 133 160 107 181 89 _c
202 70 231 61 267 61 _c
317 61 357 78 387 114 _c
417 149 432 196 432 255 _c
432 275 _l
343 275 _l
522 312 _m
522 0 _l
432 0 _l
432 83 _l
411 49 385 25 355 10 _c
325 -5 287 -13 243 -13 _c
187 -13 142 2 109 33 _c
76 64 60 106 60 159 _c
}_e{60 220 80 266 122 298 _c
163 329 224 345 306 345 _c
432 345 _l
432 354 _l
432 395 418 427 391 450 _c
364 472 326 484 277 484 _c
245 484 215 480 185 472 _c
155 464 127 453 100 439 _c
100 522 _l
132 534 164 544 195 550 _c
226 556 256 560 286 560 _c
365 560 424 539 463 498 _c
502 457 522 395 522 312 _c
_cl}_e}_d
/b{{635 0 91 -13 580 760 _sc
487 273 _m
487 339 473 390 446 428 _c
418 466 381 485 334 485 _c
286 485 249 466 222 428 _c
194 390 181 339 181 273 _c
181 207 194 155 222 117 _c
249 79 286 61 334 61 _c
381 61 418 79 446 117 _c
473 155 487 207 487 273 _c
181 464 _m
199 496 223 520 252 536 _c
281 552 316 560 356 560 _c
422 560 476 533 518 481 _c
559 428 580 359 580 273 _c
}_e{580 187 559 117 518 65 _c
476 13 422 -13 356 -13 _c
316 -13 281 -5 252 10 _c
223 25 199 49 181 82 _c
181 0 _l
91 0 _l
91 760 _l
181 760 _l
181 464 _l
_cl}_e}_d
/c{{550 0 55 -13 488 560 _sc
488 526 _m
488 442 _l
462 456 437 466 411 473 _c
385 480 360 484 334 484 _c
276 484 230 465 198 428 _c
166 391 150 339 150 273 _c
150 206 166 154 198 117 _c
230 80 276 62 334 62 _c
360 62 385 65 411 72 _c
437 79 462 90 488 104 _c
488 21 _l
462 9 436 0 410 -5 _c
383 -10 354 -13 324 -13 _c
242 -13 176 12 128 64 _c
}_e{79 115 55 185 55 273 _c
55 362 79 432 128 483 _c
177 534 244 560 330 560 _c
358 560 385 557 411 551 _c
437 545 463 537 488 526 _c
_cl}_e}_d
/d{{635 0 55 -13 544 760 _sc
454 464 _m
454 760 _l
544 760 _l
544 0 _l
454 0 _l
454 82 _l
435 49 411 25 382 10 _c
353 -5 319 -13 279 -13 _c
213 -13 159 13 117 65 _c
75 117 55 187 55 273 _c
55 359 75 428 117 481 _c
159 533 213 560 279 560 _c
319 560 353 552 382 536 _c
411 520 435 496 454 464 _c
148 273 _m
148 207 161 155 188 117 _c
215 79 253 61 301 61 _c
}_e{348 61 385 79 413 117 _c
440 155 454 207 454 273 _c
454 339 440 390 413 428 _c
385 466 348 485 301 485 _c
253 485 215 466 188 428 _c
161 390 148 339 148 273 _c
_cl}_e}_d
/e{{615 0 55 -13 562 560 _sc
562 296 _m
562 252 _l
149 252 _l
153 190 171 142 205 110 _c
238 78 284 62 344 62 _c
378 62 412 66 444 74 _c
476 82 509 95 541 113 _c
541 28 _l
509 14 476 3 442 -3 _c
408 -9 373 -13 339 -13 _c
251 -13 182 12 131 62 _c
80 112 55 181 55 268 _c
55 357 79 428 127 481 _c
175 533 241 560 323 560 _c
397 560 455 536 498 489 _c
}_e{540 441 562 377 562 296 _c
472 322 _m
471 371 457 410 431 440 _c
404 469 368 484 324 484 _c
274 484 234 469 204 441 _c
174 413 156 373 152 322 _c
472 322 _l
_cl}_e}_d
/f{352 0 23 0 371 760 _sc
371 760 _m
371 685 _l
285 685 _l
253 685 230 678 218 665 _c
205 652 199 629 199 595 _c
199 547 _l
347 547 _l
347 477 _l
199 477 _l
199 0 _l
109 0 _l
109 477 _l
23 477 _l
23 547 _l
109 547 _l
109 585 _l
109 645 123 690 151 718 _c
179 746 224 760 286 760 _c
371 760 _l
_cl}_d
/g{{635 0 55 -207 544 560 _sc
454 280 _m
454 344 440 395 414 431 _c
387 467 349 485 301 485 _c
253 485 215 467 188 431 _c
161 395 148 344 148 280 _c
148 215 161 165 188 129 _c
215 93 253 75 301 75 _c
349 75 387 93 414 129 _c
440 165 454 215 454 280 _c
544 68 _m
544 -24 523 -93 482 -139 _c
440 -184 377 -207 292 -207 _c
260 -207 231 -204 203 -200 _c
175 -195 147 -188 121 -178 _c
}_e{121 -91 _l
147 -105 173 -115 199 -122 _c
225 -129 251 -133 278 -133 _c
336 -133 380 -117 410 -87 _c
439 -56 454 -10 454 52 _c
454 96 _l
435 64 411 40 382 24 _c
353 8 319 0 279 0 _c
211 0 157 25 116 76 _c
75 127 55 195 55 280 _c
55 364 75 432 116 483 _c
157 534 211 560 279 560 _c
319 560 353 552 382 536 _c
411 520 435 496 454 464 _c
454 547 _l
544 547 _l
}_e{544 68 _l
_cl}_e}_d
/h{634 0 91 0 549 760 _sc
549 330 _m
549 0 _l
459 0 _l
459 327 _l
459 379 448 417 428 443 _c
408 469 378 482 338 482 _c
289 482 251 466 223 435 _c
195 404 181 362 181 309 _c
181 0 _l
91 0 _l
91 760 _l
181 760 _l
181 462 _l
202 494 227 519 257 535 _c
286 551 320 560 358 560 _c
420 560 468 540 500 501 _c
532 462 549 405 549 330 _c
_cl}_d
/i{278 0 94 0 184 760 _sc
94 547 _m
184 547 _l
184 0 _l
94 0 _l
94 547 _l
94 760 _m
184 760 _l
184 646 _l
94 646 _l
94 760 _l
_cl}_d
/l{278 0 94 0 184 760 _sc
94 760 _m
184 760 _l
184 0 _l
94 0 _l
94 760 _l
_cl}_d
/m{{974 0 91 0 889 560 _sc
520 442 _m
542 482 569 511 600 531 _c
631 550 668 560 711 560 _c
767 560 811 540 842 500 _c
873 460 889 403 889 330 _c
889 0 _l
799 0 _l
799 327 _l
799 379 789 418 771 444 _c
752 469 724 482 686 482 _c
639 482 602 466 575 435 _c
548 404 535 362 535 309 _c
535 0 _l
445 0 _l
445 327 _l
445 379 435 418 417 444 _c
398 469 369 482 331 482 _c
}_e{285 482 248 466 221 435 _c
194 404 181 362 181 309 _c
181 0 _l
91 0 _l
91 547 _l
181 547 _l
181 462 _l
201 495 226 520 255 536 _c
283 552 317 560 357 560 _c
397 560 430 550 458 530 _c
486 510 506 480 520 442 _c
_cl}_e}_d
/n{634 0 91 0 549 560 _sc
549 330 _m
549 0 _l
459 0 _l
459 327 _l
459 379 448 417 428 443 _c
408 469 378 482 338 482 _c
289 482 251 466 223 435 _c
195 404 181 362 181 309 _c
181 0 _l
91 0 _l
91 547 _l
181 547 _l
181 462 _l
202 494 227 519 257 535 _c
286 551 320 560 358 560 _c
420 560 468 540 500 501 _c
532 462 549 405 549 330 _c
_cl}_d
/o{612 0 55 -13 557 560 _sc
306 484 _m
258 484 220 465 192 427 _c
164 389 150 338 150 273 _c
150 207 163 156 191 118 _c
219 80 257 62 306 62 _c
354 62 392 80 420 118 _c
448 156 462 207 462 273 _c
462 337 448 389 420 427 _c
392 465 354 484 306 484 _c
306 560 _m
384 560 445 534 490 484 _c
534 433 557 363 557 273 _c
557 183 534 113 490 63 _c
445 12 384 -13 306 -13 _c
227 -13 165 12 121 63 _c
77 113 55 183 55 273 _c
55 363 77 433 121 484 _c
165 534 227 560 306 560 _c
_cl}_d
/r{411 0 91 0 411 560 _sc
411 463 _m
401 469 390 473 378 476 _c
366 478 353 480 339 480 _c
288 480 249 463 222 430 _c
194 397 181 350 181 288 _c
181 0 _l
91 0 _l
91 547 _l
181 547 _l
181 462 _l
199 495 224 520 254 536 _c
284 552 321 560 365 560 _c
371 560 378 559 386 559 _c
393 558 401 557 411 555 _c
411 463 _l
_cl}_d
/s{{521 0 54 -13 472 560 _sc
443 531 _m
443 446 _l
417 458 391 468 364 475 _c
336 481 308 485 279 485 _c
234 485 200 478 178 464 _c
156 450 145 430 145 403 _c
145 382 153 366 169 354 _c
185 342 217 330 265 320 _c
296 313 _l
360 299 405 279 432 255 _c
458 230 472 195 472 151 _c
472 100 452 60 412 31 _c
372 1 316 -13 246 -13 _c
216 -13 186 -10 154 -5 _c
}_e{122 0 89 8 54 20 _c
54 113 _l
87 95 120 82 152 74 _c
184 65 216 61 248 61 _c
290 61 323 68 346 82 _c
368 96 380 117 380 144 _c
380 168 371 187 355 200 _c
339 213 303 226 247 238 _c
216 245 _l
160 257 119 275 95 299 _c
70 323 58 356 58 399 _c
58 450 76 490 112 518 _c
148 546 200 560 268 560 _c
301 560 332 557 362 552 _c
391 547 418 540 443 531 _c
}_e{_cl}_e}_d
/t{392 0 27 0 368 702 _sc
183 702 _m
183 547 _l
368 547 _l
368 477 _l
183 477 _l
183 180 _l
183 135 189 106 201 94 _c
213 81 238 75 276 75 _c
368 75 _l
368 0 _l
276 0 _l
206 0 158 13 132 39 _c
106 65 93 112 93 180 _c
93 477 _l
27 477 _l
27 547 _l
93 547 _l
93 702 _l
183 702 _l
_cl}_d
/u{634 0 85 -13 543 560 _sc
85 216 _m
85 547 _l
175 547 _l
175 219 _l
175 167 185 129 205 103 _c
225 77 255 64 296 64 _c
344 64 383 79 411 110 _c
439 141 453 183 453 237 _c
453 547 _l
543 547 _l
543 0 _l
453 0 _l
453 84 _l
431 50 405 26 377 10 _c
348 -5 315 -13 277 -13 _c
214 -13 166 6 134 45 _c
101 83 85 140 85 216 _c
311 560 _m
311 560 _l
_cl}_d
/v{592 0 30 0 562 547 _sc
30 547 _m
125 547 _l
296 88 _l
467 547 _l
562 547 _l
357 0 _l
235 0 _l
30 547 _l
_cl}_d
/x{592 0 29 0 559 547 _sc
549 547 _m
351 281 _l
559 0 _l
453 0 _l
294 215 _l
135 0 _l
29 0 _l
241 286 _l
47 547 _l
153 547 _l
298 352 _l
443 547 _l
549 547 _l
_cl}_d
/minus{838 0 106 272 732 355 _sc
106 355 _m
732 355 _l
732 272 _l
106 272 _l
106 355 _l
_cl}_d
end readonly def

/BuildGlyph
 {exch begin
 CharStrings exch
 2 copy known not{pop /.notdef}if
 true 3 1 roll get exec
 end}_d

/BuildChar {
 1 index /Encoding get exch get
 1 index /BuildGlyph get exec
}_d

FontName currentdict end definefont pop
end
%%EndProlog
mpldict begin
126 216 translate
360 360 0 0 clipbox
gsave
0 0 m
360 0 l
360 360 l
0 360 l
cl
1.000 setgray
fill
grestore
gsave
45 39.6 m
356.4 39.6 l
356.4 334.8 l
45 334.8 l
cl
1.000 setgray
fill
grestore
0.800 setlinewidth
1 setlinejoin
0 setlinecap
[] 0 setdash
0.000 setgray
gsave
/o {
gsave
newpath
translate
0.8 setlinewidth
1 setlinejoin
0 setlinecap
0 0 m
0 -3.5 l

gsave
0.000 setgray
fill
grestore
stroke
grestore
} bind def
45 39.6 o
grestore
gsave
33.000000 23.678125 translate
0.000000 rotate
/DejaVuSans findfont
10.0 scalefont
setfont
0.000000 0.976562 moveto
/one glyphshow

6.362305 0.976562 moveto
/zero glyphshow

/DejaVuSans findfont
7.0 scalefont
setfont
12.820312 4.804688 moveto
/minus glyphshow

18.685547 4.804688 moveto
/two glyphshow


grestore
gsave
/o {
gsave
newpath
translate
0.8 setlinewidth
1 setlinejoin
0 setlinecap
0 0 m
0 -3.5 l

gsave
0.000 setgray
fill
grestore
stroke
grestore
} bind def
101.855 39.6 o
grestore
gsave
89.854684 24.678125 translate
0.000000 rotate
/DejaVuSans findfont
10.0 scalefont
setfont
0.000000 0.064063 moveto
/one glyphshow

6.362305 0.064063 moveto
/zero glyphshow

/DejaVuSans findfont
7.0 scalefont
setfont
12.820312 3.892188 moveto
/minus glyphshow

18.685547 3.892188 moveto
/one glyphshow


grestore
gsave
/o {
gsave
newpath
translate
0.8 setlinewidth
1 setlinejoin
0 setlinecap
0 0 m
0 -3.5 l

gsave
0.000 setgray
fill
grestore
stroke
grestore
} bind def
158.709 39.6 o
grestore
gsave
149.709369 23.678125 translate
0.000000 rotate
/DejaVuSans findfont
10.0 scalefont
setfont
0.000000 0.976562 moveto
/one glyphshow

6.362305 0.976562 moveto
/zero glyphshow

/DejaVuSans findfont
7.0 scalefont
setfont
12.820312 4.804688 moveto
/zero glyphshow


grestore
gsave
/o {
gsave
newpath
translate
0.8 setlinewidth
1 setlinejoin
0 setlinecap
0 0 m
0 -3.5 l

gsave
0.000 setgray
fill
grestore
stroke
grestore
} bind def
215.564 39.6 o
grestore
gsave
206.564053 24.678125 translate
0.000000 rotate
/DejaVuSans findfont
10.0 scalefont
setfont
0.000000 0.064063 moveto
/one glyphshow

6.362305 0.064063 moveto
/zero glyphshow

/DejaVuSans findfont
7.0 scalefont
setfont
12.820312 3.892188 moveto
/one glyphshow


grestore
gsave
/o {
gsave
newpath
translate
0.8 setlinewidth
1 setlinejoin
0 setlinecap
0 0 m
0 -3.5 l

gsave
0.000 setgray
fill
grestore
stroke
grestore
} bind def
272.419 39.6 o
grestore
gsave
263.418737 23.678125 translate
0.000000 rotate
/DejaVuSans findfont
10.0 scalefont
setfont
0.000000 0.976562 moveto
/one glyphshow

6.362305 0.976562 moveto
/zero glyphshow

/DejaVuSans findfont
7.0 scalefont
setfont
12.820312 4.804688 moveto
/two glyphshow


grestore
gsave
/o {
gsave
newpath
translate
0.8 setlinewidth
1 setlinejoin
0 setlinecap
0 0 m
0 -3.5 l

gsave
0.000 setgray
fill
grestore
stroke
grestore
} bind def
329.273 39.6 o
grestore
gsave
320.273422 23.678125 translate
0.000000 rotate
/DejaVuSans findfont
10.0 scalefont
setfont
0.000000 0.976562 moveto
/one glyphshow

6.362305 0.976562 moveto
/zero glyphshow

/DejaVuSans findfont
7.0 scalefont
setfont
12.820312 4.804688 moveto
/three glyphshow


grestore
0.600 setlinewidth
gsave
/o {
gsave
newpath
translate
0.6 setlinewidth
1 setlinejoin
0 setlinecap
0 0 m
0 -2 l

gsave
0.000 setgray
fill
grestore
stroke
grestore
} bind def
62.115 39.6 o
grestore
gsave
/o {
gsave
newpath
translate
0.6 setlinewidth
1 setlinejoin
0 setlinecap
0 0 m
0 -2 l

gsave
0.000 setgray
fill
grestore
stroke
grestore
} bind def
72.1266 39.6 o
grestore
gsave
/o {
gsave
newpath
translate
0.6 setlinewidth
1 setlinejoin
0 setlinecap
0 0 m
0 -2 l

gsave
0.000 setgray
fill
grestore
stroke
grestore
} bind def
79.2299 39.6 o
grestore
gsave
/o {
gsave
newpath
translate
0.6 setlinewidth
1 setlinejoin
0 setlinecap
0 0 m
0 -2 l

gsave
0.000 setgray
fill
grestore
stroke
grestore
} bind def
84.7397 39.6 o
grestore
gsave
/o {
gsave
newpath
translate
0.6 setlinewidth
1 setlinejoin
0 setlinecap
0 0 m
0 -2 l

gsave
0.000 setgray
fill
grestore
stroke
grestore
} bind def
89.2415 39.6 o
grestore
gsave
/o {
gsave
newpath
translate
0.6 setlinewidth
1 setlinejoin
0 setlinecap
0 0 m
0 -2 l

gsave
0.000 setgray
fill
grestore
stroke
grestore
} bind def
93.0478 39.6 o
grestore
gsave
/o {
gsave
newpath
translate
0.6 setlinewidth
1 setlinejoin
0 setlinecap
0 0 m
0 -2 l

gsave
0.000 setgray
fill
grestore
stroke
grestore
} bind def
96.3449 39.6 o
grestore
gsave
/o {
gsave
newpath
translate
0.6 setlinewidth
1 setlinejoin
0 setlinecap
0 0 m
0 -2 l

gsave
0.000 setgray
fill
grestore
stroke
grestore
} bind def
99.2532 39.6 o
grestore
gsave
/o {
gsave
newpath
translate
0.6 setlinewidth
1 setlinejoin
0 setlinecap
0 0 m
0 -2 l

gsave
0.000 setgray
fill
grestore
stroke
grestore
} bind def
118.97 39.6 o
grestore
gsave
/o {
gsave
newpath
translate
0.6 setlinewidth
1 setlinejoin
0 setlinecap
0 0 m
0 -2 l

gsave
0.000 setgray
fill
grestore
stroke
grestore
} bind def
128.981 39.6 o
grestore
gsave
/o {
gsave
newpath
translate
0.6 setlinewidth
1 setlinejoin
0 setlinecap
0 0 m
0 -2 l

gsave
0.000 setgray
fill
grestore
stroke
grestore
} bind def
136.085 39.6 o
grestore
gsave
/o {
gsave
newpath
translate
0.6 setlinewidth
1 setlinejoin
0 setlinecap
0 0 m
0 -2 l

gsave
0.000 setgray
fill
grestore
stroke
grestore
} bind def
141.594 39.6 o
grestore
gsave
/o {
gsave
newpath
translate
0.6 setlinewidth
1 setlinejoin
0 setlinecap
0 0 m
0 -2 l

gsave
0.000 setgray
fill
grestore
stroke
grestore
} bind def
146.096 39.6 o
grestore
gsave
/o {
gsave
newpath
translate
0.6 setlinewidth
1 setlinejoin
0 setlinecap
0 0 m
0 -2 l

gsave
0.000 setgray
fill
grestore
stroke
grestore
} bind def
149.902 39.6 o
grestore
gsave
/o {
gsave
newpath
translate
0.6 setlinewidth
1 setlinejoin
0 setlinecap
0 0 m
0 -2 l

gsave
0.000 setgray
fill
grestore
stroke
grestore
} bind def
153.2 39.6 o
grestore
gsave
/o {
gsave
newpath
translate
0.6 setlinewidth
1 setlinejoin
0 setlinecap
0 0 m
0 -2 l

gsave
0.000 setgray
fill
grestore
stroke
grestore
} bind def
156.108 39.6 o
grestore
gsave
/o {
gsave
newpath
translate
0.6 setlinewidth
1 setlinejoin
0 setlinecap
0 0 m
0 -2 l

gsave
0.000 setgray
fill
grestore
stroke
grestore
} bind def
175.824 39.6 o
grestore
gsave
/o {
gsave
newpath
translate
0.6 setlinewidth
1 setlinejoin
0 setlinecap
0 0 m
0 -2 l

gsave
0.000 setgray
fill
grestore
stroke
grestore
} bind def
185.836 39.6 o
grestore
gsave
/o {
gsave
newpath
translate
0.6 setlinewidth
1 setlinejoin
0 setlinecap
0 0 m
0 -2 l

gsave
0.000 setgray
fill
grestore
stroke
grestore
} bind def
192.939 39.6 o
grestore
gsave
/o {
gsave
newpath
translate
0.6 setlinewidth
1 setlinejoin
0 setlinecap
0 0 m
0 -2 l

gsave
0.000 setgray
fill
grestore
stroke
grestore
} bind def
198.449 39.6 o
grestore
gsave
/o {
gsave
newpath
translate
0.6 setlinewidth
1 setlinejoin
0 setlinecap
0 0 m
0 -2 l

gsave
0.000 setgray
fill
grestore
stroke
grestore
} bind def
202.951 39.6 o
grestore
gsave
/o {
gsave
newpath
translate
0.6 setlinewidth
1 setlinejoin
0 setlinecap
0 0 m
0 -2 l

gsave
0.000 setgray
fill
grestore
stroke
grestore
} bind def
206.757 39.6 o
grestore
gsave
/o {
gsave
newpath
translate
0.6 setlinewidth
1 setlinejoin
0 setlinecap
0 0 m
0 -2 l

gsave
0.000 setgray
fill
grestore
stroke
grestore
} bind def
210.054 39.6 o
grestore
gsave
/o {
gsave
newpath
translate
0.6 setlinewidth
1 setlinejoin
0 setlinecap
0 0 m
0 -2 l

gsave
0.000 setgray
fill
grestore
stroke
grestore
} bind def
212.963 39.6 o
grestore
gsave
/o {
gsave
newpath
translate
0.6 setlinewidth
1 setlinejoin
0 setlinecap
0 0 m
0 -2 l

gsave
0.000 setgray
fill
grestore
stroke
grestore
} bind def
232.679 39.6 o
grestore
gsave
/o {
gsave
newpath
translate
0.6 setlinewidth
1 setlinejoin
0 setlinecap
0 0 m
0 -2 l

gsave
0.000 setgray
fill
grestore
stroke
grestore
} bind def
242.691 39.6 o
grestore
gsave
/o {
gsave
newpath
translate
0.6 setlinewidth
1 setlinejoin
0 setlinecap
0 0 m
0 -2 l

gsave
0.000 setgray
fill
grestore
stroke
grestore
} bind def
249.794 39.6 o
grestore
gsave
/o {
gsave
newpath
translate
0.6 setlinewidth
1 setlinejoin
0 setlinecap
0 0 m
0 -2 l

gsave
0.000 setgray
fill
grestore
stroke
grestore
} bind def
255.304 39.6 o
grestore
gsave
/o {
gsave
newpath
translate
0.6 setlinewidth
1 setlinejoin
0 setlinecap
0 0 m
0 -2 l

gsave
0.000 setgray
fill
grestore
stroke
grestore
} bind def
259.806 39.6 o
grestore
gsave
/o {
gsave
newpath
translate
0.6 setlinewidth
1 setlinejoin
0 setlinecap
0 0 m
0 -2 l

gsave
0.000 setgray
fill
grestore
stroke
grestore
} bind def
263.612 39.6 o
grestore
gsave
/o {
gsave
newpath
translate
0.6 setlinewidth
1 setlinejoin
0 setlinecap
0 0 m
0 -2 l

gsave
0.000 setgray
fill
grestore
stroke
grestore
} bind def
266.909 39.6 o
grestore
gsave
/o {
gsave
newpath
translate
0.6 setlinewidth
1 setlinejoin
0 setlinecap
0 0 m
0 -2 l

gsave
0.000 setgray
fill
grestore
stroke
grestore
} bind def
269.817 39.6 o
grestore
gsave
/o {
gsave
newpath
translate
0.6 setlinewidth
1 setlinejoin
0 setlinecap
0 0 m
0 -2 l

gsave
0.000 setgray
fill
grestore
stroke
grestore
} bind def
289.534 39.6 o
grestore
gsave
/o {
gsave
newpath
translate
0.6 setlinewidth
1 setlinejoin
0 setlinecap
0 0 m
0 -2 l

gsave
0.000 setgray
fill
grestore
stroke
grestore
} bind def
299.545 39.6 o
grestore
gsave
/o {
gsave
newpath
translate
0.6 setlinewidth
1 setlinejoin
0 setlinecap
0 0 m
0 -2 l

gsave
0.000 setgray
fill
grestore
stroke
grestore
} bind def
306.649 39.6 o
grestore
gsave
/o {
gsave
newpath
translate
0.6 setlinewidth
1 setlinejoin
0 setlinecap
0 0 m
0 -2 l

gsave
0.000 setgray
fill
grestore
stroke
grestore
} bind def
312.158 39.6 o
grestore
gsave
/o {
gsave
newpath
translate
0.6 setlinewidth
1 setlinejoin
0 setlinecap
0 0 m
0 -2 l

gsave
0.000 setgray
fill
grestore
stroke
grestore
} bind def
316.66 39.6 o
grestore
gsave
/o {
gsave
newpath
translate
0.6 setlinewidth
1 setlinejoin
0 setlinecap
0 0 m
0 -2 l

gsave
0.000 setgray
fill
grestore
stroke
grestore
} bind def
320.467 39.6 o
grestore
gsave
/o {
gsave
newpath
translate
0.6 setlinewidth
1 setlinejoin
0 setlinecap
0 0 m
0 -2 l

gsave
0.000 setgray
fill
grestore
stroke
grestore
} bind def
323.764 39.6 o
grestore
gsave
/o {
gsave
newpath
translate
0.6 setlinewidth
1 setlinejoin
0 setlinecap
0 0 m
0 -2 l

gsave
0.000 setgray
fill
grestore
stroke
grestore
} bind def
326.672 39.6 o
grestore
gsave
/o {
gsave
newpath
translate
0.6 setlinewidth
1 setlinejoin
0 setlinecap
0 0 m
0 -2 l

gsave
0.000 setgray
fill
grestore
stroke
grestore
} bind def
346.388 39.6 o
grestore
gsave
/o {
gsave
newpath
translate
0.6 setlinewidth
1 setlinejoin
0 setlinecap
0 0 m
0 -2 l

gsave
0.000 setgray
fill
grestore
stroke
grestore
} bind def
356.4 39.6 o
grestore
/DejaVuSans findfont
10.000 scalefont
setfont
gsave
159.395312 10.006250 translate
0.000000 rotate
0.000000 0.000000 m /T glyphshow
6.108398 0.000000 m /i glyphshow
8.886719 0.000000 m /m glyphshow
18.627930 0.000000 m /e glyphshow
24.780273 0.000000 m /o glyphshow
30.898438 0.000000 m /u glyphshow
37.236328 0.000000 m /t glyphshow
41.157227 0.000000 m /space glyphshow
44.335938 0.000000 m /l glyphshow
47.114258 0.000000 m /i glyphshow
49.892578 0.000000 m /m glyphshow
59.633789 0.000000 m /i glyphshow
62.412109 0.000000 m /t glyphshow
66.333008 0.000000 m /space glyphshow
69.511719 0.000000 m /parenleft glyphshow
73.413086 0.000000 m /s glyphshow
78.623047 0.000000 m /parenright glyphshow
grestore
0.800 setlinewidth
gsave
/o {
gsave
newpath
translate
0.8 setlinewidth
1 setlinejoin
0 setlinecap
0 0 m
-3.5 0 l

gsave
0.000 setgray
fill
grestore
stroke
grestore
} bind def
45 39.6 o
grestore
gsave
31.640625 35.803125 translate
0.000000 rotate
0.000000 0.000000 m /zero glyphshow
grestore
gsave
/o {
gsave
newpath
translate
0.8 setlinewidth
1 setlinejoin
0 setlinecap
0 0 m
-3.5 0 l

gsave
0.000 setgray
fill
grestore
stroke
grestore
} bind def
45 87.4444 o
grestore
gsave
18.921875 83.647533 translate
0.000000 rotate
0.000000 0.000000 m /two glyphshow
6.362305 0.000000 m /zero glyphshow
12.724609 0.000000 m /zero glyphshow
grestore
gsave
/o {
gsave
newpath
translate
0.8 setlinewidth
1 setlinejoin
0 setlinecap
0 0 m
-3.5 0 l

gsave
0.000 setgray
fill
grestore
stroke
grestore
} bind def
45 135.289 o
grestore
gsave
18.921875 131.491942 translate
0.000000 rotate
0.000000 0.000000 m /four glyphshow
6.362305 0.000000 m /zero glyphshow
12.724609 0.000000 m /zero glyphshow
grestore
gsave
/o {
gsave
newpath
translate
0.8 setlinewidth
1 setlinejoin
0 setlinecap
0 0 m
-3.5 0 l

gsave
0.000 setgray
fill
grestore
stroke
grestore
} bind def
45 183.133 o
grestore
gsave
18.921875 179.336350 translate
0.000000 rotate
0.000000 0.000000 m /six glyphshow
6.362305 0.000000 m /zero glyphshow
12.724609 0.000000 m /zero glyphshow
grestore
gsave
/o {
gsave
newpath
translate
0.8 setlinewidth
1 setlinejoin
0 setlinecap
0 0 m
-3.5 0 l

gsave
0.000 setgray
fill
grestore
stroke
grestore
} bind def
45 230.978 o
grestore
gsave
18.921875 227.180759 translate
0.000000 rotate
0.000000 0.000000 m /eight glyphshow
6.362305 0.000000 m /zero glyphshow
12.724609 0.000000 m /zero glyphshow
grestore
gsave
/o {
gsave
newpath
translate
0.8 setlinewidth
1 setlinejoin
0 setlinecap
0 0 m
-3.5 0 l

gsave
0.000 setgray
fill
grestore
stroke
grestore
} bind def
45 278.822 o
grestore
gsave
12.562500 275.025167 translate
0.000000 rotate
0.000000 0.000000 m /one glyphshow
6.362305 0.000000 m /zero glyphshow
12.724609 0.000000 m /zero glyphshow
19.086914 0.000000 m /zero glyphshow
grestore
gsave
/o {
gsave
newpath
translate
0.8 setlinewidth
1 setlinejoin
0 setlinecap
0 0 m
-3.5 0 l

gsave
0.000 setgray
fill
grestore
stroke
grestore
} bind def
45 326.666 o
grestore
gsave
12.562500 322.869576 translate
0.000000 rotate
0.000000 0.000000 m /one glyphshow
6.362305 0.000000 m /two glyphshow
12.724609 0.000000 m /zero glyphshow
19.086914 0.000000 m /zero glyphshow
grestore
gsave
6.484375 117.426563 translate
90.000000 rotate
0.000000 0.000000 m /N glyphshow
7.480469 0.000000 m /u glyphshow
13.818359 0.000000 m /m glyphshow
23.559570 0.000000 m /b glyphshow
29.907227 0.000000 m /e glyphshow
36.059570 0.000000 m /r glyphshow
40.170898 0.000000 m /space glyphshow
43.349609 0.000000 m /o glyphshow
49.467773 0.000000 m /f glyphshow
52.988281 0.000000 m /space glyphshow
56.166992 0.000000 m /s glyphshow
61.376953 0.000000 m /o glyphshow
67.495117 0.000000 m /l glyphshow
70.273438 0.000000 m /v glyphshow
76.191406 0.000000 m /e glyphshow
82.343750 0.000000 m /d glyphshow
88.691406 0.000000 m /space glyphshow
91.870117 0.000000 m /i glyphshow
94.648438 0.000000 m /n glyphshow
100.986328 0.000000 m /s glyphshow
106.196289 0.000000 m /t glyphshow
110.117188 0.000000 m /a glyphshow
116.245117 0.000000 m /n glyphshow
122.583008 0.000000 m /c glyphshow
128.081055 0.000000 m /e glyphshow
134.233398 0.000000 m /s glyphshow
grestore
1.500 setlinewidth
2 setlinecap
0.122 0.467 0.706 setrgbcolor
gsave
311.4 295.2 45 39.6 clipbox
-1 116.15086 m
45 116.151053 l
45 116.390276 l
62.114965 116.629498 l
62.114965 117.347164 l
72.126578 117.586386 l
72.126578 118.304052 l
79.229931 118.543274 l
79.229931 119.500162 l
84.739719 119.739384 l
84.739719 121.174716 l
89.241544 121.413938 l
89.241544 124.284603 l
93.047782 124.523825 l
93.047782 126.676823 l
96.344896 126.916045 l
96.344896 131.461264 l
99.253157 131.700486 l
99.253157 138.159481 l
101.854684 138.398703 l
101.854684 147.967585 l
104.208052 148.206807 l
104.208052 159.211021 l
106.356509 159.450243 l
106.356509 165.670016 l
108.332898 165.909238 l
108.332898 166.626904 l
127.277713 166.866126 l
127.277713 167.105348 l
130.574827 167.583793 l
132.07175 168.062237 l
132.07175 168.301459 l
133.483087 168.779903 l
133.483087 169.736791 l
134.159614 169.976013 l
134.159614 170.454457 l
134.818098 170.693679 l
134.818098 172.129011 l
135.459476 172.368233 l
135.459476 174.28201 l
136.084615 174.521232 l
136.084615 178.588006 l
136.694317 178.827229 l
136.694317 181.219449 l
137.289326 181.458671 l
137.289326 183.133225 l
138.437983 183.372447 l
146.504364 184.090113 l
146.504364 184.329335 l
147.689792 184.568558 l
147.689792 184.80778 l
148.449596 185.286224 l
148.449596 185.525446 l
148.820906 185.764668 l
148.820906 186.243112 l
149.186716 186.482334 l
149.186716 187.2 l
149.547185 187.439222 l
149.547185 187.917666 l
149.902467 188.156888 l
149.902467 188.39611 l
150.252709 188.635332 l
150.252709 189.831442 l
150.598053 190.070665 l
150.598053 190.549109 l
156.917477 190.788331 l
157.701405 191.266775 l
157.701405 191.505997 l
157.95728 191.745219 l
157.95728 192.223663 l
158.21053 192.462885 l
158.21053 193.180551 l
158.461209 193.419773 l
158.461209 195.094327 l
158.709369 195.333549 l
158.709369 195.811994 l
158.955059 196.051216 l
158.955059 196.290438 l
159.439225 196.768882 l
160.379974 197.008104 l
163.211193 197.247326 l
163.820895 197.72577 l
164.020829 197.964992 l
164.611096 198.443436 l
164.611096 198.682658 l
164.804758 198.92188 l
164.804758 199.639546 l
164.996912 199.878768 l
164.996912 200.596434 l
165.376791 201.074878 l
165.376791 201.3141 l
165.564561 201.553323 l
165.935872 201.792545 l
168.389545 202.031767 l
169.847182 202.510211 l
169.847182 202.749433 l
170.314546 203.467099 l
170.314546 204.184765 l
170.468389 204.423987 l
173.630943 204.663209 l
174.032442 204.902431 l
174.164837 205.141653 l
174.427517 205.380875 l
174.427517 205.620097 l
174.557817 205.859319 l
174.557817 206.098541 l
174.816371 206.337763 l
175.325495 206.576985 l
175.325495 206.816207 l
175.947485 207.055429 l
177.146345 207.294652 l
177.952206 208.25154 l
177.952206 208.490762 l
178.512132 209.686872 l
180.326159 209.926094 l
180.734295 210.165316 l
180.734295 210.64376 l
181.726062 211.122204 l
181.823082 211.361426 l
182.207396 211.600648 l
183.234419 211.83987 l
183.777115 212.318314 l
183.866416 212.796759 l
184.30814 213.275203 l
185.753504 213.514425 l
185.918116 214.232091 l
186.324907 214.471313 l
186.405467 214.710535 l
186.725105 214.949757 l
186.725105 215.188979 l
187.11892 215.906645 l
187.888193 216.145867 l
188.264025 216.385089 l
188.33851 216.863533 l
188.780761 217.102755 l
189.143347 218.059643 l
189.42963 218.298865 l
189.571537 218.77731 l
190.269088 219.016532 l
190.81328 219.494976 l
190.947474 220.212642 l
191.014298 220.930308 l
191.147407 221.16953 l
191.607718 221.408752 l
191.607718 221.647974 l
192.440461 222.126418 l
193.246032 223.800972 l
193.788728 224.279417 l
194.436223 225.714749 l
195.404648 225.953971 l
195.957058 226.432415 l
196.011625 226.671637 l
196.390256 227.150081 l
196.497378 227.389303 l
197.234498 227.628525 l
197.38963 227.867747 l
197.950249 228.106969 l
198.050826 228.585413 l
199.178944 228.824635 l
199.512299 229.063857 l
199.887845 229.542301 l
200.349385 230.020746 l
200.349385 230.259968 l
200.622224 230.738412 l
202.868469 231.6953 l
203.033081 231.934522 l
205.003159 232.173744 l
205.041 232.412966 l
205.527736 232.652188 l
205.712417 232.89141 l
206.580149 233.130632 l
206.827598 233.369854 l
207.384054 233.609076 l
207.452737 234.326742 l
208.262373 234.565964 l
208.361736 234.805186 l
210.754137 235.522853 l
210.784121 236.001297 l
210.992995 236.240519 l
211.609218 236.479741 l
211.638182 236.718963 l
211.983124 236.958185 l
212.880082 237.197407 l
212.935075 237.436629 l
213.745597 237.675851 l
213.851683 237.915073 l
214.581797 238.154295 l
215.51462 238.871961 l
217.646577 239.350405 l
217.737189 239.589627 l
218.690825 239.828849 l
218.90742 240.068071 l
218.950512 240.307293 l
220.974876 240.785737 l
221.446331 241.024959 l
222.363064 241.264182 l
222.437945 241.503404 l
222.661232 241.742626 l
223.26506 241.981848 l
223.44516 242.22107 l
224.499019 242.460292 l
226.417141 242.699514 l
226.670391 243.177958 l
226.952227 243.41718 l
228.476609 243.656402 l
228.767617 243.895624 l
230.377448 244.374068 l
230.539539 244.61329 l
231.748096 244.852512 l
231.914199 245.330956 l
234.567881 245.570178 l
236.534591 246.048622 l
236.776308 246.766288 l
237.890714 247.483955 l
238.188807 247.962399 l
239.100185 248.201621 l
239.55291 248.440843 l
239.646192 248.919287 l
240.595989 249.158509 l
240.6318 249.397731 l
240.836711 249.636953 l
242.208584 249.876175 l
242.82197 250.115397 l
242.993299 250.354619 l
243.965789 250.833063 l
244.051619 251.311507 l
245.348885 251.550729 l
246.319868 252.268395 l
246.999659 252.507618 l
248.318656 252.74684 l
249.30774 253.225284 l
250.379585 253.464506 l
251.057414 253.94295 l
251.296716 254.182172 l
251.366319 254.421394 l
253.437427 254.660616 l
254.016453 254.899838 l
254.047649 255.13906 l
254.643153 255.378282 l
256.10066 255.617504 l
259.138213 255.856726 l
259.519997 256.095948 l
261.914584 256.574392 l
262.611219 256.813614 l
263.120194 257.292058 l
263.749021 257.53128 l
265.100458 257.770502 l
265.176723 258.248947 l
266.47616 258.488169 l
267.007519 258.727391 l
267.264408 259.205835 l
267.683713 259.445057 l
267.767323 259.684279 l
268.521796 259.923501 l
268.617025 260.162723 l
270.024842 260.401945 l
270.087335 260.641167 l
270.751317 260.880389 l
271.016694 261.119611 l
271.56206 261.358833 l
271.720047 261.598055 l
272.080626 261.837277 l
274.130845 262.076499 l
274.373844 262.315721 l
275.46052 263.033387 l
275.488882 263.272609 l
276.008863 263.511831 l
277.492093 263.751053 l
278.256222 263.990276 l
278.322409 264.229498 l
278.591167 264.46872 l
280.878014 264.707942 l
281.163833 264.947164 l
281.718956 265.186386 l
281.773112 265.425608 l
282.261873 265.66483 l
283.142621 265.904052 l
285.344463 266.143274 l
286.426337 266.621718 l
286.697868 267.100162 l
287.691314 267.339384 l
288.181265 267.578606 l
291.199692 268.05705 l
291.282643 268.296272 l
291.493371 268.535494 l
292.021387 268.774716 l
292.197129 269.013938 l
293.040421 269.25316 l
293.378712 269.492382 l
295.444178 269.970827 l
296.729783 270.688493 l
296.88794 270.927715 l
298.545924 271.406159 l
298.616103 271.645381 l
299.243891 272.123825 l
300.347782 272.363047 l
300.546167 272.602269 l
300.981743 272.841491 l
301.13888 273.080713 l
301.162788 273.319935 l
302.498894 273.559157 l
303.203668 274.037601 l
304.726336 274.276823 l
305.714541 274.755267 l
307.832206 274.994489 l
308.866986 275.233712 l
309.20435 275.472934 l
311.912292 275.712156 l
312.220108 275.951378 l
313.066979 276.1906 l
313.230653 276.429822 l
313.241999 276.669044 l
313.381033 276.908266 l
314.103524 277.147488 l
314.848911 277.625932 l
317.135923 278.104376 l
317.866168 278.343598 l
318.973211 278.58282 l
319.281924 278.822042 l
320.048534 279.061264 l
322.462654 279.539708 l
322.747631 280.018152 l
323.937099 280.257374 l
323.985782 280.496596 l
324.408842 280.735818 l
328.711008 280.975041 l
329.361906 281.214263 l
330.455782 281.453485 l
330.889969 281.692707 l
332.322844 281.931929 l
332.977933 282.171151 l
333.3257 282.649595 l
335.62844 282.888817 l
337.089304 283.367261 l
339.393604 283.845705 l
339.781901 284.084927 l
344.176369 284.324149 l
345.581253 284.802593 l
345.785397 285.041815 l
346.761606 285.520259 l
348.864571 285.759481 l
349.472047 286.237925 l
349.577408 286.477147 l
352.524542 286.955592 l
352.838189 287.434036 l
355.363728 287.91248 l
361 287.986762 l
361 287.986762 l
stroke
grestore
0 setlinecap
[9.6 2.4 1.5 2.4] 0 setdash
1.000 0.498 0.055 setrgbcolor
gsave
311.4 295.2 45 39.6 clipbox
-1 100.601427 m
45 100.601621 l
45 101.797731 l
62.114965 102.036953 l
62.114965 102.993841 l
72.126578 103.233063 l
72.126578 104.429173 l
79.229931 104.668395 l
79.229931 105.386062 l
84.739719 105.625284 l
84.739719 107.299838 l
89.241544 107.53906 l
89.241544 111.845057 l
93.047782 112.084279 l
93.047782 114.715721 l
96.344896 114.954943 l
96.344896 118.543274 l
99.253157 118.782496 l
99.253157 121.174716 l
101.854684 121.413938 l
101.854684 126.437601 l
104.208052 126.676823 l
104.208052 130.025932 l
106.356509 130.265154 l
106.356509 130.98282 l
108.332898 131.222042 l
108.332898 131.700486 l
113.459862 132.418152 l
124.479438 132.896596 l
127.277713 133.135818 l
128.981263 133.614263 l
130.574827 133.853485 l
131.334631 134.092707 l
132.787501 134.331929 l
132.787501 134.571151 l
134.818098 135.288817 l
134.818098 136.006483 l
135.459476 136.245705 l
135.459476 136.963371 l
136.084615 137.202593 l
136.084615 138.159481 l
136.694317 138.398703 l
136.694317 139.355592 l
137.289326 139.594814 l
137.289326 140.31248 l
137.870333 140.551702 l
137.870333 141.50859 l
138.437983 141.747812 l
138.437983 141.987034 l
140.066596 142.226256 l
147.689792 142.465478 l
148.449596 142.7047 l
148.820906 142.943922 l
148.820906 143.422366 l
149.186716 143.661588 l
149.186716 144.140032 l
149.902467 144.618476 l
149.902467 144.857699 l
150.252709 145.096921 l
150.252709 145.336143 l
150.938633 145.814587 l
150.938633 146.053809 l
151.274579 146.293031 l
151.274579 146.532253 l
152.574441 147.010697 l
156.107841 147.249919 l
157.181561 147.489141 l
157.95728 148.206807 l
158.461209 148.446029 l
158.461209 148.685251 l
158.709369 148.924473 l
158.709369 149.402917 l
159.198329 149.642139 l
159.198329 150.120583 l
159.677794 150.599028 l
159.677794 150.83825 l
160.148126 151.077472 l
161.062737 151.316694 l
161.507644 151.555916 l
164.219157 152.03436 l
164.415904 152.273582 l
168.720982 153.23047 l
170.003955 153.948136 l
170.314546 154.42658 l
170.314546 154.665802 l
170.924248 154.905024 l
171.07435 155.144246 l
171.07435 155.383468 l
171.519257 155.62269 l
172.243405 155.861912 l
172.243405 156.101135 l
174.032442 156.340357 l
174.296527 156.579579 l
174.296527 156.818801 l
174.427517 157.058023 l
175.947485 157.536467 l
177.838681 157.775689 l
178.622609 158.014911 l
178.842092 158.254133 l
179.489073 158.732577 l
179.70102 158.971799 l
180.734295 159.211021 l
181.235157 159.450243 l
181.53087 159.928687 l
182.86588 160.167909 l
184.044055 160.646353 l
184.91357 160.885575 l
185.25298 161.124797 l
187.506552 161.603241 l
189.571537 162.081686 l
190.061884 162.799352 l
190.610611 163.277796 l
191.542483 164.234684 l
192.12349 164.95235 l
193.246032 165.191572 l
193.729014 165.430794 l
194.14401 166.387682 l
194.14401 166.626904 l
194.782374 166.866126 l
195.292667 167.344571 l
195.571672 167.823015 l
196.497378 168.301459 l
196.815985 169.019125 l
197.594967 169.497569 l
198.050826 170.215235 l
199.322362 170.454457 l
199.464951 170.693679 l
199.980845 170.932901 l
200.073497 171.411345 l
200.440666 171.650567 l
200.667405 172.129011 l
203.680769 172.846677 l
203.998351 173.0859 l
204.927301 173.325122 l
205.527736 173.803566 l
206.29428 174.042788 l
206.615651 174.28201 l
206.7924 174.999676 l
206.967892 175.238898 l
207.691636 175.47812 l
209.712399 175.717342 l
210.360998 175.956564 l
210.391462 176.195786 l
212.769728 177.152674 l
212.907594 177.631118 l
214.088725 178.348784 l
215.51462 178.827229 l
215.588732 179.066451 l
217.532843 179.305673 l
218.428378 179.544895 l
218.79936 179.784117 l
218.842641 180.023339 l
219.713578 180.501783 l
220.835656 180.741005 l
222.790556 180.980227 l
222.955841 181.219449 l
223.766067 181.697893 l
224.378361 182.176337 l
225.410504 182.415559 l
225.460168 182.654781 l
225.999988 183.372447 l
227.567245 183.850891 l
228.476609 184.090113 l
228.622542 184.329335 l
229.197796 184.568558 l
229.353669 184.80778 l
229.676441 185.047002 l
230.673806 185.286224 l
231.085454 185.525446 l
234.964954 186.243112 l
235.289187 186.721556 l
235.587279 186.960778 l
236.797215 187.2 l
237.850695 187.678444 l
238.030272 187.917666 l
239.933146 188.635332 l
240.307615 188.874554 l
241.232772 189.113776 l
241.363393 189.59222 l
243.074469 190.309887 l
243.753842 190.549109 l
244.036036 190.788331 l
245.304502 191.266775 l
245.693818 191.505997 l
247.741861 191.984441 l
248.279307 192.223663 l
250.52384 192.462885 l
252.029223 193.898217 l
254.480305 194.376661 l
254.985678 194.615883 l
256.300671 194.855105 l
256.305414 195.094327 l
259.673555 195.811994 l
260.266298 196.051216 l
260.371095 196.290438 l
265.160164 196.52966 l
266.255303 196.768882 l
266.691946 197.008104 l
268.495761 197.247326 l
268.988636 197.72577 l
269.948549 197.964992 l
270.030282 198.204214 l
270.817271 198.443436 l
271.08455 198.92188 l
272.917379 199.400324 l
273.705617 199.639546 l
274.054704 199.878768 l
275.747005 200.11799 l
275.833166 200.357212 l
276.246836 200.596434 l
276.354444 200.835656 l
277.548325 201.074878 l
277.604428 201.3141 l
279.61943 201.553323 l
279.914637 201.792545 l
281.786633 202.031767 l
281.815339 202.270989 l
282.718379 202.510211 l
283.073754 202.749433 l
283.078565 202.988655 l
283.918751 203.706321 l
284.040884 203.945543 l
284.978981 204.423987 l
285.15208 204.902431 l
285.70173 205.141653 l
287.635381 205.380875 l
287.91115 205.620097 l
289.397524 205.859319 l
289.708394 206.098541 l
292.313232 206.576985 l
293.219718 207.055429 l
293.225034 207.294652 l
293.551382 207.533874 l
293.685314 207.773096 l
293.954117 208.012318 l
296.054615 208.25154 l
296.418807 208.729984 l
298.087456 209.208428 l
298.373053 209.686872 l
300.190324 210.404538 l
303.846738 210.64376 l
303.966762 210.882982 l
304.218018 211.122204 l
309.062009 211.600648 l
309.078238 211.83987 l
310.975489 212.079092 l
311.038613 212.318314 l
312.230943 212.557536 l
312.418811 213.035981 l
312.850887 213.514425 l
314.356904 213.992869 l
314.54592 214.232091 l
315.360386 214.710535 l
316.871722 214.949757 l
317.291253 215.428201 l
317.913544 215.667423 l
318.040734 216.145867 l
318.097097 216.385089 l
318.549525 216.624311 l
320.628949 216.863533 l
320.653467 217.102755 l
321.644341 217.341977 l
321.647703 217.581199 l
322.286995 217.820421 l
322.359957 218.059643 l
323.764559 218.298865 l
323.883099 218.538088 l
326.235685 218.77731 l
326.397116 219.016532 l
328.577271 219.255754 l
329.316101 219.734198 l
330.758723 219.97342 l
330.934102 220.451864 l
333.14863 220.691086 l
333.210602 220.930308 l
333.486524 221.16953 l
334.492114 221.647974 l
334.634614 222.36564 l
335.198469 222.604862 l
337.364838 222.844084 l
340.761654 223.800972 l
341.047927 224.279417 l
341.666072 224.518639 l
341.902607 224.757861 l
344.061326 224.997083 l
345.079077 225.475527 l
345.18741 225.714749 l
346.01671 226.193193 l
346.200387 226.671637 l
347.022167 226.910859 l
347.794394 227.389303 l
349.047158 227.628525 l
349.092899 227.867747 l
350.293336 228.106969 l
350.712721 228.346191 l
352.323824 228.824635 l
352.367762 229.303079 l
353.115864 229.781524 l
354.137429 230.020746 l
354.957416 230.49919 l
356.389133 230.977634 l
361 231.042041 l
361 231.042041 l
stroke
grestore
[1.5 2.475] 0 setdash
0.173 0.627 0.173 setrgbcolor
gsave
311.4 295.2 45 39.6 clipbox
-1 112.323307 m
45 112.323501 l
45 112.562723 l
62.114965 112.801945 l
62.114965 114.476499 l
72.126578 114.715721 l
72.126578 114.954943 l
79.229931 115.194165 l
79.229931 117.825608 l
84.739719 118.06483 l
84.739719 119.500162 l
89.241544 119.739384 l
89.241544 122.131605 l
93.047782 122.370827 l
93.047782 125.959157 l
96.344896 126.198379 l
96.344896 129.069044 l
99.253157 129.308266 l
99.253157 135.528039 l
101.854684 135.767261 l
101.854684 143.422366 l
104.208052 143.661588 l
104.208052 149.642139 l
106.356509 149.881361 l
106.356509 159.450243 l
108.332898 159.689465 l
108.332898 161.842464 l
110.162748 162.081686 l
110.162748 162.320908 l
121.323018 162.799352 l
121.323018 163.038574 l
125.447863 163.277796 l
125.447863 163.517018 l
127.277713 163.75624 l
127.277713 164.234684 l
128.981263 164.473906 l
128.981263 164.95235 l
131.334631 165.191572 l
132.07175 165.430794 l
133.483087 165.670016 l
133.483087 165.909238 l
134.159614 166.14846 l
134.159614 166.387682 l
134.818098 166.626904 l
134.818098 167.583793 l
135.459476 167.823015 l
135.459476 169.258347 l
136.084615 169.497569 l
136.084615 173.0859 l
136.694317 173.325122 l
136.694317 174.760454 l
137.289326 174.999676 l
137.289326 178.827229 l
137.870333 179.066451 l
137.870333 179.784117 l
138.437983 180.023339 l
138.437983 180.501783 l
138.992876 180.741005 l
145.259142 181.219449 l
147.300939 181.458671 l
147.689792 181.697893 l
147.689792 181.937115 l
148.449596 182.176337 l
149.186716 182.654781 l
149.186716 182.894003 l
149.902467 183.372447 l
149.902467 184.090113 l
150.252709 184.329335 l
150.252709 184.568558 l
150.598053 184.80778 l
150.598053 185.047002 l
150.938633 185.286224 l
150.938633 185.764668 l
151.274579 186.00389 l
151.274579 186.243112 l
151.606016 186.482334 l
151.606016 187.2 l
152.255835 187.678444 l
153.19958 187.917666 l
156.917477 188.156888 l
157.181561 188.39611 l
157.701405 188.635332 l
157.701405 189.113776 l
158.709369 189.59222 l
158.709369 190.070665 l
159.439225 190.788331 l
159.439225 192.223663 l
159.677794 192.462885 l
159.677794 192.702107 l
159.91408 192.941329 l
159.91408 193.658995 l
160.379974 194.137439 l
160.379974 194.615883 l
161.062737 194.855105 l
161.062737 195.094327 l
161.286192 195.333549 l
163.211193 195.572771 l
163.61933 195.811994 l
164.804758 196.051216 l
164.804758 196.290438 l
165.187582 196.52966 l
165.187582 196.768882 l
165.935872 197.72577 l
165.935872 197.964992 l
166.301681 198.443436 l
166.301681 198.682658 l
166.66215 199.161102 l
166.66215 199.639546 l
166.84043 199.878768 l
166.84043 200.11799 l
168.720982 200.357212 l
170.621279 201.074878 l
170.924248 201.553323 l
170.924248 201.792545 l
171.519257 202.031767 l
171.956289 202.510211 l
172.100264 202.749433 l
172.100264 202.988655 l
172.667914 203.227877 l
172.946919 203.467099 l
174.296527 203.706321 l
174.296527 203.945543 l
174.816371 204.423987 l
175.947485 204.902431 l
177.494939 205.141653 l
178.512132 205.620097 l
178.622609 206.337763 l
178.842092 207.055429 l
178.951106 207.533874 l
179.595274 208.012318 l
181.53087 208.25154 l
182.491757 208.490762 l
182.86588 208.729984 l
183.777115 208.969206 l
183.955395 209.208428 l
184.395544 209.44765 l
184.48264 209.686872 l
184.998861 210.165316 l
185.168564 210.404538 l
185.50451 210.64376 l
185.587787 211.122204 l
185.753504 211.361426 l
187.736244 212.318314 l
187.736244 212.557536 l
188.039213 212.796759 l
188.114378 213.035981 l
188.486809 213.275203 l
188.7076 213.753647 l
189.35837 214.471313 l
189.35837 214.710535 l
189.500686 214.949757 l
189.500686 215.188979 l
190.131146 215.667423 l
190.200213 215.906645 l
190.880468 216.863533 l
190.880468 217.102755 l
191.080943 217.581199 l
191.411492 217.820421 l
191.411492 218.059643 l
191.607718 218.298865 l
191.672782 218.77731 l
191.802397 219.016532 l
192.187211 219.494976 l
192.187211 219.734198 l
193.000952 219.97342 l
194.20273 220.930308 l
194.20273 221.16953 l
194.494253 221.408752 l
194.552146 221.887196 l
194.782374 222.126418 l
195.627097 222.36564 l
196.657196 223.322528 l
196.92128 223.56175 l
197.747857 223.800972 l
198.050826 224.040194 l
198.100962 224.518639 l
199.178944 224.757861 l
199.417513 224.997083 l
199.417513 225.236305 l
199.841213 225.475527 l
199.887845 225.953971 l
200.936772 226.193193 l
200.981382 226.432415 l
201.554096 226.671637 l
201.857065 227.150081 l
202.198824 227.389303 l
202.198824 227.628525 l
202.702753 227.867747 l
204.467194 228.106969 l
204.621518 228.346191 l
205.416261 228.585413 l
205.712417 229.063857 l
207.487007 229.542301 l
208.062439 230.020746 l
208.394768 230.259968 l
209.930497 230.49919 l
210.238761 230.738412 l
210.330495 230.977634 l
211.200116 231.456078 l
212.491666 231.934522 l
212.989945 232.412966 l
213.017335 232.652188 l
213.851683 232.89141 l
214.478807 233.369854 l
216.413482 233.609076 l
216.484948 234.08752 l
217.188463 234.326742 l
217.510033 234.565964 l
217.601146 234.805186 l
217.894964 235.044408 l
218.669061 235.28363 l
218.993529 235.762075 l
219.900715 236.240519 l
221.368378 236.479741 l
221.465781 236.958185 l
222.306755 237.197407 l
222.790556 237.675851 l
224.187557 237.915073 l
224.222359 238.154295 l
226.289535 238.871961 l
227.445461 239.350405 l
229.494524 239.828849 l
230.92692 240.068071 l
231.658191 240.307293 l
231.977788 240.546515 l
232.079191 240.785737 l
233.659312 241.024959 l
233.694882 241.264182 l
234.141058 241.503404 l
234.152692 241.981848 l
235.388951 242.460292 l
235.433162 242.699514 l
236.407532 242.938736 l
239.720564 243.177958 l
239.803967 243.41718 l
240.6318 243.656402 l
240.703266 243.895624 l
242.55859 244.134846 l
243.009555 244.374068 l
244.152671 244.61329 l
244.199172 244.852512 l
244.430369 245.091734 l
244.484005 245.330956 l
245.459494 245.570178 l
245.954801 245.8094 l
247.383759 246.048622 l
247.815537 246.287844 l
248.760286 246.527066 l
249.143507 246.766288 l
249.269937 247.005511 l
251.092579 247.483955 l
251.545225 247.723177 l
252.526032 247.962399 l
253.034705 248.201621 l
253.121172 248.440843 l
253.373432 248.680065 l
254.724175 249.397731 l
255.951987 249.636953 l
258.651452 249.876175 l
259.226843 250.115397 l
260.104199 250.354619 l
260.233964 250.833063 l
260.978933 251.072285 l
260.978933 251.311507 l
263.909857 251.789951 l
264.990621 252.029173 l
265.984436 252.507618 l
266.927461 252.74684 l
267.361571 253.225284 l
267.85065 253.94295 l
267.942579 254.182172 l
268.837808 254.421394 l
268.894833 254.660616 l
269.499672 255.13906 l
269.981275 255.378282 l
271.730205 255.617504 l
271.899734 256.095948 l
272.210451 256.574392 l
274.020017 257.53128 l
275.432125 257.770502 l
275.638878 258.009724 l
275.688675 258.248947 l
276.045132 258.488169 l
278.262069 258.727391 l
278.843711 258.966613 l
279.116299 259.205835 l
279.18961 259.445057 l
280.953275 259.923501 l
283.219268 260.401945 l
283.685178 260.880389 l
285.401449 261.119611 l
286.134791 261.358833 l
288.655287 261.598055 l
289.752486 262.076499 l
289.816037 262.315721 l
290.15063 262.554943 l
291.121093 263.033387 l
292.047047 263.511831 l
292.450741 263.990276 l
294.710386 264.229498 l
297.836474 265.186386 l
299.064947 265.425608 l
299.263046 265.66483 l
300.241588 265.904052 l
300.393154 266.143274 l
301.146595 266.382496 l
301.231301 266.621718 l
304.517265 267.100162 l
304.673566 267.339384 l
305.12874 267.578606 l
305.309268 267.817828 l
307.271014 268.05705 l
307.914445 268.296272 l
307.994073 268.535494 l
309.196 269.013938 l
313.290632 269.25316 l
314.109913 269.492382 l
314.667563 269.970827 l
314.683618 270.210049 l
314.930703 270.449271 l
319.009908 271.406159 l
322.192446 271.884603 l
322.792295 272.123825 l
323.083034 272.363047 l
324.035896 272.602269 l
324.410045 272.841491 l
326.586973 273.080713 l
326.693558 273.319935 l
328.622184 273.559157 l
329.373221 273.798379 l
331.436607 274.276823 l
331.460121 274.516045 l
331.857363 274.755267 l
334.540836 275.233712 l
334.700899 275.472934 l
336.467842 275.712156 l
336.485732 275.951378 l
337.09596 276.1906 l
339.76318 276.908266 l
339.782385 277.147488 l
343.760096 277.38671 l
344.263309 277.625932 l
347.75249 278.58282 l
349.784317 278.822042 l
350.259268 279.061264 l
351.059897 279.300486 l
352.893651 279.539708 l
353.442925 279.77893 l
353.658523 280.018152 l
354.870704 280.257374 l
355.300129 280.496596 l
361 280.571455 l
361 280.571455 l
stroke
grestore
0.800 setlinewidth
0 setlinejoin
2 setlinecap
[] 0 setdash
0.000 setgray
gsave
45 39.6 m
45 334.8 l
stroke
grestore
gsave
356.4 39.6 m
356.4 334.8 l
stroke
grestore
gsave
45 39.6 m
356.4 39.6 l
stroke
grestore
gsave
45 334.8 m
356.4 334.8 l
stroke
grestore
/DejaVuSans findfont
12.000 scalefont
setfont
gsave
180.004687 340.800000 translate
0.000000 rotate
0.000000 0.000000 m /P glyphshow
7.236328 0.000000 m /R glyphshow
15.574219 0.000000 m /O glyphshow
25.019531 0.000000 m /O glyphshow
34.464844 0.000000 m /F glyphshow
grestore
1.000 setlinewidth
0 setlinecap
0.800 setgray
gsave
52 282.784375 m
189.703125 282.784375 l
191.036458 282.784375 191.703125 283.451042 191.703125 284.784375 c
191.703125 327.8 l
191.703125 329.133333 191.036458 329.8 189.703125 329.8 c
52 329.8 l
50.666667 329.8 50 329.133333 50 327.8 c
50 284.784375 l
50 283.451042 50.666667 282.784375 52 282.784375 c
cl
gsave
1.000 setgray
fill
grestore
stroke
grestore
1.500 setlinewidth
1 setlinejoin
2 setlinecap
[] 0 setdash
0.122 0.467 0.706 setrgbcolor
gsave
54 321.70625 m
74 321.70625 l
stroke
grestore
0.000 setgray
/DejaVuSans findfont
10.000 scalefont
setfont
gsave
82.000000 318.206250 translate
0.000000 rotate
0.000000 0.000000 m /R glyphshow
6.948242 0.000000 m /o glyphshow
13.066406 0.000000 m /u glyphshow
19.404297 0.000000 m /n glyphshow
25.742188 0.000000 m /d glyphshow
32.089844 0.000000 m /i glyphshow
34.868164 0.000000 m /n glyphshow
41.206055 0.000000 m /g glyphshow
47.553711 0.000000 m /S glyphshow
53.901367 0.000000 m /a glyphshow
60.029297 0.000000 m /t glyphshow
63.950195 0.000000 m /plus glyphshow
72.329102 0.000000 m /S glyphshow
78.676758 0.000000 m /o glyphshow
84.794922 0.000000 m /P glyphshow
90.825195 0.000000 m /l glyphshow
93.603516 0.000000 m /e glyphshow
99.755859 0.000000 m /x glyphshow
grestore
0 setlinecap
[9.6 2.4 1.5 2.4] 0 setdash
1.000 0.498 0.055 setrgbcolor
gsave
54 307.034375 m
74 307.034375 l
stroke
grestore
0.000 setgray
gsave
82.000000 303.534375 translate
0.000000 rotate
0.000000 0.000000 m /n glyphshow
6.337891 0.000000 m /a glyphshow
12.465820 0.000000 m /i glyphshow
15.244141 0.000000 m /v glyphshow
21.162109 0.000000 m /e glyphshow
grestore
[1.5 2.475] 0 setdash
0.173 0.627 0.173 setrgbcolor
gsave
54 292.3625 m
74 292.3625 l
stroke
grestore
0.000 setgray
gsave
82.000000 288.862500 translate
0.000000 rotate
0.000000 0.000000 m /t glyphshow
3.920898 0.000000 m /i glyphshow
6.699219 0.000000 m /g glyphshow
13.046875 0.000000 m /h glyphshow
19.384766 0.000000 m /t glyphshow
grestore

end
showpage
