%!PS-Adobe-3.0 EPSF-3.0
%%Title: /home/jodv/workspace/PB_experiments/results/summarized/abisko_addlearnts-1/scripts/../graphs/learnts-1_ecdf_conflicts.eps
%%Creator: matplotlib version 3.0.3, http://matplotlib.org/
%%CreationDate: Fri Apr 19 21:39:21 2019
%%Orientation: portrait
%%BoundingBox: 75 223 536 568
%%EndComments
%%BeginProlog
/mpldict 8 dict def
mpldict begin
/m { moveto } bind def
/l { lineto } bind def
/r { rlineto } bind def
/c { curveto } bind def
/cl { closepath } bind def
/box {
m
1 index 0 r
0 exch r
neg 0 r
cl
} bind def
/clipbox {
box
clip
newpath
} bind def
%!PS-Adobe-3.0 Resource-Font
%%Title: DejaVu Sans
%%Copyright: Copyright (c) 2003 by Bitstream, Inc. All Rights Reserved. Copyright (c) 2006 by Tavmjong Bah. All Rights Reserved. DejaVu changes are in public domain 
%%Creator: Converted from TrueType to type 3 by PPR
25 dict begin
/_d{bind def}bind def
/_m{moveto}_d
/_l{lineto}_d
/_cl{closepath eofill}_d
/_c{curveto}_d
/_sc{7 -1 roll{setcachedevice}{pop pop pop pop pop pop}ifelse}_d
/_e{exec}_d
/FontName /DejaVuSans def
/PaintType 0 def
/FontMatrix[.001 0 0 .001 0 0]def
/FontBBox[-1021 -463 1793 1232]def
/FontType 3 def
/Encoding [ /space /plus /zero /one /two /three /four /five /six /eight /I /L /N /P /R /S /a /b /c /d /e /f /g /h /i /l /m /n /o /p /r /s /t /u /v /x ] def
/FontInfo 10 dict dup begin
/FamilyName (DejaVu Sans) def
/FullName (DejaVu Sans) def
/Notice (Copyright (c) 2003 by Bitstream, Inc. All Rights Reserved. Copyright (c) 2006 by Tavmjong Bah. All Rights Reserved. DejaVu changes are in public domain ) def
/Weight (Book) def
/Version (Version 2.35) def
/ItalicAngle 0.0 def
/isFixedPitch false def
/UnderlinePosition -130 def
/UnderlineThickness 90 def
end readonly def
/CharStrings 37 dict dup begin
/.notdef 0 def
/space{318 0 0 0 0 0 _sc
}_d
/plus{838 0 106 0 732 627 _sc
460 627 _m
460 355 _l
732 355 _l
732 272 _l
460 272 _l
460 0 _l
378 0 _l
378 272 _l
106 272 _l
106 355 _l
378 355 _l
378 627 _l
460 627 _l
_cl}_d
/zero{636 0 66 -13 570 742 _sc
318 664 _m
267 664 229 639 203 589 _c
177 539 165 464 165 364 _c
165 264 177 189 203 139 _c
229 89 267 64 318 64 _c
369 64 407 89 433 139 _c
458 189 471 264 471 364 _c
471 464 458 539 433 589 _c
407 639 369 664 318 664 _c
318 742 _m
399 742 461 709 505 645 _c
548 580 570 486 570 364 _c
570 241 548 147 505 83 _c
461 19 399 -13 318 -13 _c
236 -13 173 19 130 83 _c
87 147 66 241 66 364 _c
66 486 87 580 130 645 _c
173 709 236 742 318 742 _c
_cl}_d
/one{636 0 110 0 544 729 _sc
124 83 _m
285 83 _l
285 639 _l
110 604 _l
110 694 _l
284 729 _l
383 729 _l
383 83 _l
544 83 _l
544 0 _l
124 0 _l
124 83 _l
_cl}_d
/two{{636 0 73 0 536 742 _sc
192 83 _m
536 83 _l
536 0 _l
73 0 _l
73 83 _l
110 121 161 173 226 239 _c
290 304 331 346 348 365 _c
380 400 402 430 414 455 _c
426 479 433 504 433 528 _c
433 566 419 598 392 622 _c
365 646 330 659 286 659 _c
255 659 222 653 188 643 _c
154 632 117 616 78 594 _c
78 694 _l
118 710 155 722 189 730 _c
223 738 255 742 284 742 _c
}_e{359 742 419 723 464 685 _c
509 647 532 597 532 534 _c
532 504 526 475 515 449 _c
504 422 484 390 454 354 _c
446 344 420 317 376 272 _c
332 227 271 164 192 83 _c
_cl}_e}_d
/three{{636 0 76 -13 556 742 _sc
406 393 _m
453 383 490 362 516 330 _c
542 298 556 258 556 212 _c
556 140 531 84 482 45 _c
432 6 362 -13 271 -13 _c
240 -13 208 -10 176 -4 _c
144 1 110 10 76 22 _c
76 117 _l
103 101 133 89 166 81 _c
198 73 232 69 268 69 _c
330 69 377 81 409 105 _c
441 129 458 165 458 212 _c
458 254 443 288 413 312 _c
383 336 341 349 287 349 _c
}_e{202 349 _l
202 430 _l
291 430 _l
339 430 376 439 402 459 _c
428 478 441 506 441 543 _c
441 580 427 609 401 629 _c
374 649 336 659 287 659 _c
260 659 231 656 200 650 _c
169 644 135 635 98 623 _c
98 711 _l
135 721 170 729 203 734 _c
235 739 266 742 296 742 _c
370 742 429 725 473 691 _c
517 657 539 611 539 553 _c
539 513 527 479 504 451 _c
481 423 448 403 406 393 _c
_cl}_e}_d
/four{636 0 49 0 580 729 _sc
378 643 _m
129 254 _l
378 254 _l
378 643 _l
352 729 _m
476 729 _l
476 254 _l
580 254 _l
580 172 _l
476 172 _l
476 0 _l
378 0 _l
378 172 _l
49 172 _l
49 267 _l
352 729 _l
_cl}_d
/five{{636 0 77 -13 549 729 _sc
108 729 _m
495 729 _l
495 646 _l
198 646 _l
198 467 _l
212 472 227 476 241 478 _c
255 480 270 482 284 482 _c
365 482 429 459 477 415 _c
525 370 549 310 549 234 _c
549 155 524 94 475 51 _c
426 8 357 -13 269 -13 _c
238 -13 207 -10 175 -6 _c
143 -1 111 6 77 17 _c
77 116 _l
106 100 136 88 168 80 _c
199 72 232 69 267 69 _c
}_e{323 69 368 83 401 113 _c
433 143 450 183 450 234 _c
450 284 433 324 401 354 _c
368 384 323 399 267 399 _c
241 399 214 396 188 390 _c
162 384 135 375 108 363 _c
108 729 _l
_cl}_e}_d
/six{{636 0 70 -13 573 742 _sc
330 404 _m
286 404 251 388 225 358 _c
199 328 186 286 186 234 _c
186 181 199 139 225 109 _c
251 79 286 64 330 64 _c
374 64 409 79 435 109 _c
461 139 474 181 474 234 _c
474 286 461 328 435 358 _c
409 388 374 404 330 404 _c
526 713 _m
526 623 _l
501 635 476 644 451 650 _c
425 656 400 659 376 659 _c
310 659 260 637 226 593 _c
}_e{192 549 172 482 168 394 _c
187 422 211 444 240 459 _c
269 474 301 482 336 482 _c
409 482 467 459 509 415 _c
551 371 573 310 573 234 _c
573 159 550 99 506 54 _c
462 9 403 -13 330 -13 _c
246 -13 181 19 137 83 _c
92 147 70 241 70 364 _c
70 479 97 571 152 639 _c
206 707 280 742 372 742 _c
396 742 421 739 447 735 _c
472 730 498 723 526 713 _c
_cl}_e}_d
/eight{{636 0 68 -13 568 742 _sc
318 346 _m
271 346 234 333 207 308 _c
180 283 167 249 167 205 _c
167 161 180 126 207 101 _c
234 76 271 64 318 64 _c
364 64 401 76 428 102 _c
455 127 469 161 469 205 _c
469 249 455 283 429 308 _c
402 333 365 346 318 346 _c
219 388 _m
177 398 144 418 120 447 _c
96 476 85 511 85 553 _c
85 611 105 657 147 691 _c
188 725 245 742 318 742 _c
}_e{390 742 447 725 489 691 _c
530 657 551 611 551 553 _c
551 511 539 476 515 447 _c
491 418 459 398 417 388 _c
464 377 501 355 528 323 _c
554 291 568 251 568 205 _c
568 134 546 80 503 43 _c
459 5 398 -13 318 -13 _c
237 -13 175 5 132 43 _c
89 80 68 134 68 205 _c
68 251 81 291 108 323 _c
134 355 171 377 219 388 _c
183 544 _m
183 506 194 476 218 455 _c
}_e{242 434 275 424 318 424 _c
360 424 393 434 417 455 _c
441 476 453 506 453 544 _c
453 582 441 611 417 632 _c
393 653 360 664 318 664 _c
275 664 242 653 218 632 _c
194 611 183 582 183 544 _c
_cl}_e}_d
/I{295 0 98 0 197 729 _sc
98 729 _m
197 729 _l
197 0 _l
98 0 _l
98 729 _l
_cl}_d
/L{557 0 98 0 552 729 _sc
98 729 _m
197 729 _l
197 83 _l
552 83 _l
552 0 _l
98 0 _l
98 729 _l
_cl}_d
/N{748 0 98 0 650 729 _sc
98 729 _m
231 729 _l
554 119 _l
554 729 _l
650 729 _l
650 0 _l
517 0 _l
194 610 _l
194 0 _l
98 0 _l
98 729 _l
_cl}_d
/P{603 0 98 0 569 729 _sc
197 648 _m
197 374 _l
321 374 _l
367 374 402 385 427 409 _c
452 433 465 467 465 511 _c
465 555 452 588 427 612 _c
402 636 367 648 321 648 _c
197 648 _l
98 729 _m
321 729 _l
402 729 464 710 506 673 _c
548 636 569 582 569 511 _c
569 439 548 384 506 348 _c
464 311 402 293 321 293 _c
197 293 _l
197 0 _l
98 0 _l
98 729 _l
_cl}_d
/R{{695 0 98 0 666 729 _sc
444 342 _m
465 334 486 319 506 296 _c
526 272 546 240 566 199 _c
666 0 _l
560 0 _l
467 187 _l
443 235 419 268 397 284 _c
374 300 343 308 304 308 _c
197 308 _l
197 0 _l
98 0 _l
98 729 _l
321 729 _l
404 729 466 711 507 677 _c
548 642 569 589 569 519 _c
569 473 558 434 537 404 _c
515 374 484 353 444 342 _c
197 648 _m
197 389 _l
321 389 _l
}_e{368 389 404 400 428 422 _c
452 444 465 476 465 519 _c
465 561 452 593 428 615 _c
404 637 368 648 321 648 _c
197 648 _l
_cl}_e}_d
/S{{635 0 66 -13 579 742 _sc
535 705 _m
535 609 _l
497 627 462 640 429 649 _c
395 657 363 662 333 662 _c
279 662 237 651 208 631 _c
179 610 165 580 165 542 _c
165 510 174 485 194 469 _c
213 452 250 439 304 429 _c
364 417 _l
437 403 491 378 526 343 _c
561 307 579 260 579 201 _c
579 130 555 77 508 41 _c
460 5 391 -13 300 -13 _c
265 -13 228 -9 189 -2 _c
}_e{150 5 110 16 69 32 _c
69 134 _l
109 111 148 94 186 83 _c
224 71 262 66 300 66 _c
356 66 399 77 430 99 _c
460 121 476 152 476 194 _c
476 230 465 258 443 278 _c
421 298 385 313 335 323 _c
275 335 _l
201 349 148 372 115 404 _c
82 435 66 478 66 534 _c
66 598 88 649 134 686 _c
179 723 242 742 322 742 _c
356 742 390 739 426 733 _c
461 727 497 717 535 705 _c
}_e{_cl}_e}_d
/a{{613 0 60 -13 522 560 _sc
343 275 _m
270 275 220 266 192 250 _c
164 233 150 205 150 165 _c
150 133 160 107 181 89 _c
202 70 231 61 267 61 _c
317 61 357 78 387 114 _c
417 149 432 196 432 255 _c
432 275 _l
343 275 _l
522 312 _m
522 0 _l
432 0 _l
432 83 _l
411 49 385 25 355 10 _c
325 -5 287 -13 243 -13 _c
187 -13 142 2 109 33 _c
76 64 60 106 60 159 _c
}_e{60 220 80 266 122 298 _c
163 329 224 345 306 345 _c
432 345 _l
432 354 _l
432 395 418 427 391 450 _c
364 472 326 484 277 484 _c
245 484 215 480 185 472 _c
155 464 127 453 100 439 _c
100 522 _l
132 534 164 544 195 550 _c
226 556 256 560 286 560 _c
365 560 424 539 463 498 _c
502 457 522 395 522 312 _c
_cl}_e}_d
/b{{635 0 91 -13 580 760 _sc
487 273 _m
487 339 473 390 446 428 _c
418 466 381 485 334 485 _c
286 485 249 466 222 428 _c
194 390 181 339 181 273 _c
181 207 194 155 222 117 _c
249 79 286 61 334 61 _c
381 61 418 79 446 117 _c
473 155 487 207 487 273 _c
181 464 _m
199 496 223 520 252 536 _c
281 552 316 560 356 560 _c
422 560 476 533 518 481 _c
559 428 580 359 580 273 _c
}_e{580 187 559 117 518 65 _c
476 13 422 -13 356 -13 _c
316 -13 281 -5 252 10 _c
223 25 199 49 181 82 _c
181 0 _l
91 0 _l
91 760 _l
181 760 _l
181 464 _l
_cl}_e}_d
/c{{550 0 55 -13 488 560 _sc
488 526 _m
488 442 _l
462 456 437 466 411 473 _c
385 480 360 484 334 484 _c
276 484 230 465 198 428 _c
166 391 150 339 150 273 _c
150 206 166 154 198 117 _c
230 80 276 62 334 62 _c
360 62 385 65 411 72 _c
437 79 462 90 488 104 _c
488 21 _l
462 9 436 0 410 -5 _c
383 -10 354 -13 324 -13 _c
242 -13 176 12 128 64 _c
}_e{79 115 55 185 55 273 _c
55 362 79 432 128 483 _c
177 534 244 560 330 560 _c
358 560 385 557 411 551 _c
437 545 463 537 488 526 _c
_cl}_e}_d
/d{{635 0 55 -13 544 760 _sc
454 464 _m
454 760 _l
544 760 _l
544 0 _l
454 0 _l
454 82 _l
435 49 411 25 382 10 _c
353 -5 319 -13 279 -13 _c
213 -13 159 13 117 65 _c
75 117 55 187 55 273 _c
55 359 75 428 117 481 _c
159 533 213 560 279 560 _c
319 560 353 552 382 536 _c
411 520 435 496 454 464 _c
148 273 _m
148 207 161 155 188 117 _c
215 79 253 61 301 61 _c
}_e{348 61 385 79 413 117 _c
440 155 454 207 454 273 _c
454 339 440 390 413 428 _c
385 466 348 485 301 485 _c
253 485 215 466 188 428 _c
161 390 148 339 148 273 _c
_cl}_e}_d
/e{{615 0 55 -13 562 560 _sc
562 296 _m
562 252 _l
149 252 _l
153 190 171 142 205 110 _c
238 78 284 62 344 62 _c
378 62 412 66 444 74 _c
476 82 509 95 541 113 _c
541 28 _l
509 14 476 3 442 -3 _c
408 -9 373 -13 339 -13 _c
251 -13 182 12 131 62 _c
80 112 55 181 55 268 _c
55 357 79 428 127 481 _c
175 533 241 560 323 560 _c
397 560 455 536 498 489 _c
}_e{540 441 562 377 562 296 _c
472 322 _m
471 371 457 410 431 440 _c
404 469 368 484 324 484 _c
274 484 234 469 204 441 _c
174 413 156 373 152 322 _c
472 322 _l
_cl}_e}_d
/f{352 0 23 0 371 760 _sc
371 760 _m
371 685 _l
285 685 _l
253 685 230 678 218 665 _c
205 652 199 629 199 595 _c
199 547 _l
347 547 _l
347 477 _l
199 477 _l
199 0 _l
109 0 _l
109 477 _l
23 477 _l
23 547 _l
109 547 _l
109 585 _l
109 645 123 690 151 718 _c
179 746 224 760 286 760 _c
371 760 _l
_cl}_d
/g{{635 0 55 -207 544 560 _sc
454 280 _m
454 344 440 395 414 431 _c
387 467 349 485 301 485 _c
253 485 215 467 188 431 _c
161 395 148 344 148 280 _c
148 215 161 165 188 129 _c
215 93 253 75 301 75 _c
349 75 387 93 414 129 _c
440 165 454 215 454 280 _c
544 68 _m
544 -24 523 -93 482 -139 _c
440 -184 377 -207 292 -207 _c
260 -207 231 -204 203 -200 _c
175 -195 147 -188 121 -178 _c
}_e{121 -91 _l
147 -105 173 -115 199 -122 _c
225 -129 251 -133 278 -133 _c
336 -133 380 -117 410 -87 _c
439 -56 454 -10 454 52 _c
454 96 _l
435 64 411 40 382 24 _c
353 8 319 0 279 0 _c
211 0 157 25 116 76 _c
75 127 55 195 55 280 _c
55 364 75 432 116 483 _c
157 534 211 560 279 560 _c
319 560 353 552 382 536 _c
411 520 435 496 454 464 _c
454 547 _l
544 547 _l
}_e{544 68 _l
_cl}_e}_d
/h{634 0 91 0 549 760 _sc
549 330 _m
549 0 _l
459 0 _l
459 327 _l
459 379 448 417 428 443 _c
408 469 378 482 338 482 _c
289 482 251 466 223 435 _c
195 404 181 362 181 309 _c
181 0 _l
91 0 _l
91 760 _l
181 760 _l
181 462 _l
202 494 227 519 257 535 _c
286 551 320 560 358 560 _c
420 560 468 540 500 501 _c
532 462 549 405 549 330 _c
_cl}_d
/i{278 0 94 0 184 760 _sc
94 547 _m
184 547 _l
184 0 _l
94 0 _l
94 547 _l
94 760 _m
184 760 _l
184 646 _l
94 646 _l
94 760 _l
_cl}_d
/l{278 0 94 0 184 760 _sc
94 760 _m
184 760 _l
184 0 _l
94 0 _l
94 760 _l
_cl}_d
/m{{974 0 91 0 889 560 _sc
520 442 _m
542 482 569 511 600 531 _c
631 550 668 560 711 560 _c
767 560 811 540 842 500 _c
873 460 889 403 889 330 _c
889 0 _l
799 0 _l
799 327 _l
799 379 789 418 771 444 _c
752 469 724 482 686 482 _c
639 482 602 466 575 435 _c
548 404 535 362 535 309 _c
535 0 _l
445 0 _l
445 327 _l
445 379 435 418 417 444 _c
398 469 369 482 331 482 _c
}_e{285 482 248 466 221 435 _c
194 404 181 362 181 309 _c
181 0 _l
91 0 _l
91 547 _l
181 547 _l
181 462 _l
201 495 226 520 255 536 _c
283 552 317 560 357 560 _c
397 560 430 550 458 530 _c
486 510 506 480 520 442 _c
_cl}_e}_d
/n{634 0 91 0 549 560 _sc
549 330 _m
549 0 _l
459 0 _l
459 327 _l
459 379 448 417 428 443 _c
408 469 378 482 338 482 _c
289 482 251 466 223 435 _c
195 404 181 362 181 309 _c
181 0 _l
91 0 _l
91 547 _l
181 547 _l
181 462 _l
202 494 227 519 257 535 _c
286 551 320 560 358 560 _c
420 560 468 540 500 501 _c
532 462 549 405 549 330 _c
_cl}_d
/o{612 0 55 -13 557 560 _sc
306 484 _m
258 484 220 465 192 427 _c
164 389 150 338 150 273 _c
150 207 163 156 191 118 _c
219 80 257 62 306 62 _c
354 62 392 80 420 118 _c
448 156 462 207 462 273 _c
462 337 448 389 420 427 _c
392 465 354 484 306 484 _c
306 560 _m
384 560 445 534 490 484 _c
534 433 557 363 557 273 _c
557 183 534 113 490 63 _c
445 12 384 -13 306 -13 _c
227 -13 165 12 121 63 _c
77 113 55 183 55 273 _c
55 363 77 433 121 484 _c
165 534 227 560 306 560 _c
_cl}_d
/p{{635 0 91 -207 580 560 _sc
181 82 _m
181 -207 _l
91 -207 _l
91 547 _l
181 547 _l
181 464 _l
199 496 223 520 252 536 _c
281 552 316 560 356 560 _c
422 560 476 533 518 481 _c
559 428 580 359 580 273 _c
580 187 559 117 518 65 _c
476 13 422 -13 356 -13 _c
316 -13 281 -5 252 10 _c
223 25 199 49 181 82 _c
487 273 _m
487 339 473 390 446 428 _c
418 466 381 485 334 485 _c
}_e{286 485 249 466 222 428 _c
194 390 181 339 181 273 _c
181 207 194 155 222 117 _c
249 79 286 61 334 61 _c
381 61 418 79 446 117 _c
473 155 487 207 487 273 _c
_cl}_e}_d
/r{411 0 91 0 411 560 _sc
411 463 _m
401 469 390 473 378 476 _c
366 478 353 480 339 480 _c
288 480 249 463 222 430 _c
194 397 181 350 181 288 _c
181 0 _l
91 0 _l
91 547 _l
181 547 _l
181 462 _l
199 495 224 520 254 536 _c
284 552 321 560 365 560 _c
371 560 378 559 386 559 _c
393 558 401 557 411 555 _c
411 463 _l
_cl}_d
/s{{521 0 54 -13 472 560 _sc
443 531 _m
443 446 _l
417 458 391 468 364 475 _c
336 481 308 485 279 485 _c
234 485 200 478 178 464 _c
156 450 145 430 145 403 _c
145 382 153 366 169 354 _c
185 342 217 330 265 320 _c
296 313 _l
360 299 405 279 432 255 _c
458 230 472 195 472 151 _c
472 100 452 60 412 31 _c
372 1 316 -13 246 -13 _c
216 -13 186 -10 154 -5 _c
}_e{122 0 89 8 54 20 _c
54 113 _l
87 95 120 82 152 74 _c
184 65 216 61 248 61 _c
290 61 323 68 346 82 _c
368 96 380 117 380 144 _c
380 168 371 187 355 200 _c
339 213 303 226 247 238 _c
216 245 _l
160 257 119 275 95 299 _c
70 323 58 356 58 399 _c
58 450 76 490 112 518 _c
148 546 200 560 268 560 _c
301 560 332 557 362 552 _c
391 547 418 540 443 531 _c
}_e{_cl}_e}_d
/t{392 0 27 0 368 702 _sc
183 702 _m
183 547 _l
368 547 _l
368 477 _l
183 477 _l
183 180 _l
183 135 189 106 201 94 _c
213 81 238 75 276 75 _c
368 75 _l
368 0 _l
276 0 _l
206 0 158 13 132 39 _c
106 65 93 112 93 180 _c
93 477 _l
27 477 _l
27 547 _l
93 547 _l
93 702 _l
183 702 _l
_cl}_d
/u{634 0 85 -13 543 560 _sc
85 216 _m
85 547 _l
175 547 _l
175 219 _l
175 167 185 129 205 103 _c
225 77 255 64 296 64 _c
344 64 383 79 411 110 _c
439 141 453 183 453 237 _c
453 547 _l
543 547 _l
543 0 _l
453 0 _l
453 84 _l
431 50 405 26 377 10 _c
348 -5 315 -13 277 -13 _c
214 -13 166 6 134 45 _c
101 83 85 140 85 216 _c
311 560 _m
311 560 _l
_cl}_d
/v{592 0 30 0 562 547 _sc
30 547 _m
125 547 _l
296 88 _l
467 547 _l
562 547 _l
357 0 _l
235 0 _l
30 547 _l
_cl}_d
/x{592 0 29 0 559 547 _sc
549 547 _m
351 281 _l
559 0 _l
453 0 _l
294 215 _l
135 0 _l
29 0 _l
241 286 _l
47 547 _l
153 547 _l
298 352 _l
443 547 _l
549 547 _l
_cl}_d
end readonly def

/BuildGlyph
 {exch begin
 CharStrings exch
 2 copy known not{pop /.notdef}if
 true 3 1 roll get exec
 end}_d

/BuildChar {
 1 index /Encoding get exch get
 1 index /BuildGlyph get exec
}_d

FontName currentdict end definefont pop
end
%%EndProlog
mpldict begin
75.6 223.2 translate
460.8 345.6 0 0 clipbox
gsave
0 0 m
460.8 0 l
460.8 345.6 l
0 345.6 l
cl
1.000 setgray
fill
grestore
gsave
57.6 38.016 m
456.192 38.016 l
456.192 321.408 l
57.6 321.408 l
cl
1.000 setgray
fill
grestore
0.800 setlinewidth
1 setlinejoin
0 setlinecap
[] 0 setdash
0.000 setgray
gsave
/o {
gsave
newpath
translate
0.8 setlinewidth
1 setlinejoin
0 setlinecap
0 0 m
0 -3.5 l

gsave
0.000 setgray
fill
grestore
stroke
grestore
} bind def
57.6 38.016 o
grestore
gsave
48.600000 22.094125 translate
0.000000 rotate
/DejaVuSans findfont
10.0 scalefont
setfont
0.000000 0.976562 moveto
/one glyphshow

6.362305 0.976562 moveto
/zero glyphshow

/DejaVuSans findfont
7.0 scalefont
setfont
12.820312 4.804688 moveto
/zero glyphshow


grestore
gsave
/o {
gsave
newpath
translate
0.8 setlinewidth
1 setlinejoin
0 setlinecap
0 0 m
0 -3.5 l

gsave
0.000 setgray
fill
grestore
stroke
grestore
} bind def
121.776 38.016 o
grestore
gsave
112.775506 23.094125 translate
0.000000 rotate
/DejaVuSans findfont
10.0 scalefont
setfont
0.000000 0.064063 moveto
/one glyphshow

6.362305 0.064063 moveto
/zero glyphshow

/DejaVuSans findfont
7.0 scalefont
setfont
12.820312 3.892188 moveto
/one glyphshow


grestore
gsave
/o {
gsave
newpath
translate
0.8 setlinewidth
1 setlinejoin
0 setlinecap
0 0 m
0 -3.5 l

gsave
0.000 setgray
fill
grestore
stroke
grestore
} bind def
185.951 38.016 o
grestore
gsave
176.951013 22.094125 translate
0.000000 rotate
/DejaVuSans findfont
10.0 scalefont
setfont
0.000000 0.976562 moveto
/one glyphshow

6.362305 0.976562 moveto
/zero glyphshow

/DejaVuSans findfont
7.0 scalefont
setfont
12.820312 4.804688 moveto
/two glyphshow


grestore
gsave
/o {
gsave
newpath
translate
0.8 setlinewidth
1 setlinejoin
0 setlinecap
0 0 m
0 -3.5 l

gsave
0.000 setgray
fill
grestore
stroke
grestore
} bind def
250.127 38.016 o
grestore
gsave
241.126519 22.094125 translate
0.000000 rotate
/DejaVuSans findfont
10.0 scalefont
setfont
0.000000 0.976562 moveto
/one glyphshow

6.362305 0.976562 moveto
/zero glyphshow

/DejaVuSans findfont
7.0 scalefont
setfont
12.820312 4.804688 moveto
/three glyphshow


grestore
gsave
/o {
gsave
newpath
translate
0.8 setlinewidth
1 setlinejoin
0 setlinecap
0 0 m
0 -3.5 l

gsave
0.000 setgray
fill
grestore
stroke
grestore
} bind def
314.302 38.016 o
grestore
gsave
305.302026 23.094125 translate
0.000000 rotate
/DejaVuSans findfont
10.0 scalefont
setfont
0.000000 0.064063 moveto
/one glyphshow

6.362305 0.064063 moveto
/zero glyphshow

/DejaVuSans findfont
7.0 scalefont
setfont
12.820312 3.892188 moveto
/four glyphshow


grestore
gsave
/o {
gsave
newpath
translate
0.8 setlinewidth
1 setlinejoin
0 setlinecap
0 0 m
0 -3.5 l

gsave
0.000 setgray
fill
grestore
stroke
grestore
} bind def
378.478 38.016 o
grestore
gsave
369.477532 23.094125 translate
0.000000 rotate
/DejaVuSans findfont
10.0 scalefont
setfont
0.000000 0.064063 moveto
/one glyphshow

6.362305 0.064063 moveto
/zero glyphshow

/DejaVuSans findfont
7.0 scalefont
setfont
12.820312 3.892188 moveto
/five glyphshow


grestore
gsave
/o {
gsave
newpath
translate
0.8 setlinewidth
1 setlinejoin
0 setlinecap
0 0 m
0 -3.5 l

gsave
0.000 setgray
fill
grestore
stroke
grestore
} bind def
442.653 38.016 o
grestore
gsave
433.653039 22.094125 translate
0.000000 rotate
/DejaVuSans findfont
10.0 scalefont
setfont
0.000000 0.976562 moveto
/one glyphshow

6.362305 0.976562 moveto
/zero glyphshow

/DejaVuSans findfont
7.0 scalefont
setfont
12.820312 4.804688 moveto
/six glyphshow


grestore
0.600 setlinewidth
gsave
/o {
gsave
newpath
translate
0.6 setlinewidth
1 setlinejoin
0 setlinecap
0 0 m
0 -2 l

gsave
0.000 setgray
fill
grestore
stroke
grestore
} bind def
76.9188 38.016 o
grestore
gsave
/o {
gsave
newpath
translate
0.6 setlinewidth
1 setlinejoin
0 setlinecap
0 0 m
0 -2 l

gsave
0.000 setgray
fill
grestore
stroke
grestore
} bind def
88.2195 38.016 o
grestore
gsave
/o {
gsave
newpath
translate
0.6 setlinewidth
1 setlinejoin
0 setlinecap
0 0 m
0 -2 l

gsave
0.000 setgray
fill
grestore
stroke
grestore
} bind def
96.2375 38.016 o
grestore
gsave
/o {
gsave
newpath
translate
0.6 setlinewidth
1 setlinejoin
0 setlinecap
0 0 m
0 -2 l

gsave
0.000 setgray
fill
grestore
stroke
grestore
} bind def
102.457 38.016 o
grestore
gsave
/o {
gsave
newpath
translate
0.6 setlinewidth
1 setlinejoin
0 setlinecap
0 0 m
0 -2 l

gsave
0.000 setgray
fill
grestore
stroke
grestore
} bind def
107.538 38.016 o
grestore
gsave
/o {
gsave
newpath
translate
0.6 setlinewidth
1 setlinejoin
0 setlinecap
0 0 m
0 -2 l

gsave
0.000 setgray
fill
grestore
stroke
grestore
} bind def
111.835 38.016 o
grestore
gsave
/o {
gsave
newpath
translate
0.6 setlinewidth
1 setlinejoin
0 setlinecap
0 0 m
0 -2 l

gsave
0.000 setgray
fill
grestore
stroke
grestore
} bind def
115.556 38.016 o
grestore
gsave
/o {
gsave
newpath
translate
0.6 setlinewidth
1 setlinejoin
0 setlinecap
0 0 m
0 -2 l

gsave
0.000 setgray
fill
grestore
stroke
grestore
} bind def
118.839 38.016 o
grestore
gsave
/o {
gsave
newpath
translate
0.6 setlinewidth
1 setlinejoin
0 setlinecap
0 0 m
0 -2 l

gsave
0.000 setgray
fill
grestore
stroke
grestore
} bind def
141.094 38.016 o
grestore
gsave
/o {
gsave
newpath
translate
0.6 setlinewidth
1 setlinejoin
0 setlinecap
0 0 m
0 -2 l

gsave
0.000 setgray
fill
grestore
stroke
grestore
} bind def
152.395 38.016 o
grestore
gsave
/o {
gsave
newpath
translate
0.6 setlinewidth
1 setlinejoin
0 setlinecap
0 0 m
0 -2 l

gsave
0.000 setgray
fill
grestore
stroke
grestore
} bind def
160.413 38.016 o
grestore
gsave
/o {
gsave
newpath
translate
0.6 setlinewidth
1 setlinejoin
0 setlinecap
0 0 m
0 -2 l

gsave
0.000 setgray
fill
grestore
stroke
grestore
} bind def
166.632 38.016 o
grestore
gsave
/o {
gsave
newpath
translate
0.6 setlinewidth
1 setlinejoin
0 setlinecap
0 0 m
0 -2 l

gsave
0.000 setgray
fill
grestore
stroke
grestore
} bind def
171.714 38.016 o
grestore
gsave
/o {
gsave
newpath
translate
0.6 setlinewidth
1 setlinejoin
0 setlinecap
0 0 m
0 -2 l

gsave
0.000 setgray
fill
grestore
stroke
grestore
} bind def
176.01 38.016 o
grestore
gsave
/o {
gsave
newpath
translate
0.6 setlinewidth
1 setlinejoin
0 setlinecap
0 0 m
0 -2 l

gsave
0.000 setgray
fill
grestore
stroke
grestore
} bind def
179.732 38.016 o
grestore
gsave
/o {
gsave
newpath
translate
0.6 setlinewidth
1 setlinejoin
0 setlinecap
0 0 m
0 -2 l

gsave
0.000 setgray
fill
grestore
stroke
grestore
} bind def
183.015 38.016 o
grestore
gsave
/o {
gsave
newpath
translate
0.6 setlinewidth
1 setlinejoin
0 setlinecap
0 0 m
0 -2 l

gsave
0.000 setgray
fill
grestore
stroke
grestore
} bind def
205.27 38.016 o
grestore
gsave
/o {
gsave
newpath
translate
0.6 setlinewidth
1 setlinejoin
0 setlinecap
0 0 m
0 -2 l

gsave
0.000 setgray
fill
grestore
stroke
grestore
} bind def
216.571 38.016 o
grestore
gsave
/o {
gsave
newpath
translate
0.6 setlinewidth
1 setlinejoin
0 setlinecap
0 0 m
0 -2 l

gsave
0.000 setgray
fill
grestore
stroke
grestore
} bind def
224.589 38.016 o
grestore
gsave
/o {
gsave
newpath
translate
0.6 setlinewidth
1 setlinejoin
0 setlinecap
0 0 m
0 -2 l

gsave
0.000 setgray
fill
grestore
stroke
grestore
} bind def
230.808 38.016 o
grestore
gsave
/o {
gsave
newpath
translate
0.6 setlinewidth
1 setlinejoin
0 setlinecap
0 0 m
0 -2 l

gsave
0.000 setgray
fill
grestore
stroke
grestore
} bind def
235.889 38.016 o
grestore
gsave
/o {
gsave
newpath
translate
0.6 setlinewidth
1 setlinejoin
0 setlinecap
0 0 m
0 -2 l

gsave
0.000 setgray
fill
grestore
stroke
grestore
} bind def
240.186 38.016 o
grestore
gsave
/o {
gsave
newpath
translate
0.6 setlinewidth
1 setlinejoin
0 setlinecap
0 0 m
0 -2 l

gsave
0.000 setgray
fill
grestore
stroke
grestore
} bind def
243.907 38.016 o
grestore
gsave
/o {
gsave
newpath
translate
0.6 setlinewidth
1 setlinejoin
0 setlinecap
0 0 m
0 -2 l

gsave
0.000 setgray
fill
grestore
stroke
grestore
} bind def
247.19 38.016 o
grestore
gsave
/o {
gsave
newpath
translate
0.6 setlinewidth
1 setlinejoin
0 setlinecap
0 0 m
0 -2 l

gsave
0.000 setgray
fill
grestore
stroke
grestore
} bind def
269.445 38.016 o
grestore
gsave
/o {
gsave
newpath
translate
0.6 setlinewidth
1 setlinejoin
0 setlinecap
0 0 m
0 -2 l

gsave
0.000 setgray
fill
grestore
stroke
grestore
} bind def
280.746 38.016 o
grestore
gsave
/o {
gsave
newpath
translate
0.6 setlinewidth
1 setlinejoin
0 setlinecap
0 0 m
0 -2 l

gsave
0.000 setgray
fill
grestore
stroke
grestore
} bind def
288.764 38.016 o
grestore
gsave
/o {
gsave
newpath
translate
0.6 setlinewidth
1 setlinejoin
0 setlinecap
0 0 m
0 -2 l

gsave
0.000 setgray
fill
grestore
stroke
grestore
} bind def
294.983 38.016 o
grestore
gsave
/o {
gsave
newpath
translate
0.6 setlinewidth
1 setlinejoin
0 setlinecap
0 0 m
0 -2 l

gsave
0.000 setgray
fill
grestore
stroke
grestore
} bind def
300.065 38.016 o
grestore
gsave
/o {
gsave
newpath
translate
0.6 setlinewidth
1 setlinejoin
0 setlinecap
0 0 m
0 -2 l

gsave
0.000 setgray
fill
grestore
stroke
grestore
} bind def
304.361 38.016 o
grestore
gsave
/o {
gsave
newpath
translate
0.6 setlinewidth
1 setlinejoin
0 setlinecap
0 0 m
0 -2 l

gsave
0.000 setgray
fill
grestore
stroke
grestore
} bind def
308.083 38.016 o
grestore
gsave
/o {
gsave
newpath
translate
0.6 setlinewidth
1 setlinejoin
0 setlinecap
0 0 m
0 -2 l

gsave
0.000 setgray
fill
grestore
stroke
grestore
} bind def
311.366 38.016 o
grestore
gsave
/o {
gsave
newpath
translate
0.6 setlinewidth
1 setlinejoin
0 setlinecap
0 0 m
0 -2 l

gsave
0.000 setgray
fill
grestore
stroke
grestore
} bind def
333.621 38.016 o
grestore
gsave
/o {
gsave
newpath
translate
0.6 setlinewidth
1 setlinejoin
0 setlinecap
0 0 m
0 -2 l

gsave
0.000 setgray
fill
grestore
stroke
grestore
} bind def
344.922 38.016 o
grestore
gsave
/o {
gsave
newpath
translate
0.6 setlinewidth
1 setlinejoin
0 setlinecap
0 0 m
0 -2 l

gsave
0.000 setgray
fill
grestore
stroke
grestore
} bind def
352.94 38.016 o
grestore
gsave
/o {
gsave
newpath
translate
0.6 setlinewidth
1 setlinejoin
0 setlinecap
0 0 m
0 -2 l

gsave
0.000 setgray
fill
grestore
stroke
grestore
} bind def
359.159 38.016 o
grestore
gsave
/o {
gsave
newpath
translate
0.6 setlinewidth
1 setlinejoin
0 setlinecap
0 0 m
0 -2 l

gsave
0.000 setgray
fill
grestore
stroke
grestore
} bind def
364.24 38.016 o
grestore
gsave
/o {
gsave
newpath
translate
0.6 setlinewidth
1 setlinejoin
0 setlinecap
0 0 m
0 -2 l

gsave
0.000 setgray
fill
grestore
stroke
grestore
} bind def
368.537 38.016 o
grestore
gsave
/o {
gsave
newpath
translate
0.6 setlinewidth
1 setlinejoin
0 setlinecap
0 0 m
0 -2 l

gsave
0.000 setgray
fill
grestore
stroke
grestore
} bind def
372.258 38.016 o
grestore
gsave
/o {
gsave
newpath
translate
0.6 setlinewidth
1 setlinejoin
0 setlinecap
0 0 m
0 -2 l

gsave
0.000 setgray
fill
grestore
stroke
grestore
} bind def
375.541 38.016 o
grestore
gsave
/o {
gsave
newpath
translate
0.6 setlinewidth
1 setlinejoin
0 setlinecap
0 0 m
0 -2 l

gsave
0.000 setgray
fill
grestore
stroke
grestore
} bind def
397.796 38.016 o
grestore
gsave
/o {
gsave
newpath
translate
0.6 setlinewidth
1 setlinejoin
0 setlinecap
0 0 m
0 -2 l

gsave
0.000 setgray
fill
grestore
stroke
grestore
} bind def
409.097 38.016 o
grestore
gsave
/o {
gsave
newpath
translate
0.6 setlinewidth
1 setlinejoin
0 setlinecap
0 0 m
0 -2 l

gsave
0.000 setgray
fill
grestore
stroke
grestore
} bind def
417.115 38.016 o
grestore
gsave
/o {
gsave
newpath
translate
0.6 setlinewidth
1 setlinejoin
0 setlinecap
0 0 m
0 -2 l

gsave
0.000 setgray
fill
grestore
stroke
grestore
} bind def
423.334 38.016 o
grestore
gsave
/o {
gsave
newpath
translate
0.6 setlinewidth
1 setlinejoin
0 setlinecap
0 0 m
0 -2 l

gsave
0.000 setgray
fill
grestore
stroke
grestore
} bind def
428.416 38.016 o
grestore
gsave
/o {
gsave
newpath
translate
0.6 setlinewidth
1 setlinejoin
0 setlinecap
0 0 m
0 -2 l

gsave
0.000 setgray
fill
grestore
stroke
grestore
} bind def
432.712 38.016 o
grestore
gsave
/o {
gsave
newpath
translate
0.6 setlinewidth
1 setlinejoin
0 setlinecap
0 0 m
0 -2 l

gsave
0.000 setgray
fill
grestore
stroke
grestore
} bind def
436.434 38.016 o
grestore
gsave
/o {
gsave
newpath
translate
0.6 setlinewidth
1 setlinejoin
0 setlinecap
0 0 m
0 -2 l

gsave
0.000 setgray
fill
grestore
stroke
grestore
} bind def
439.717 38.016 o
grestore
/DejaVuSans findfont
10.000 scalefont
setfont
gsave
186.692875 8.422250 translate
0.000000 rotate
0.000000 0.000000 m /L glyphshow
5.571289 0.000000 m /i glyphshow
8.349609 0.000000 m /m glyphshow
18.090820 0.000000 m /i glyphshow
20.869141 0.000000 m /t glyphshow
24.790039 0.000000 m /space glyphshow
27.968750 0.000000 m /o glyphshow
34.086914 0.000000 m /n glyphshow
40.424805 0.000000 m /space glyphshow
43.603516 0.000000 m /n glyphshow
49.941406 0.000000 m /u glyphshow
56.279297 0.000000 m /m glyphshow
66.020508 0.000000 m /b glyphshow
72.368164 0.000000 m /e glyphshow
78.520508 0.000000 m /r glyphshow
82.631836 0.000000 m /space glyphshow
85.810547 0.000000 m /o glyphshow
91.928711 0.000000 m /f glyphshow
95.449219 0.000000 m /space glyphshow
98.627930 0.000000 m /c glyphshow
104.125977 0.000000 m /o glyphshow
110.244141 0.000000 m /n glyphshow
116.582031 0.000000 m /f glyphshow
120.102539 0.000000 m /l glyphshow
122.880859 0.000000 m /i glyphshow
125.659180 0.000000 m /c glyphshow
131.157227 0.000000 m /t glyphshow
135.078125 0.000000 m /s glyphshow
grestore
0.800 setlinewidth
gsave
/o {
gsave
newpath
translate
0.8 setlinewidth
1 setlinejoin
0 setlinecap
0 0 m
-3.5 0 l

gsave
0.000 setgray
fill
grestore
stroke
grestore
} bind def
57.6 38.016 o
grestore
gsave
44.240625 34.219125 translate
0.000000 rotate
0.000000 0.000000 m /zero glyphshow
grestore
gsave
/o {
gsave
newpath
translate
0.8 setlinewidth
1 setlinejoin
0 setlinecap
0 0 m
-3.5 0 l

gsave
0.000 setgray
fill
grestore
stroke
grestore
} bind def
57.6 69.504 o
grestore
gsave
31.521875 65.707125 translate
0.000000 rotate
0.000000 0.000000 m /two glyphshow
6.362305 0.000000 m /zero glyphshow
12.724609 0.000000 m /zero glyphshow
grestore
gsave
/o {
gsave
newpath
translate
0.8 setlinewidth
1 setlinejoin
0 setlinecap
0 0 m
-3.5 0 l

gsave
0.000 setgray
fill
grestore
stroke
grestore
} bind def
57.6 100.992 o
grestore
gsave
31.521875 97.195125 translate
0.000000 rotate
0.000000 0.000000 m /four glyphshow
6.362305 0.000000 m /zero glyphshow
12.724609 0.000000 m /zero glyphshow
grestore
gsave
/o {
gsave
newpath
translate
0.8 setlinewidth
1 setlinejoin
0 setlinecap
0 0 m
-3.5 0 l

gsave
0.000 setgray
fill
grestore
stroke
grestore
} bind def
57.6 132.48 o
grestore
gsave
31.521875 128.683125 translate
0.000000 rotate
0.000000 0.000000 m /six glyphshow
6.362305 0.000000 m /zero glyphshow
12.724609 0.000000 m /zero glyphshow
grestore
gsave
/o {
gsave
newpath
translate
0.8 setlinewidth
1 setlinejoin
0 setlinecap
0 0 m
-3.5 0 l

gsave
0.000 setgray
fill
grestore
stroke
grestore
} bind def
57.6 163.968 o
grestore
gsave
31.521875 160.171125 translate
0.000000 rotate
0.000000 0.000000 m /eight glyphshow
6.362305 0.000000 m /zero glyphshow
12.724609 0.000000 m /zero glyphshow
grestore
gsave
/o {
gsave
newpath
translate
0.8 setlinewidth
1 setlinejoin
0 setlinecap
0 0 m
-3.5 0 l

gsave
0.000 setgray
fill
grestore
stroke
grestore
} bind def
57.6 195.456 o
grestore
gsave
25.162500 191.659125 translate
0.000000 rotate
0.000000 0.000000 m /one glyphshow
6.362305 0.000000 m /zero glyphshow
12.724609 0.000000 m /zero glyphshow
19.086914 0.000000 m /zero glyphshow
grestore
gsave
/o {
gsave
newpath
translate
0.8 setlinewidth
1 setlinejoin
0 setlinecap
0 0 m
-3.5 0 l

gsave
0.000 setgray
fill
grestore
stroke
grestore
} bind def
57.6 226.944 o
grestore
gsave
25.162500 223.147125 translate
0.000000 rotate
0.000000 0.000000 m /one glyphshow
6.362305 0.000000 m /two glyphshow
12.724609 0.000000 m /zero glyphshow
19.086914 0.000000 m /zero glyphshow
grestore
gsave
/o {
gsave
newpath
translate
0.8 setlinewidth
1 setlinejoin
0 setlinecap
0 0 m
-3.5 0 l

gsave
0.000 setgray
fill
grestore
stroke
grestore
} bind def
57.6 258.432 o
grestore
gsave
25.162500 254.635125 translate
0.000000 rotate
0.000000 0.000000 m /one glyphshow
6.362305 0.000000 m /four glyphshow
12.724609 0.000000 m /zero glyphshow
19.086914 0.000000 m /zero glyphshow
grestore
gsave
/o {
gsave
newpath
translate
0.8 setlinewidth
1 setlinejoin
0 setlinecap
0 0 m
-3.5 0 l

gsave
0.000 setgray
fill
grestore
stroke
grestore
} bind def
57.6 289.92 o
grestore
gsave
25.162500 286.123125 translate
0.000000 rotate
0.000000 0.000000 m /one glyphshow
6.362305 0.000000 m /six glyphshow
12.724609 0.000000 m /zero glyphshow
19.086914 0.000000 m /zero glyphshow
grestore
gsave
/o {
gsave
newpath
translate
0.8 setlinewidth
1 setlinejoin
0 setlinecap
0 0 m
-3.5 0 l

gsave
0.000 setgray
fill
grestore
stroke
grestore
} bind def
57.6 321.408 o
grestore
gsave
25.162500 317.611125 translate
0.000000 rotate
0.000000 0.000000 m /one glyphshow
6.362305 0.000000 m /eight glyphshow
12.724609 0.000000 m /zero glyphshow
19.086914 0.000000 m /zero glyphshow
grestore
gsave
19.084375 109.938562 translate
90.000000 rotate
0.000000 0.000000 m /N glyphshow
7.480469 0.000000 m /u glyphshow
13.818359 0.000000 m /m glyphshow
23.559570 0.000000 m /b glyphshow
29.907227 0.000000 m /e glyphshow
36.059570 0.000000 m /r glyphshow
40.170898 0.000000 m /space glyphshow
43.349609 0.000000 m /o glyphshow
49.467773 0.000000 m /f glyphshow
52.988281 0.000000 m /space glyphshow
56.166992 0.000000 m /s glyphshow
61.376953 0.000000 m /o glyphshow
67.495117 0.000000 m /l glyphshow
70.273438 0.000000 m /v glyphshow
76.191406 0.000000 m /e glyphshow
82.343750 0.000000 m /d glyphshow
88.691406 0.000000 m /space glyphshow
91.870117 0.000000 m /i glyphshow
94.648438 0.000000 m /n glyphshow
100.986328 0.000000 m /s glyphshow
106.196289 0.000000 m /t glyphshow
110.117188 0.000000 m /a glyphshow
116.245117 0.000000 m /n glyphshow
122.583008 0.000000 m /c glyphshow
128.081055 0.000000 m /e glyphshow
134.233398 0.000000 m /s glyphshow
grestore
1.500 setlinewidth
2 setlinecap
0.122 0.467 0.706 setrgbcolor
gsave
398.6 283.4 57.6 38.02 clipbox
-1 166.644336 m
57.6 166.64448 l
57.6 171.0528 l
76.918752 171.21024 l
76.918752 171.84 l
88.219498 171.99744 l
88.219498 172.31232 l
96.237505 172.46976 l
96.237505 172.6272 l
102.456754 172.78464 l
102.456754 172.94208 l
107.538251 173.09952 l
107.538251 173.72928 l
111.834595 173.88672 l
111.834595 174.2016 l
115.556257 174.35904 l
115.556257 174.9888 l
118.838996 175.14624 l
118.838996 176.09088 l
121.775506 176.24832 l
121.775506 177.03552 l
124.431903 177.19296 l
124.431903 177.3504 l
126.857003 177.50784 l
126.857003 177.98016 l
129.087879 178.1376 l
129.087879 178.45248 l
131.153347 178.60992 l
131.153347 182.23104 l
133.076252 182.38848 l
133.076252 183.49056 l
134.87501 183.648 l
134.87501 183.80544 l
136.564683 183.96288 l
136.564683 184.12032 l
138.157749 184.27776 l
138.157749 184.59264 l
139.66466 184.75008 l
139.66466 184.90752 l
141.094259 185.06496 l
141.094259 185.37984 l
142.454093 185.53728 l
142.454093 186.32448 l
143.750655 186.48192 l
143.750655 186.7968 l
144.989574 186.95424 l
144.989574 187.42656 l
146.175755 187.584 l
146.175755 187.89888 l
147.313508 188.05632 l
147.313508 188.68608 l
148.406631 188.84352 l
148.406631 189.1584 l
149.458494 189.31584 l
149.458494 189.47328 l
150.4721 189.63072 l
150.4721 190.26048 l
152.395005 190.57536 l
152.395005 191.20512 l
153.308892 191.36256 l
153.308892 191.99232 l
154.193762 192.14976 l
154.193762 192.93696 l
155.051401 193.0944 l
155.051401 193.8816 l
155.883435 194.03904 l
155.883435 194.19648 l
157.476501 194.51136 l
157.476501 194.98368 l
158.24014 195.14112 l
158.24014 195.61344 l
158.983412 195.77088 l
158.983412 196.08576 l
159.707377 196.2432 l
159.707377 196.71552 l
160.413011 196.87296 l
160.413011 197.0304 l
161.101221 197.18784 l
161.101221 197.34528 l
161.772845 197.50272 l
161.772845 197.97504 l
162.428665 198.13248 l
162.428665 198.44736 l
163.069408 198.6048 l
163.069408 198.91968 l
163.69575 199.07712 l
163.69575 200.1792 l
164.308326 200.33664 l
164.308326 200.65152 l
164.907727 200.80896 l
164.907727 200.9664 l
165.494508 201.12384 l
165.494508 201.43872 l
166.069189 201.59616 l
166.069189 201.7536 l
166.63226 201.91104 l
166.63226 202.38336 l
167.184181 202.5408 l
167.184181 203.17056 l
167.725384 203.328 l
167.725384 203.95776 l
168.256277 204.1152 l
168.256277 204.27264 l
168.777247 204.43008 l
168.777247 204.58752 l
169.288657 204.74496 l
169.288657 204.9024 l
170.284158 205.21728 l
170.284158 205.37472 l
170.768885 205.53216 l
170.768885 205.6896 l
171.245325 205.84704 l
171.245325 206.00448 l
172.174446 206.16192 l
172.174446 206.4768 l
173.073591 206.63424 l
173.073591 206.94912 l
173.512515 207.10656 l
173.512515 207.57888 l
173.944633 207.73632 l
173.944633 207.89376 l
174.370154 208.0512 l
175.202188 208.20864 l
175.202188 208.36608 l
175.609072 208.52352 l
175.609072 208.8384 l
176.010101 208.99584 l
176.010101 209.15328 l
177.179688 209.31072 l
177.179688 209.6256 l
177.933006 209.94048 l
177.933006 210.4128 l
178.302165 210.57024 l
178.302165 210.72768 l
179.38118 211.04256 l
180.077993 211.35744 l
180.077993 211.67232 l
180.757808 211.9872 l
181.421437 212.14464 l
181.421437 212.30208 l
182.06963 212.61696 l
182.06963 212.7744 l
182.38816 212.93184 l
182.38816 213.24672 l
183.014503 213.5616 l
183.014503 213.71904 l
183.322473 213.87648 l
183.322473 214.03392 l
183.627078 214.19136 l
183.627078 214.3488 l
183.92839 214.50624 l
184.81326 214.82112 l
185.387942 215.136 l
185.387942 215.29344 l
185.670899 215.45088 l
186.228339 215.60832 l
186.228339 215.76576 l
187.310847 215.9232 l
187.310847 216.08064 l
187.836732 216.23808 l
187.836732 216.39552 l
188.352877 216.55296 l
188.352877 216.7104 l
188.607409 216.86784 l
188.607409 217.02528 l
188.859638 217.18272 l
189.846328 217.34016 l
189.846328 217.4976 l
190.087637 217.65504 l
190.087637 217.81248 l
190.326875 217.96992 l
190.326875 218.2848 l
190.799277 218.59968 l
190.799277 218.75712 l
191.032509 218.91456 l
191.493199 219.072 l
191.493199 219.22944 l
191.946397 219.38688 l
191.946397 219.54432 l
192.170262 219.70176 l
192.170262 220.01664 l
192.831267 220.48896 l
192.831267 220.6464 l
193.688906 220.96128 l
193.688906 221.11872 l
194.108028 221.27616 l
194.108028 221.4336 l
194.52094 221.74848 l
194.927824 221.90592 l
194.927824 222.2208 l
195.527225 222.37824 l
195.527225 222.53568 l
195.919782 222.85056 l
195.919782 223.008 l
196.498441 223.48032 l
197.803679 224.11008 l
197.803679 224.5824 l
198.165646 224.73984 l
199.050516 224.89728 l
199.050516 225.05472 l
199.224168 225.21216 l
199.224168 225.3696 l
199.56826 225.52704 l
199.56826 225.68448 l
200.076561 226.1568 l
200.076561 226.31424 l
200.243955 226.47168 l
200.243955 226.62912 l
200.41035 226.78656 l
200.41035 227.25888 l
201.06617 227.57376 l
201.06617 227.7312 l
201.388383 228.04608 l
201.388383 228.36096 l
202.021843 228.67584 l
202.021843 228.83328 l
202.177984 228.99072 l
203.545232 229.3056 l
204.564131 229.77792 l
205.13006 230.0928 l
205.684727 230.72256 l
206.762004 231.19488 l
206.762004 231.35232 l
207.926162 232.61184 l
208.552504 232.76928 l
208.552504 232.92672 l
208.799153 233.39904 l
208.799153 233.55648 l
209.645628 234.0288 l
210.000678 234.34368 l
210.925943 234.97344 l
210.925943 235.28832 l
211.265149 235.44576 l
211.265149 235.6032 l
211.489014 235.76064 l
212.150019 235.91808 l
212.258679 236.23296 l
213.007658 236.86272 l
213.007658 237.02016 l
213.322589 237.33504 l
213.42678 237.80736 l
213.737036 237.9648 l
213.737036 238.12224 l
214.145411 238.43712 l
214.145411 238.59456 l
214.647606 238.752 l
215.042947 239.38176 l
215.529365 239.5392 l
215.817193 240.01152 l
216.102079 240.16896 l
216.102079 240.48384 l
217.213365 241.27104 l
217.484398 241.42848 l
217.484398 241.58592 l
218.106745 241.9008 l
218.887012 242.37312 l
218.887012 242.53056 l
219.311238 242.84544 l
219.562708 243.16032 l
219.646029 243.4752 l
220.140795 243.79008 l
220.222409 243.94752 l
220.866855 244.2624 l
221.883304 244.57728 l
222.565895 245.0496 l
222.715338 245.36448 l
222.78976 245.52192 l
223.59555 245.99424 l
223.882883 246.46656 l
224.518753 246.624 l
224.518753 246.78144 l
224.796771 246.93888 l
224.796771 247.09632 l
225.344623 247.56864 l
225.344623 247.72608 l
225.748558 247.88352 l
225.815315 248.04096 l
226.343693 248.35584 l
226.409041 248.67072 l
227.181499 248.9856 l
227.434299 249.14304 l
227.497143 249.7728 l
228.725142 249.93024 l
228.845018 250.24512 l
229.378168 250.40256 l
229.553642 250.71744 l
230.358224 251.03232 l
230.974494 251.3472 l
231.029848 251.66208 l
231.84724 252.1344 l
232.326411 253.39392 l
233.413443 253.55136 l
233.716392 253.86624 l
233.816648 254.18112 l
233.816648 254.33856 l
234.654568 254.81088 l
234.944391 255.12576 l
235.278752 255.2832 l
235.278752 255.44064 l
236.028272 256.22784 l
236.395606 256.38528 l
236.441184 256.70016 l
236.758161 257.01504 l
237.731536 257.32992 l
238.461074 257.95968 l
238.964782 258.11712 l
239.089299 258.58944 l
239.089299 258.74688 l
240.145763 259.06176 l
240.97076 259.69152 l
240.97076 259.84896 l
241.24042 260.0064 l
241.24042 260.16384 l
241.734399 260.47872 l
241.922083 260.63616 l
242.293703 260.7936 l
243.05834 260.95104 l
243.273009 261.42336 l
244.011591 261.5808 l
244.150081 261.73824 l
244.59548 262.05312 l
245.366466 262.52544 l
245.858032 262.84032 l
245.890497 262.99776 l
246.245137 263.1552 l
247.159024 267.8784 l
247.559168 268.03584 l
249.277589 268.19328 l
250.182206 268.50816 l
250.814729 268.6656 l
250.896184 268.98048 l
251.379975 269.29536 l
251.406608 269.4528 l
253.827271 269.92512 l
254.021834 270.24 l
254.406933 270.39744 l
254.621235 270.71232 l
254.904432 270.86976 l
256.390327 271.34208 l
256.501411 271.49952 l
257.093735 271.8144 l
257.906609 271.97184 l
257.948742 272.12928 l
258.387337 272.44416 l
261.352843 273.07392 l
261.464402 273.23136 l
262.106409 273.70368 l
262.484633 274.01856 l
262.520388 274.176 l
265.354875 274.80576 l
265.866579 274.9632 l
268.263937 275.43552 l
268.322032 275.59296 l
268.653748 275.90784 l
268.682407 276.06528 l
269.122897 276.38016 l
271.239674 276.69504 l
271.304931 276.85248 l
271.6547 277.00992 l
273.20697 277.3248 l
273.461502 277.48224 l
276.423338 277.79712 l
278.056156 278.112 l
278.107267 278.26944 l
278.310781 278.42688 l
278.310781 278.58432 l
278.703408 278.8992 l
279.501609 279.21408 l
281.087658 279.52896 l
281.096834 279.6864 l
282.623052 280.31616 l
284.365298 280.4736 l
285.484769 280.94592 l
286.356655 281.2608 l
286.356655 281.41824 l
286.658865 281.57568 l
288.497983 281.89056 l
289.151513 282.20544 l
289.356901 282.52032 l
289.937429 282.67776 l
290.947694 282.8352 l
291.005618 282.99264 l
291.236117 283.15008 l
292.888632 283.6224 l
293.211259 284.09472 l
294.019173 284.56704 l
294.380358 284.88192 l
295.752938 285.1968 l
295.76378 285.35424 l
297.040379 285.66912 l
297.670058 285.984 l
297.911978 286.14144 l
297.911978 286.29888 l
298.111987 286.45632 l
299.482733 286.61376 l
299.920396 286.92864 l
300.152889 287.40096 l
303.956045 288.18816 l
305.146266 288.3456 l
305.223579 288.66048 l
309.145734 289.44768 l
309.272878 289.60512 l
310.027041 289.76256 l
310.189026 289.92 l
312.58935 290.54976 l
315.306571 290.7072 l
316.629639 291.17952 l
326.141937 291.65184 l
326.554394 291.80928 l
327.580374 291.96672 l
327.590757 292.12416 l
328.375477 292.2816 l
332.311206 292.43904 l
332.777594 292.75392 l
334.995208 293.0688 l
344.746316 293.54112 l
344.992041 293.69856 l
345.67582 293.856 l
346.875751 294.01344 l
346.931992 294.17088 l
348.38371 294.48576 l
391.78062 295.58784 l
456.192 295.90272 l
456.192 295.90272 l
stroke
grestore
0 setlinecap
[9.6 2.4 1.5 2.4] 0 setdash
1.000 0.498 0.055 setrgbcolor
gsave
398.6 283.4 57.6 38.02 clipbox
-1 166.644336 m
57.6 166.64448 l
57.6 171.0528 l
76.918752 171.21024 l
76.918752 171.84 l
88.219498 171.99744 l
88.219498 172.31232 l
96.237505 172.46976 l
96.237505 172.6272 l
102.456754 172.78464 l
102.456754 173.09952 l
107.538251 173.25696 l
107.538251 173.88672 l
111.834595 174.04416 l
111.834595 174.51648 l
115.556257 174.67392 l
115.556257 175.30368 l
118.838996 175.46112 l
118.838996 176.24832 l
121.775506 176.40576 l
121.775506 177.03552 l
124.431903 177.19296 l
124.431903 177.3504 l
126.857003 177.50784 l
126.857003 177.82272 l
129.087879 177.98016 l
129.087879 178.29504 l
131.153347 178.45248 l
131.153347 182.0736 l
133.076252 182.23104 l
133.076252 183.49056 l
134.87501 183.648 l
134.87501 183.96288 l
136.564683 184.12032 l
136.564683 184.27776 l
138.157749 184.4352 l
138.157749 185.06496 l
139.66466 185.2224 l
139.66466 185.53728 l
141.094259 185.69472 l
141.094259 186.32448 l
142.454093 186.48192 l
142.454093 187.11168 l
143.750655 187.26912 l
143.750655 187.42656 l
144.989574 187.584 l
144.989574 187.74144 l
146.175755 187.89888 l
146.175755 188.21376 l
147.313508 188.3712 l
147.313508 188.68608 l
148.406631 188.84352 l
148.406631 189.78816 l
149.458494 189.9456 l
149.458494 190.26048 l
150.4721 190.41792 l
150.4721 190.7328 l
151.450132 190.89024 l
151.450132 191.04768 l
152.395005 191.20512 l
152.395005 191.67744 l
153.308892 191.83488 l
153.308892 192.14976 l
154.193762 192.3072 l
154.193762 193.0944 l
155.051401 193.25184 l
155.051401 193.8816 l
155.883435 194.03904 l
155.883435 194.51136 l
156.691349 194.6688 l
156.691349 194.82624 l
157.476501 194.98368 l
157.476501 195.29856 l
158.24014 195.456 l
158.24014 195.92832 l
158.983412 196.08576 l
158.983412 196.55808 l
159.707377 196.71552 l
159.707377 197.50272 l
161.101221 197.8176 l
161.101221 197.97504 l
161.772845 198.13248 l
161.772845 198.91968 l
162.428665 199.07712 l
162.428665 199.70688 l
163.069408 199.86432 l
163.069408 200.02176 l
163.69575 200.1792 l
163.69575 200.80896 l
164.308326 200.9664 l
164.308326 201.43872 l
164.907727 201.59616 l
164.907727 201.91104 l
166.069189 202.22592 l
166.069189 202.5408 l
166.63226 202.69824 l
166.63226 203.17056 l
167.184181 203.328 l
167.184181 203.48544 l
167.725384 203.64288 l
167.725384 203.95776 l
168.777247 204.27264 l
168.777247 204.43008 l
169.288657 204.58752 l
169.288657 204.74496 l
170.284158 204.9024 l
170.284158 205.37472 l
172.174446 205.53216 l
172.627644 205.6896 l
172.627644 205.84704 l
173.073591 206.00448 l
173.073591 206.16192 l
173.944633 206.4768 l
173.944633 206.79168 l
174.370154 206.94912 l
174.370154 207.10656 l
175.609072 207.57888 l
175.609072 207.73632 l
176.795254 208.0512 l
176.795254 208.36608 l
177.933006 208.68096 l
177.933006 208.99584 l
178.302165 209.15328 l
178.302165 209.31072 l
179.026129 209.6256 l
179.026129 209.94048 l
179.38118 210.09792 l
179.38118 210.57024 l
179.731764 210.72768 l
179.731764 210.88512 l
180.757808 211.35744 l
180.757808 211.51488 l
181.421437 211.67232 l
181.421437 212.14464 l
182.38816 212.61696 l
184.521414 213.24672 l
184.81326 213.40416 l
186.228339 213.87648 l
186.228339 214.19136 l
187.044136 214.50624 l
187.310847 214.66368 l
187.310847 214.82112 l
188.859638 215.29344 l
188.859638 215.60832 l
189.357349 215.9232 l
190.087637 216.23808 l
190.087637 216.39552 l
190.564077 216.7104 l
190.564077 216.86784 l
191.493199 217.18272 l
191.720719 217.34016 l
192.392343 217.65504 l
192.612669 217.81248 l
193.048164 217.96992 l
193.048164 218.12736 l
193.899255 218.2848 l
193.899255 218.75712 l
194.108028 218.91456 l
194.108028 219.22944 l
194.315248 219.38688 l
194.927824 219.54432 l
194.927824 219.8592 l
195.328854 220.01664 l
195.328854 220.33152 l
195.724195 220.6464 l
195.724195 220.80384 l
196.306886 221.27616 l
196.306886 221.4336 l
197.065329 222.06336 l
197.065329 222.2208 l
197.620917 222.69312 l
197.620917 222.85056 l
197.98525 223.008 l
199.050516 223.16544 l
199.224168 223.32288 l
199.908155 223.63776 l
200.076561 223.7952 l
200.903656 224.26752 l
200.903656 224.5824 l
201.06617 224.73984 l
201.548103 224.89728 l
201.548103 225.05472 l
204.276798 226.31424 l
204.989652 226.47168 l
204.989652 226.62912 l
205.684727 227.10144 l
206.093601 227.41632 l
207.02494 227.88864 l
207.155484 228.20352 l
207.155484 228.36096 l
207.414752 228.5184 l
207.414752 228.67584 l
207.67163 228.83328 l
207.67163 228.99072 l
208.428357 229.14816 l
209.764481 230.88 l
209.764481 231.03744 l
209.88283 231.19488 l
211.039471 231.35232 l
211.265149 231.6672 l
211.931422 231.82464 l
212.150019 232.29696 l
212.258679 232.76928 l
213.007658 233.08416 l
213.218007 233.2416 l
214.145411 233.55648 l
214.246577 234.0288 l
214.447813 234.18624 l
214.447813 234.34368 l
214.845977 234.50112 l
214.845977 234.65856 l
216.00744 235.28832 l
216.102079 235.76064 l
216.290397 236.23296 l
216.290397 236.3904 l
216.93967 236.86272 l
217.122431 237.1776 l
217.394346 237.33504 l
217.394346 237.49248 l
217.57416 237.64992 l
218.106745 237.80736 l
218.194528 238.12224 l
218.801387 238.27968 l
218.887012 238.43712 l
219.311238 238.752 l
219.562708 239.06688 l
220.465826 239.38176 l
220.546495 239.69664 l
221.418776 240.01152 l
221.496737 240.16896 l
222.490872 240.48384 l
222.715338 240.64128 l
222.715338 240.79872 l
222.938011 240.95616 l
223.667662 241.1136 l
223.882883 241.42848 l
224.796771 241.74336 l
225.547322 242.53056 l
226.343693 242.688 l
227.054233 243.63264 l
227.434299 243.79008 l
227.497143 243.94752 l
228.66501 244.2624 l
229.02387 244.57728 l
229.553642 244.73472 l
230.016243 245.52192 l
230.073532 245.67936 l
230.358224 245.99424 l
230.358224 246.15168 l
230.919029 246.46656 l
231.685668 246.78144 l
231.685668 246.93888 l
231.90089 247.09632 l
232.007881 247.72608 l
232.326411 247.88352 l
232.326411 248.51328 l
232.53676 248.82816 l
233.716392 249.14304 l
233.766565 249.30048 l
234.896296 250.24512 l
234.944391 250.40256 l
235.562189 250.71744 l
235.562189 250.87488 l
237.600788 251.97696 l
237.688021 252.1344 l
238.587857 252.76416 l
238.67206 252.9216 l
239.295599 253.23648 l
239.703675 253.55136 l
239.744156 253.7088 l
240.265126 254.18112 l
240.265126 254.33856 l
240.580949 254.65344 l
240.620176 254.81088 l
240.893233 255.12576 l
241.278731 255.75552 l
242.330594 256.70016 l
243.13008 257.01504 l
243.13008 257.32992 l
243.273009 257.48736 l
244.493325 257.80224 l
244.832394 257.95968 l
245.82553 258.11712 l
245.890497 258.27456 l
246.148864 258.58944 l
246.309135 259.06176 l
247.34442 263.62752 l
248.043894 263.9424 l
250.237781 264.7296 l
250.431427 264.88704 l
251.353317 265.20192 l
252.271506 265.35936 l
252.323071 265.67424 l
254.621235 265.83168 l
254.904432 265.98912 l
256.054392 266.304 l
256.211665 266.46144 l
257.737437 267.0912 l
257.948742 267.24864 l
258.532015 267.40608 l
258.614352 267.56352 l
258.981888 267.72096 l
260.539997 268.03584 l
262.751685 268.35072 l
262.893073 268.50816 l
263.208598 268.6656 l
265.659831 269.29536 l
266.27553 269.61024 l
266.678566 270.08256 l
267.242253 270.39744 l
267.9128 270.86976 l
268.553208 271.0272 l
268.610704 271.34208 l
269.431333 271.49952 l
269.431333 271.65696 l
269.611998 271.97184 l
270.038149 272.12928 l
270.818375 272.28672 l
271.134945 272.6016 l
271.148057 272.75904 l
271.885465 273.07392 l
276.128865 273.70368 l
277.529394 274.49088 l
277.55024 274.64832 l
277.912543 274.9632 l
280.409542 275.12064 l
280.447129 275.43552 l
281.695844 276.06528 l
282.132383 276.38016 l
282.692448 276.5376 l
282.813477 276.69504 l
285.55522 277.48224 l
286.470368 277.63968 l
286.658865 277.95456 l
287.429611 278.42688 l
287.429611 278.58432 l
287.619013 278.74176 l
288.044093 278.8992 l
288.165381 279.21408 l
288.708226 279.37152 l
288.708226 279.52896 l
288.986106 279.6864 l
290.190139 279.84384 l
290.453697 280.00128 l
291.082663 280.15872 l
291.433086 280.78848 l
292.888632 281.10336 l
293.020524 281.2608 l
294.854771 281.89056 l
296.236729 282.20544 l
296.480795 282.52032 l
296.501917 282.67776 l
297.190127 282.99264 l
297.318577 283.15008 l
297.670058 283.30752 l
297.725684 283.46496 l
298.830074 283.93728 l
300.120456 284.25216 l
301.21144 284.4096 l
301.291568 284.56704 l
301.915737 284.72448 l
303.442316 284.88192 l
304.177357 285.1968 l
305.728531 285.51168 l
305.826922 285.66912 l
309.952211 286.45632 l
310.398209 286.61376 l
311.823159 286.92864 l
311.990206 287.08608 l
313.954264 287.87328 l
314.226672 288.03072 l
314.859411 288.18816 l
319.855632 288.66048 l
323.321217 288.97536 l
325.38827 289.1328 l
325.491064 289.29024 l
327.580374 289.60512 l
330.374422 290.23488 l
332.538133 290.39232 l
332.983665 290.7072 l
333.222172 290.86464 l
334.654881 291.02208 l
335.292083 291.4944 l
335.47783 291.65184 l
336.875012 291.80928 l
342.107583 292.12416 l
342.473104 292.2816 l
343.184139 292.43904 l
344.649855 292.59648 l
344.751924 292.75392 l
346.493782 292.91136 l
347.413589 293.22624 l
349.937912 293.38368 l
350.62544 293.54112 l
352.245328 293.69856 l
355.251757 293.856 l
355.534416 294.01344 l
370.727652 294.32832 l
372.820448 294.48576 l
373.329288 294.6432 l
385.931472 295.11552 l
386.957348 295.27296 l
392.278328 295.4304 l
436.235585 295.74528 l
456.192 295.90272 l
456.192 295.90272 l
stroke
grestore
[1.5 2.475] 0 setdash
0.173 0.627 0.173 setrgbcolor
gsave
398.6 283.4 57.6 38.02 clipbox
-1 166.644336 m
57.6 166.64448 l
57.6 171.0528 l
76.918752 171.21024 l
76.918752 171.84 l
88.219498 171.99744 l
88.219498 172.31232 l
96.237505 172.46976 l
96.237505 172.6272 l
102.456754 172.78464 l
102.456754 173.09952 l
107.538251 173.25696 l
107.538251 173.88672 l
111.834595 174.04416 l
111.834595 174.35904 l
115.556257 174.51648 l
115.556257 175.14624 l
118.838996 175.30368 l
118.838996 176.24832 l
121.775506 176.40576 l
121.775506 177.03552 l
124.431903 177.19296 l
124.431903 177.50784 l
126.857003 177.66528 l
126.857003 177.98016 l
129.087879 178.1376 l
129.087879 178.76736 l
131.153347 178.9248 l
131.153347 182.23104 l
133.076252 182.38848 l
133.076252 183.49056 l
134.87501 183.648 l
134.87501 183.80544 l
136.564683 183.96288 l
136.564683 184.4352 l
138.157749 184.59264 l
138.157749 185.06496 l
141.094259 185.37984 l
141.094259 185.85216 l
142.454093 186.0096 l
142.454093 186.7968 l
143.750655 186.95424 l
143.750655 187.42656 l
144.989574 187.584 l
144.989574 187.89888 l
146.175755 188.05632 l
146.175755 188.3712 l
147.313508 188.52864 l
147.313508 189.1584 l
148.406631 189.31584 l
148.406631 189.9456 l
149.458494 190.10304 l
149.458494 190.26048 l
150.4721 190.41792 l
150.4721 190.7328 l
151.450132 190.89024 l
151.450132 191.04768 l
152.395005 191.20512 l
152.395005 191.52 l
153.308892 191.67744 l
153.308892 192.14976 l
154.193762 192.3072 l
154.193762 193.0944 l
155.051401 193.25184 l
155.051401 193.72416 l
155.883435 193.8816 l
155.883435 194.51136 l
156.691349 194.6688 l
156.691349 194.82624 l
157.476501 194.98368 l
157.476501 195.29856 l
158.24014 195.456 l
158.24014 196.08576 l
158.983412 196.2432 l
158.983412 196.87296 l
159.707377 197.0304 l
159.707377 197.34528 l
160.413011 197.50272 l
160.413011 197.66016 l
161.772845 197.97504 l
161.772845 198.6048 l
162.428665 198.76224 l
162.428665 199.07712 l
163.069408 199.23456 l
163.069408 199.54944 l
163.69575 199.70688 l
163.69575 200.49408 l
164.308326 200.65152 l
164.308326 201.12384 l
164.907727 201.28128 l
164.907727 201.43872 l
165.494508 201.59616 l
165.494508 201.7536 l
166.069189 201.91104 l
166.069189 202.22592 l
166.63226 202.38336 l
166.63226 202.69824 l
167.184181 202.85568 l
167.184181 203.328 l
168.256277 203.64288 l
168.256277 204.27264 l
168.777247 204.43008 l
168.777247 204.58752 l
169.288657 204.74496 l
169.288657 205.05984 l
169.790852 205.21728 l
169.790852 205.37472 l
170.284158 205.53216 l
170.284158 205.84704 l
171.245325 206.16192 l
171.245325 206.4768 l
171.713757 206.63424 l
171.713757 207.10656 l
172.174446 207.264 l
172.174446 207.42144 l
172.627644 207.57888 l
172.627644 207.89376 l
173.512515 208.20864 l
173.512515 208.36608 l
174.789275 208.8384 l
174.789275 208.99584 l
175.609072 209.15328 l
175.609072 209.31072 l
176.405442 209.46816 l
176.405442 209.78304 l
177.179688 210.09792 l
177.179688 210.25536 l
177.933006 210.57024 l
177.933006 210.88512 l
178.302165 211.04256 l
178.302165 211.35744 l
178.666498 211.51488 l
178.666498 211.67232 l
179.026129 211.82976 l
179.026129 212.30208 l
179.38118 212.45952 l
179.38118 212.61696 l
180.419973 212.93184 l
180.419973 213.08928 l
181.421437 213.5616 l
181.421437 213.87648 l
181.747418 214.03392 l
181.747418 214.19136 l
182.703091 214.50624 l
183.014503 214.66368 l
183.627078 214.82112 l
183.627078 214.97856 l
184.521414 215.136 l
184.521414 215.29344 l
185.951013 215.76576 l
186.228339 215.9232 l
186.228339 216.08064 l
187.310847 216.39552 l
187.310847 216.55296 l
187.57503 216.7104 l
188.607409 217.02528 l
188.607409 217.18272 l
189.109604 217.34016 l
189.109604 217.4976 l
189.357349 217.65504 l
190.087637 217.96992 l
190.564077 218.2848 l
191.263806 218.59968 l
191.263806 218.75712 l
191.493199 218.91456 l
191.493199 219.22944 l
191.946397 219.38688 l
191.946397 219.54432 l
192.170262 219.70176 l
192.170262 220.01664 l
192.612669 220.33152 l
193.048164 220.48896 l
193.048164 220.6464 l
194.108028 221.11872 l
194.108028 221.59104 l
194.315248 221.74848 l
194.927824 221.90592 l
194.927824 222.06336 l
195.12906 222.2208 l
195.12906 222.37824 l
195.328854 222.53568 l
195.724195 222.69312 l
196.877645 222.85056 l
197.065329 223.008 l
197.065329 223.16544 l
197.251759 223.32288 l
197.803679 223.63776 l
197.803679 223.7952 l
197.98525 223.95264 l
197.98525 224.11008 l
198.344882 224.26752 l
198.344882 224.42496 l
198.522972 224.5824 l
199.224168 224.73984 l
199.56826 225.05472 l
199.56826 225.21216 l
199.738726 225.3696 l
199.738726 225.52704 l
200.243955 225.84192 l
200.243955 225.99936 l
200.41035 226.1568 l
201.706913 226.47168 l
202.021843 226.78656 l
202.641226 227.10144 l
202.793944 227.25888 l
203.545232 227.41632 l
203.545232 227.88864 l
204.132013 228.36096 l
204.989652 228.5184 l
205.13006 228.83328 l
205.684727 228.99072 l
206.893782 229.14816 l
206.893782 229.3056 l
207.414752 229.46304 l
207.414752 229.62048 l
207.543487 229.93536 l
207.543487 230.0928 l
208.428357 230.25024 l
209.406389 231.35232 l
209.764481 231.6672 l
209.88283 231.98208 l
210.697491 232.29696 l
211.711096 233.08416 l
212.689128 233.39904 l
213.322589 233.71392 l
213.42678 234.18624 l
213.634001 234.50112 l
214.145411 234.65856 l
214.246577 234.97344 l
214.347376 235.13088 l
214.746968 235.44576 l
214.845977 235.76064 l
214.845977 235.91808 l
215.042947 236.07552 l
215.817193 236.23296 l
216.102079 236.54784 l
216.102079 236.86272 l
216.290397 237.02016 l
216.384082 237.33504 l
216.93967 237.80736 l
216.93967 237.9648 l
217.122431 238.12224 l
217.122431 238.27968 l
217.394346 238.59456 l
217.841725 238.752 l
217.930345 238.90944 l
218.715497 239.22432 l
219.057478 239.5392 l
219.479136 239.69664 l
219.562708 239.85408 l
220.465826 240.16896 l
222.036442 240.95616 l
222.188744 241.27104 l
222.715338 241.42848 l
222.715338 241.58592 l
223.882883 241.9008 l
223.882883 242.05824 l
224.658108 242.37312 l
224.796771 242.688 l
225.072043 243.16032 l
225.948352 243.31776 l
226.080756 243.63264 l
226.343693 243.79008 l
227.434299 244.10496 l
227.559845 244.2624 l
227.933124 244.41984 l
227.933124 244.57728 l
228.117905 244.73472 l
228.725142 244.89216 l
229.083233 245.20704 l
230.016243 245.52192 l
230.016243 245.67936 l
230.244696 245.99424 l
230.358224 246.15168 l
231.90089 246.93888 l
232.167601 247.25376 l
232.220638 247.4112 l
232.952753 247.88352 l
233.209631 248.1984 l
233.464163 248.67072 l
234.508518 249.30048 l
234.944391 249.45792 l
234.992403 249.61536 l
235.702834 250.08768 l
236.074454 250.56 l
236.577473 250.87488 l
236.667964 251.18976 l
237.293302 251.3472 l
237.381502 251.66208 l
238.461074 252.29184 l
238.54566 252.44928 l
238.964782 252.76416 l
239.089299 252.9216 l
239.824942 253.07904 l
239.905494 253.23648 l
240.97076 254.02368 l
241.009443 254.33856 l
241.24042 254.65344 l
241.278731 254.81088 l
241.583336 255.12576 l
241.583336 255.2832 l
242.034091 255.44064 l
242.219775 255.75552 l
243.165881 256.22784 l
243.273009 256.54272 l
243.767565 256.8576 l
244.697261 257.01504 l
244.933315 257.6448 l
245.465476 257.80224 l
245.564134 257.95968 l
246.245137 258.11712 l
247.159024 262.84032 l
247.953648 262.99776 l
248.43162 263.47008 l
248.755535 263.62752 l
248.814026 263.78496 l
249.420885 264.25728 l
250.237781 264.57216 l
250.705751 264.88704 l
251.539391 265.04448 l
252.219845 265.5168 l
252.833545 265.83168 l
253.235297 265.98912 l
254.311156 266.304 l
254.526193 266.46144 l
257.885519 267.24864 l
258.158458 267.8784 l
258.387337 268.03584 l
258.387337 268.19328 l
258.532015 268.35072 l
259.163854 268.50816 l
260.807256 268.6656 l
261.165914 268.98048 l
261.165914 269.13792 l
261.464402 269.29536 l
262.08827 269.4528 l
262.106409 269.61024 l
263.520591 269.76768 l
263.726662 269.92512 l
266.415703 270.39744 l
267.121337 270.71232 l
267.853845 271.0272 l
268.567593 271.18464 l
268.596341 271.34208 l
269.887679 271.97184 l
270.791831 272.12928 l
271.148057 272.6016 l
271.859918 272.75904 l
271.92374 272.91648 l
272.641166 273.07392 l
273.04823 273.70368 l
276.520809 274.176 l
276.949933 274.64832 l
277.403989 274.9632 l
277.757846 275.12064 l
278.952214 275.43552 l
279.080721 275.90784 l
279.404294 276.06528 l
279.452994 276.22272 l
280.230306 276.38016 l
280.315351 276.69504 l
280.755306 277.48224 l
281.892687 277.95456 l
283.249974 278.26944 l
283.249974 278.42688 l
284.094743 278.58432 l
284.177007 278.8992 l
284.681696 279.37152 l
286.44009 279.52896 l
286.568545 279.6864 l
287.09133 279.84384 l
287.157839 280.15872 l
287.568146 280.78848 l
287.611752 280.94592 l
288.923824 281.10336 l
289.075823 281.2608 l
291.005618 281.73312 l
291.729088 281.89056 l
291.816654 282.048 l
292.311822 282.36288 l
292.373104 282.52032 l
293.014542 282.67776 l
293.163698 282.8352 l
293.506694 282.99264 l
293.512571 283.15008 l
294.567699 283.6224 l
296.001258 283.77984 l
296.480795 284.25216 l
297.781199 284.72448 l
299.225415 285.1968 l
300.511749 285.51168 l
301.046006 285.66912 l
302.312792 285.82656 l
306.149916 286.14144 l
306.272868 286.29888 l
307.848373 286.45632 l
308.162791 286.61376 l
309.085306 286.7712 l
309.272878 286.92864 l
309.971751 287.08608 l
310.023792 287.24352 l
310.988263 287.40096 l
311.025905 287.5584 l
312.074866 287.87328 l
313.132319 288.03072 l
313.507635 288.3456 l
315.371019 288.66048 l
315.907631 289.1328 l
316.22939 289.29024 l
316.971088 289.44768 l
317.132704 289.76256 l
318.665975 289.92 l
318.943419 290.23488 l
320.866953 290.39232 l
321.347275 290.54976 l
325.649185 290.86464 l
326.141937 291.02208 l
326.154692 291.17952 l
327.869642 291.4944 l
330.004032 291.65184 l
330.056342 291.80928 l
339.819953 292.75392 l
340.259382 292.91136 l
342.670202 293.0688 l
342.810854 293.22624 l
345.428778 293.54112 l
345.506215 293.69856 l
346.404074 293.856 l
354.612148 294.32832 l
355.041904 294.48576 l
356.969633 294.6432 l
364.837701 294.95808 l
405.237637 295.4304 l
407.651682 295.58784 l
456.192 295.90272 l
456.192 295.90272 l
stroke
grestore
0.800 setlinewidth
0 setlinejoin
2 setlinecap
[] 0 setdash
0.000 setgray
gsave
57.6 38.016 m
57.6 321.408 l
stroke
grestore
gsave
456.192 38.016 m
456.192 321.408 l
stroke
grestore
gsave
57.6 38.016 m
456.192 38.016 l
stroke
grestore
gsave
57.6 321.408 m
456.192 321.408 l
stroke
grestore
/DejaVuSans findfont
12.000 scalefont
setfont
gsave
203.325688 327.408000 translate
0.000000 rotate
0.000000 0.000000 m /I glyphshow
3.539062 0.000000 m /n glyphshow
11.144531 0.000000 m /f glyphshow
15.369141 0.000000 m /i glyphshow
18.703125 0.000000 m /n glyphshow
26.308594 0.000000 m /i glyphshow
29.642578 0.000000 m /t glyphshow
34.347656 0.000000 m /e glyphshow
41.730469 0.000000 m /space glyphshow
45.544922 0.000000 m /p glyphshow
53.162109 0.000000 m /i glyphshow
56.496094 0.000000 m /v glyphshow
63.597656 0.000000 m /o glyphshow
70.939453 0.000000 m /t glyphshow
75.644531 0.000000 m /space glyphshow
79.458984 0.000000 m /r glyphshow
84.392578 0.000000 m /a glyphshow
91.746094 0.000000 m /t glyphshow
96.451172 0.000000 m /i glyphshow
99.785156 0.000000 m /o glyphshow
grestore
1.000 setlinewidth
0 setlinecap
0.800 setgray
gsave
64.6 269.392375 m
202.303125 269.392375 l
203.636458 269.392375 204.303125 270.059042 204.303125 271.392375 c
204.303125 314.408 l
204.303125 315.741333 203.636458 316.408 202.303125 316.408 c
64.6 316.408 l
63.266667 316.408 62.6 315.741333 62.6 314.408 c
62.6 271.392375 l
62.6 270.059042 63.266667 269.392375 64.6 269.392375 c
cl
gsave
1.000 setgray
fill
grestore
stroke
grestore
1.500 setlinewidth
1 setlinejoin
2 setlinecap
[] 0 setdash
0.122 0.467 0.706 setrgbcolor
gsave
66.6 308.31425 m
86.6 308.31425 l
stroke
grestore
0.000 setgray
/DejaVuSans findfont
10.000 scalefont
setfont
gsave
94.600000 304.814250 translate
0.000000 rotate
0.000000 0.000000 m /R glyphshow
6.948242 0.000000 m /o glyphshow
13.066406 0.000000 m /u glyphshow
19.404297 0.000000 m /n glyphshow
25.742188 0.000000 m /d glyphshow
32.089844 0.000000 m /i glyphshow
34.868164 0.000000 m /n glyphshow
41.206055 0.000000 m /g glyphshow
47.553711 0.000000 m /S glyphshow
53.901367 0.000000 m /a glyphshow
60.029297 0.000000 m /t glyphshow
63.950195 0.000000 m /plus glyphshow
72.329102 0.000000 m /S glyphshow
78.676758 0.000000 m /o glyphshow
84.794922 0.000000 m /P glyphshow
90.825195 0.000000 m /l glyphshow
93.603516 0.000000 m /e glyphshow
99.755859 0.000000 m /x glyphshow
grestore
0 setlinecap
[9.6 2.4 1.5 2.4] 0 setdash
1.000 0.498 0.055 setrgbcolor
gsave
66.6 293.642375 m
86.6 293.642375 l
stroke
grestore
0.000 setgray
gsave
94.600000 290.142375 translate
0.000000 rotate
0.000000 0.000000 m /n glyphshow
6.337891 0.000000 m /a glyphshow
12.465820 0.000000 m /i glyphshow
15.244141 0.000000 m /v glyphshow
21.162109 0.000000 m /e glyphshow
grestore
[1.5 2.475] 0 setdash
0.173 0.627 0.173 setrgbcolor
gsave
66.6 278.9705 m
86.6 278.9705 l
stroke
grestore
0.000 setgray
gsave
94.600000 275.470500 translate
0.000000 rotate
0.000000 0.000000 m /t glyphshow
3.920898 0.000000 m /i glyphshow
6.699219 0.000000 m /g glyphshow
13.046875 0.000000 m /h glyphshow
19.384766 0.000000 m /t glyphshow
grestore

end
showpage
