%!PS-Adobe-3.0 EPSF-3.0
%%Title: /home/jodv/workspace/PB_experiments/results/summarized/abisko_addlearnts-1/scripts/../graphs/learnts-1_ecdf_LP pivots.eps
%%Creator: matplotlib version 3.0.3, http://matplotlib.org/
%%CreationDate: Fri Apr 19 21:39:21 2019
%%Orientation: portrait
%%BoundingBox: 75 223 536 568
%%EndComments
%%BeginProlog
/mpldict 8 dict def
mpldict begin
/m { moveto } bind def
/l { lineto } bind def
/r { rlineto } bind def
/c { curveto } bind def
/cl { closepath } bind def
/box {
m
1 index 0 r
0 exch r
neg 0 r
cl
} bind def
/clipbox {
box
clip
newpath
} bind def
%!PS-Adobe-3.0 Resource-Font
%%Title: DejaVu Sans
%%Copyright: Copyright (c) 2003 by Bitstream, Inc. All Rights Reserved. Copyright (c) 2006 by Tavmjong Bah. All Rights Reserved. DejaVu changes are in public domain 
%%Creator: Converted from TrueType to type 3 by PPR
25 dict begin
/_d{bind def}bind def
/_m{moveto}_d
/_l{lineto}_d
/_cl{closepath eofill}_d
/_c{curveto}_d
/_sc{7 -1 roll{setcachedevice}{pop pop pop pop pop pop}ifelse}_d
/_e{exec}_d
/FontName /DejaVuSans def
/PaintType 0 def
/FontMatrix[.001 0 0 .001 0 0]def
/FontBBox[-1021 -463 1793 1232]def
/FontType 3 def
/Encoding [ /space /plus /zero /one /two /three /four /five /six /eight /I /L /N /P /R /S /a /b /c /d /e /f /g /h /i /l /m /n /o /p /r /s /t /u /v /x ] def
/FontInfo 10 dict dup begin
/FamilyName (DejaVu Sans) def
/FullName (DejaVu Sans) def
/Notice (Copyright (c) 2003 by Bitstream, Inc. All Rights Reserved. Copyright (c) 2006 by Tavmjong Bah. All Rights Reserved. DejaVu changes are in public domain ) def
/Weight (Book) def
/Version (Version 2.35) def
/ItalicAngle 0.0 def
/isFixedPitch false def
/UnderlinePosition -130 def
/UnderlineThickness 90 def
end readonly def
/CharStrings 37 dict dup begin
/.notdef 0 def
/space{318 0 0 0 0 0 _sc
}_d
/plus{838 0 106 0 732 627 _sc
460 627 _m
460 355 _l
732 355 _l
732 272 _l
460 272 _l
460 0 _l
378 0 _l
378 272 _l
106 272 _l
106 355 _l
378 355 _l
378 627 _l
460 627 _l
_cl}_d
/zero{636 0 66 -13 570 742 _sc
318 664 _m
267 664 229 639 203 589 _c
177 539 165 464 165 364 _c
165 264 177 189 203 139 _c
229 89 267 64 318 64 _c
369 64 407 89 433 139 _c
458 189 471 264 471 364 _c
471 464 458 539 433 589 _c
407 639 369 664 318 664 _c
318 742 _m
399 742 461 709 505 645 _c
548 580 570 486 570 364 _c
570 241 548 147 505 83 _c
461 19 399 -13 318 -13 _c
236 -13 173 19 130 83 _c
87 147 66 241 66 364 _c
66 486 87 580 130 645 _c
173 709 236 742 318 742 _c
_cl}_d
/one{636 0 110 0 544 729 _sc
124 83 _m
285 83 _l
285 639 _l
110 604 _l
110 694 _l
284 729 _l
383 729 _l
383 83 _l
544 83 _l
544 0 _l
124 0 _l
124 83 _l
_cl}_d
/two{{636 0 73 0 536 742 _sc
192 83 _m
536 83 _l
536 0 _l
73 0 _l
73 83 _l
110 121 161 173 226 239 _c
290 304 331 346 348 365 _c
380 400 402 430 414 455 _c
426 479 433 504 433 528 _c
433 566 419 598 392 622 _c
365 646 330 659 286 659 _c
255 659 222 653 188 643 _c
154 632 117 616 78 594 _c
78 694 _l
118 710 155 722 189 730 _c
223 738 255 742 284 742 _c
}_e{359 742 419 723 464 685 _c
509 647 532 597 532 534 _c
532 504 526 475 515 449 _c
504 422 484 390 454 354 _c
446 344 420 317 376 272 _c
332 227 271 164 192 83 _c
_cl}_e}_d
/three{{636 0 76 -13 556 742 _sc
406 393 _m
453 383 490 362 516 330 _c
542 298 556 258 556 212 _c
556 140 531 84 482 45 _c
432 6 362 -13 271 -13 _c
240 -13 208 -10 176 -4 _c
144 1 110 10 76 22 _c
76 117 _l
103 101 133 89 166 81 _c
198 73 232 69 268 69 _c
330 69 377 81 409 105 _c
441 129 458 165 458 212 _c
458 254 443 288 413 312 _c
383 336 341 349 287 349 _c
}_e{202 349 _l
202 430 _l
291 430 _l
339 430 376 439 402 459 _c
428 478 441 506 441 543 _c
441 580 427 609 401 629 _c
374 649 336 659 287 659 _c
260 659 231 656 200 650 _c
169 644 135 635 98 623 _c
98 711 _l
135 721 170 729 203 734 _c
235 739 266 742 296 742 _c
370 742 429 725 473 691 _c
517 657 539 611 539 553 _c
539 513 527 479 504 451 _c
481 423 448 403 406 393 _c
_cl}_e}_d
/four{636 0 49 0 580 729 _sc
378 643 _m
129 254 _l
378 254 _l
378 643 _l
352 729 _m
476 729 _l
476 254 _l
580 254 _l
580 172 _l
476 172 _l
476 0 _l
378 0 _l
378 172 _l
49 172 _l
49 267 _l
352 729 _l
_cl}_d
/five{{636 0 77 -13 549 729 _sc
108 729 _m
495 729 _l
495 646 _l
198 646 _l
198 467 _l
212 472 227 476 241 478 _c
255 480 270 482 284 482 _c
365 482 429 459 477 415 _c
525 370 549 310 549 234 _c
549 155 524 94 475 51 _c
426 8 357 -13 269 -13 _c
238 -13 207 -10 175 -6 _c
143 -1 111 6 77 17 _c
77 116 _l
106 100 136 88 168 80 _c
199 72 232 69 267 69 _c
}_e{323 69 368 83 401 113 _c
433 143 450 183 450 234 _c
450 284 433 324 401 354 _c
368 384 323 399 267 399 _c
241 399 214 396 188 390 _c
162 384 135 375 108 363 _c
108 729 _l
_cl}_e}_d
/six{{636 0 70 -13 573 742 _sc
330 404 _m
286 404 251 388 225 358 _c
199 328 186 286 186 234 _c
186 181 199 139 225 109 _c
251 79 286 64 330 64 _c
374 64 409 79 435 109 _c
461 139 474 181 474 234 _c
474 286 461 328 435 358 _c
409 388 374 404 330 404 _c
526 713 _m
526 623 _l
501 635 476 644 451 650 _c
425 656 400 659 376 659 _c
310 659 260 637 226 593 _c
}_e{192 549 172 482 168 394 _c
187 422 211 444 240 459 _c
269 474 301 482 336 482 _c
409 482 467 459 509 415 _c
551 371 573 310 573 234 _c
573 159 550 99 506 54 _c
462 9 403 -13 330 -13 _c
246 -13 181 19 137 83 _c
92 147 70 241 70 364 _c
70 479 97 571 152 639 _c
206 707 280 742 372 742 _c
396 742 421 739 447 735 _c
472 730 498 723 526 713 _c
_cl}_e}_d
/eight{{636 0 68 -13 568 742 _sc
318 346 _m
271 346 234 333 207 308 _c
180 283 167 249 167 205 _c
167 161 180 126 207 101 _c
234 76 271 64 318 64 _c
364 64 401 76 428 102 _c
455 127 469 161 469 205 _c
469 249 455 283 429 308 _c
402 333 365 346 318 346 _c
219 388 _m
177 398 144 418 120 447 _c
96 476 85 511 85 553 _c
85 611 105 657 147 691 _c
188 725 245 742 318 742 _c
}_e{390 742 447 725 489 691 _c
530 657 551 611 551 553 _c
551 511 539 476 515 447 _c
491 418 459 398 417 388 _c
464 377 501 355 528 323 _c
554 291 568 251 568 205 _c
568 134 546 80 503 43 _c
459 5 398 -13 318 -13 _c
237 -13 175 5 132 43 _c
89 80 68 134 68 205 _c
68 251 81 291 108 323 _c
134 355 171 377 219 388 _c
183 544 _m
183 506 194 476 218 455 _c
}_e{242 434 275 424 318 424 _c
360 424 393 434 417 455 _c
441 476 453 506 453 544 _c
453 582 441 611 417 632 _c
393 653 360 664 318 664 _c
275 664 242 653 218 632 _c
194 611 183 582 183 544 _c
_cl}_e}_d
/I{295 0 98 0 197 729 _sc
98 729 _m
197 729 _l
197 0 _l
98 0 _l
98 729 _l
_cl}_d
/L{557 0 98 0 552 729 _sc
98 729 _m
197 729 _l
197 83 _l
552 83 _l
552 0 _l
98 0 _l
98 729 _l
_cl}_d
/N{748 0 98 0 650 729 _sc
98 729 _m
231 729 _l
554 119 _l
554 729 _l
650 729 _l
650 0 _l
517 0 _l
194 610 _l
194 0 _l
98 0 _l
98 729 _l
_cl}_d
/P{603 0 98 0 569 729 _sc
197 648 _m
197 374 _l
321 374 _l
367 374 402 385 427 409 _c
452 433 465 467 465 511 _c
465 555 452 588 427 612 _c
402 636 367 648 321 648 _c
197 648 _l
98 729 _m
321 729 _l
402 729 464 710 506 673 _c
548 636 569 582 569 511 _c
569 439 548 384 506 348 _c
464 311 402 293 321 293 _c
197 293 _l
197 0 _l
98 0 _l
98 729 _l
_cl}_d
/R{{695 0 98 0 666 729 _sc
444 342 _m
465 334 486 319 506 296 _c
526 272 546 240 566 199 _c
666 0 _l
560 0 _l
467 187 _l
443 235 419 268 397 284 _c
374 300 343 308 304 308 _c
197 308 _l
197 0 _l
98 0 _l
98 729 _l
321 729 _l
404 729 466 711 507 677 _c
548 642 569 589 569 519 _c
569 473 558 434 537 404 _c
515 374 484 353 444 342 _c
197 648 _m
197 389 _l
321 389 _l
}_e{368 389 404 400 428 422 _c
452 444 465 476 465 519 _c
465 561 452 593 428 615 _c
404 637 368 648 321 648 _c
197 648 _l
_cl}_e}_d
/S{{635 0 66 -13 579 742 _sc
535 705 _m
535 609 _l
497 627 462 640 429 649 _c
395 657 363 662 333 662 _c
279 662 237 651 208 631 _c
179 610 165 580 165 542 _c
165 510 174 485 194 469 _c
213 452 250 439 304 429 _c
364 417 _l
437 403 491 378 526 343 _c
561 307 579 260 579 201 _c
579 130 555 77 508 41 _c
460 5 391 -13 300 -13 _c
265 -13 228 -9 189 -2 _c
}_e{150 5 110 16 69 32 _c
69 134 _l
109 111 148 94 186 83 _c
224 71 262 66 300 66 _c
356 66 399 77 430 99 _c
460 121 476 152 476 194 _c
476 230 465 258 443 278 _c
421 298 385 313 335 323 _c
275 335 _l
201 349 148 372 115 404 _c
82 435 66 478 66 534 _c
66 598 88 649 134 686 _c
179 723 242 742 322 742 _c
356 742 390 739 426 733 _c
461 727 497 717 535 705 _c
}_e{_cl}_e}_d
/a{{613 0 60 -13 522 560 _sc
343 275 _m
270 275 220 266 192 250 _c
164 233 150 205 150 165 _c
150 133 160 107 181 89 _c
202 70 231 61 267 61 _c
317 61 357 78 387 114 _c
417 149 432 196 432 255 _c
432 275 _l
343 275 _l
522 312 _m
522 0 _l
432 0 _l
432 83 _l
411 49 385 25 355 10 _c
325 -5 287 -13 243 -13 _c
187 -13 142 2 109 33 _c
76 64 60 106 60 159 _c
}_e{60 220 80 266 122 298 _c
163 329 224 345 306 345 _c
432 345 _l
432 354 _l
432 395 418 427 391 450 _c
364 472 326 484 277 484 _c
245 484 215 480 185 472 _c
155 464 127 453 100 439 _c
100 522 _l
132 534 164 544 195 550 _c
226 556 256 560 286 560 _c
365 560 424 539 463 498 _c
502 457 522 395 522 312 _c
_cl}_e}_d
/b{{635 0 91 -13 580 760 _sc
487 273 _m
487 339 473 390 446 428 _c
418 466 381 485 334 485 _c
286 485 249 466 222 428 _c
194 390 181 339 181 273 _c
181 207 194 155 222 117 _c
249 79 286 61 334 61 _c
381 61 418 79 446 117 _c
473 155 487 207 487 273 _c
181 464 _m
199 496 223 520 252 536 _c
281 552 316 560 356 560 _c
422 560 476 533 518 481 _c
559 428 580 359 580 273 _c
}_e{580 187 559 117 518 65 _c
476 13 422 -13 356 -13 _c
316 -13 281 -5 252 10 _c
223 25 199 49 181 82 _c
181 0 _l
91 0 _l
91 760 _l
181 760 _l
181 464 _l
_cl}_e}_d
/c{{550 0 55 -13 488 560 _sc
488 526 _m
488 442 _l
462 456 437 466 411 473 _c
385 480 360 484 334 484 _c
276 484 230 465 198 428 _c
166 391 150 339 150 273 _c
150 206 166 154 198 117 _c
230 80 276 62 334 62 _c
360 62 385 65 411 72 _c
437 79 462 90 488 104 _c
488 21 _l
462 9 436 0 410 -5 _c
383 -10 354 -13 324 -13 _c
242 -13 176 12 128 64 _c
}_e{79 115 55 185 55 273 _c
55 362 79 432 128 483 _c
177 534 244 560 330 560 _c
358 560 385 557 411 551 _c
437 545 463 537 488 526 _c
_cl}_e}_d
/d{{635 0 55 -13 544 760 _sc
454 464 _m
454 760 _l
544 760 _l
544 0 _l
454 0 _l
454 82 _l
435 49 411 25 382 10 _c
353 -5 319 -13 279 -13 _c
213 -13 159 13 117 65 _c
75 117 55 187 55 273 _c
55 359 75 428 117 481 _c
159 533 213 560 279 560 _c
319 560 353 552 382 536 _c
411 520 435 496 454 464 _c
148 273 _m
148 207 161 155 188 117 _c
215 79 253 61 301 61 _c
}_e{348 61 385 79 413 117 _c
440 155 454 207 454 273 _c
454 339 440 390 413 428 _c
385 466 348 485 301 485 _c
253 485 215 466 188 428 _c
161 390 148 339 148 273 _c
_cl}_e}_d
/e{{615 0 55 -13 562 560 _sc
562 296 _m
562 252 _l
149 252 _l
153 190 171 142 205 110 _c
238 78 284 62 344 62 _c
378 62 412 66 444 74 _c
476 82 509 95 541 113 _c
541 28 _l
509 14 476 3 442 -3 _c
408 -9 373 -13 339 -13 _c
251 -13 182 12 131 62 _c
80 112 55 181 55 268 _c
55 357 79 428 127 481 _c
175 533 241 560 323 560 _c
397 560 455 536 498 489 _c
}_e{540 441 562 377 562 296 _c
472 322 _m
471 371 457 410 431 440 _c
404 469 368 484 324 484 _c
274 484 234 469 204 441 _c
174 413 156 373 152 322 _c
472 322 _l
_cl}_e}_d
/f{352 0 23 0 371 760 _sc
371 760 _m
371 685 _l
285 685 _l
253 685 230 678 218 665 _c
205 652 199 629 199 595 _c
199 547 _l
347 547 _l
347 477 _l
199 477 _l
199 0 _l
109 0 _l
109 477 _l
23 477 _l
23 547 _l
109 547 _l
109 585 _l
109 645 123 690 151 718 _c
179 746 224 760 286 760 _c
371 760 _l
_cl}_d
/g{{635 0 55 -207 544 560 _sc
454 280 _m
454 344 440 395 414 431 _c
387 467 349 485 301 485 _c
253 485 215 467 188 431 _c
161 395 148 344 148 280 _c
148 215 161 165 188 129 _c
215 93 253 75 301 75 _c
349 75 387 93 414 129 _c
440 165 454 215 454 280 _c
544 68 _m
544 -24 523 -93 482 -139 _c
440 -184 377 -207 292 -207 _c
260 -207 231 -204 203 -200 _c
175 -195 147 -188 121 -178 _c
}_e{121 -91 _l
147 -105 173 -115 199 -122 _c
225 -129 251 -133 278 -133 _c
336 -133 380 -117 410 -87 _c
439 -56 454 -10 454 52 _c
454 96 _l
435 64 411 40 382 24 _c
353 8 319 0 279 0 _c
211 0 157 25 116 76 _c
75 127 55 195 55 280 _c
55 364 75 432 116 483 _c
157 534 211 560 279 560 _c
319 560 353 552 382 536 _c
411 520 435 496 454 464 _c
454 547 _l
544 547 _l
}_e{544 68 _l
_cl}_e}_d
/h{634 0 91 0 549 760 _sc
549 330 _m
549 0 _l
459 0 _l
459 327 _l
459 379 448 417 428 443 _c
408 469 378 482 338 482 _c
289 482 251 466 223 435 _c
195 404 181 362 181 309 _c
181 0 _l
91 0 _l
91 760 _l
181 760 _l
181 462 _l
202 494 227 519 257 535 _c
286 551 320 560 358 560 _c
420 560 468 540 500 501 _c
532 462 549 405 549 330 _c
_cl}_d
/i{278 0 94 0 184 760 _sc
94 547 _m
184 547 _l
184 0 _l
94 0 _l
94 547 _l
94 760 _m
184 760 _l
184 646 _l
94 646 _l
94 760 _l
_cl}_d
/l{278 0 94 0 184 760 _sc
94 760 _m
184 760 _l
184 0 _l
94 0 _l
94 760 _l
_cl}_d
/m{{974 0 91 0 889 560 _sc
520 442 _m
542 482 569 511 600 531 _c
631 550 668 560 711 560 _c
767 560 811 540 842 500 _c
873 460 889 403 889 330 _c
889 0 _l
799 0 _l
799 327 _l
799 379 789 418 771 444 _c
752 469 724 482 686 482 _c
639 482 602 466 575 435 _c
548 404 535 362 535 309 _c
535 0 _l
445 0 _l
445 327 _l
445 379 435 418 417 444 _c
398 469 369 482 331 482 _c
}_e{285 482 248 466 221 435 _c
194 404 181 362 181 309 _c
181 0 _l
91 0 _l
91 547 _l
181 547 _l
181 462 _l
201 495 226 520 255 536 _c
283 552 317 560 357 560 _c
397 560 430 550 458 530 _c
486 510 506 480 520 442 _c
_cl}_e}_d
/n{634 0 91 0 549 560 _sc
549 330 _m
549 0 _l
459 0 _l
459 327 _l
459 379 448 417 428 443 _c
408 469 378 482 338 482 _c
289 482 251 466 223 435 _c
195 404 181 362 181 309 _c
181 0 _l
91 0 _l
91 547 _l
181 547 _l
181 462 _l
202 494 227 519 257 535 _c
286 551 320 560 358 560 _c
420 560 468 540 500 501 _c
532 462 549 405 549 330 _c
_cl}_d
/o{612 0 55 -13 557 560 _sc
306 484 _m
258 484 220 465 192 427 _c
164 389 150 338 150 273 _c
150 207 163 156 191 118 _c
219 80 257 62 306 62 _c
354 62 392 80 420 118 _c
448 156 462 207 462 273 _c
462 337 448 389 420 427 _c
392 465 354 484 306 484 _c
306 560 _m
384 560 445 534 490 484 _c
534 433 557 363 557 273 _c
557 183 534 113 490 63 _c
445 12 384 -13 306 -13 _c
227 -13 165 12 121 63 _c
77 113 55 183 55 273 _c
55 363 77 433 121 484 _c
165 534 227 560 306 560 _c
_cl}_d
/p{{635 0 91 -207 580 560 _sc
181 82 _m
181 -207 _l
91 -207 _l
91 547 _l
181 547 _l
181 464 _l
199 496 223 520 252 536 _c
281 552 316 560 356 560 _c
422 560 476 533 518 481 _c
559 428 580 359 580 273 _c
580 187 559 117 518 65 _c
476 13 422 -13 356 -13 _c
316 -13 281 -5 252 10 _c
223 25 199 49 181 82 _c
487 273 _m
487 339 473 390 446 428 _c
418 466 381 485 334 485 _c
}_e{286 485 249 466 222 428 _c
194 390 181 339 181 273 _c
181 207 194 155 222 117 _c
249 79 286 61 334 61 _c
381 61 418 79 446 117 _c
473 155 487 207 487 273 _c
_cl}_e}_d
/r{411 0 91 0 411 560 _sc
411 463 _m
401 469 390 473 378 476 _c
366 478 353 480 339 480 _c
288 480 249 463 222 430 _c
194 397 181 350 181 288 _c
181 0 _l
91 0 _l
91 547 _l
181 547 _l
181 462 _l
199 495 224 520 254 536 _c
284 552 321 560 365 560 _c
371 560 378 559 386 559 _c
393 558 401 557 411 555 _c
411 463 _l
_cl}_d
/s{{521 0 54 -13 472 560 _sc
443 531 _m
443 446 _l
417 458 391 468 364 475 _c
336 481 308 485 279 485 _c
234 485 200 478 178 464 _c
156 450 145 430 145 403 _c
145 382 153 366 169 354 _c
185 342 217 330 265 320 _c
296 313 _l
360 299 405 279 432 255 _c
458 230 472 195 472 151 _c
472 100 452 60 412 31 _c
372 1 316 -13 246 -13 _c
216 -13 186 -10 154 -5 _c
}_e{122 0 89 8 54 20 _c
54 113 _l
87 95 120 82 152 74 _c
184 65 216 61 248 61 _c
290 61 323 68 346 82 _c
368 96 380 117 380 144 _c
380 168 371 187 355 200 _c
339 213 303 226 247 238 _c
216 245 _l
160 257 119 275 95 299 _c
70 323 58 356 58 399 _c
58 450 76 490 112 518 _c
148 546 200 560 268 560 _c
301 560 332 557 362 552 _c
391 547 418 540 443 531 _c
}_e{_cl}_e}_d
/t{392 0 27 0 368 702 _sc
183 702 _m
183 547 _l
368 547 _l
368 477 _l
183 477 _l
183 180 _l
183 135 189 106 201 94 _c
213 81 238 75 276 75 _c
368 75 _l
368 0 _l
276 0 _l
206 0 158 13 132 39 _c
106 65 93 112 93 180 _c
93 477 _l
27 477 _l
27 547 _l
93 547 _l
93 702 _l
183 702 _l
_cl}_d
/u{634 0 85 -13 543 560 _sc
85 216 _m
85 547 _l
175 547 _l
175 219 _l
175 167 185 129 205 103 _c
225 77 255 64 296 64 _c
344 64 383 79 411 110 _c
439 141 453 183 453 237 _c
453 547 _l
543 547 _l
543 0 _l
453 0 _l
453 84 _l
431 50 405 26 377 10 _c
348 -5 315 -13 277 -13 _c
214 -13 166 6 134 45 _c
101 83 85 140 85 216 _c
311 560 _m
311 560 _l
_cl}_d
/v{592 0 30 0 562 547 _sc
30 547 _m
125 547 _l
296 88 _l
467 547 _l
562 547 _l
357 0 _l
235 0 _l
30 547 _l
_cl}_d
/x{592 0 29 0 559 547 _sc
549 547 _m
351 281 _l
559 0 _l
453 0 _l
294 215 _l
135 0 _l
29 0 _l
241 286 _l
47 547 _l
153 547 _l
298 352 _l
443 547 _l
549 547 _l
_cl}_d
end readonly def

/BuildGlyph
 {exch begin
 CharStrings exch
 2 copy known not{pop /.notdef}if
 true 3 1 roll get exec
 end}_d

/BuildChar {
 1 index /Encoding get exch get
 1 index /BuildGlyph get exec
}_d

FontName currentdict end definefont pop
end
%%EndProlog
mpldict begin
75.6 223.2 translate
460.8 345.6 0 0 clipbox
gsave
0 0 m
460.8 0 l
460.8 345.6 l
0 345.6 l
cl
1.000 setgray
fill
grestore
gsave
57.6 38.016 m
456.192 38.016 l
456.192 321.408 l
57.6 321.408 l
cl
1.000 setgray
fill
grestore
0.800 setlinewidth
1 setlinejoin
0 setlinecap
[] 0 setdash
0.000 setgray
gsave
/o {
gsave
newpath
translate
0.8 setlinewidth
1 setlinejoin
0 setlinecap
0 0 m
0 -3.5 l

gsave
0.000 setgray
fill
grestore
stroke
grestore
} bind def
57.6 38.016 o
grestore
gsave
48.600000 22.094125 translate
0.000000 rotate
/DejaVuSans findfont
10.0 scalefont
setfont
0.000000 0.976562 moveto
/one glyphshow

6.362305 0.976562 moveto
/zero glyphshow

/DejaVuSans findfont
7.0 scalefont
setfont
12.820312 4.804688 moveto
/zero glyphshow


grestore
gsave
/o {
gsave
newpath
translate
0.8 setlinewidth
1 setlinejoin
0 setlinecap
0 0 m
0 -3.5 l

gsave
0.000 setgray
fill
grestore
stroke
grestore
} bind def
114.857 38.016 o
grestore
gsave
105.857320 23.094125 translate
0.000000 rotate
/DejaVuSans findfont
10.0 scalefont
setfont
0.000000 0.064063 moveto
/one glyphshow

6.362305 0.064063 moveto
/zero glyphshow

/DejaVuSans findfont
7.0 scalefont
setfont
12.820312 3.892188 moveto
/one glyphshow


grestore
gsave
/o {
gsave
newpath
translate
0.8 setlinewidth
1 setlinejoin
0 setlinecap
0 0 m
0 -3.5 l

gsave
0.000 setgray
fill
grestore
stroke
grestore
} bind def
172.115 38.016 o
grestore
gsave
163.114640 22.094125 translate
0.000000 rotate
/DejaVuSans findfont
10.0 scalefont
setfont
0.000000 0.976562 moveto
/one glyphshow

6.362305 0.976562 moveto
/zero glyphshow

/DejaVuSans findfont
7.0 scalefont
setfont
12.820312 4.804688 moveto
/two glyphshow


grestore
gsave
/o {
gsave
newpath
translate
0.8 setlinewidth
1 setlinejoin
0 setlinecap
0 0 m
0 -3.5 l

gsave
0.000 setgray
fill
grestore
stroke
grestore
} bind def
229.372 38.016 o
grestore
gsave
220.371960 22.094125 translate
0.000000 rotate
/DejaVuSans findfont
10.0 scalefont
setfont
0.000000 0.976562 moveto
/one glyphshow

6.362305 0.976562 moveto
/zero glyphshow

/DejaVuSans findfont
7.0 scalefont
setfont
12.820312 4.804688 moveto
/three glyphshow


grestore
gsave
/o {
gsave
newpath
translate
0.8 setlinewidth
1 setlinejoin
0 setlinecap
0 0 m
0 -3.5 l

gsave
0.000 setgray
fill
grestore
stroke
grestore
} bind def
286.629 38.016 o
grestore
gsave
277.629280 23.094125 translate
0.000000 rotate
/DejaVuSans findfont
10.0 scalefont
setfont
0.000000 0.064063 moveto
/one glyphshow

6.362305 0.064063 moveto
/zero glyphshow

/DejaVuSans findfont
7.0 scalefont
setfont
12.820312 3.892188 moveto
/four glyphshow


grestore
gsave
/o {
gsave
newpath
translate
0.8 setlinewidth
1 setlinejoin
0 setlinecap
0 0 m
0 -3.5 l

gsave
0.000 setgray
fill
grestore
stroke
grestore
} bind def
343.887 38.016 o
grestore
gsave
334.886600 23.094125 translate
0.000000 rotate
/DejaVuSans findfont
10.0 scalefont
setfont
0.000000 0.064063 moveto
/one glyphshow

6.362305 0.064063 moveto
/zero glyphshow

/DejaVuSans findfont
7.0 scalefont
setfont
12.820312 3.892188 moveto
/five glyphshow


grestore
gsave
/o {
gsave
newpath
translate
0.8 setlinewidth
1 setlinejoin
0 setlinecap
0 0 m
0 -3.5 l

gsave
0.000 setgray
fill
grestore
stroke
grestore
} bind def
401.144 38.016 o
grestore
gsave
392.143920 22.094125 translate
0.000000 rotate
/DejaVuSans findfont
10.0 scalefont
setfont
0.000000 0.976562 moveto
/one glyphshow

6.362305 0.976562 moveto
/zero glyphshow

/DejaVuSans findfont
7.0 scalefont
setfont
12.820312 4.804688 moveto
/six glyphshow


grestore
0.600 setlinewidth
gsave
/o {
gsave
newpath
translate
0.6 setlinewidth
1 setlinejoin
0 setlinecap
0 0 m
0 -2 l

gsave
0.000 setgray
fill
grestore
stroke
grestore
} bind def
74.8362 38.016 o
grestore
gsave
/o {
gsave
newpath
translate
0.6 setlinewidth
1 setlinejoin
0 setlinecap
0 0 m
0 -2 l

gsave
0.000 setgray
fill
grestore
stroke
grestore
} bind def
84.9187 38.016 o
grestore
gsave
/o {
gsave
newpath
translate
0.6 setlinewidth
1 setlinejoin
0 setlinecap
0 0 m
0 -2 l

gsave
0.000 setgray
fill
grestore
stroke
grestore
} bind def
92.0723 38.016 o
grestore
gsave
/o {
gsave
newpath
translate
0.6 setlinewidth
1 setlinejoin
0 setlinecap
0 0 m
0 -2 l

gsave
0.000 setgray
fill
grestore
stroke
grestore
} bind def
97.6211 38.016 o
grestore
gsave
/o {
gsave
newpath
translate
0.6 setlinewidth
1 setlinejoin
0 setlinecap
0 0 m
0 -2 l

gsave
0.000 setgray
fill
grestore
stroke
grestore
} bind def
102.155 38.016 o
grestore
gsave
/o {
gsave
newpath
translate
0.6 setlinewidth
1 setlinejoin
0 setlinecap
0 0 m
0 -2 l

gsave
0.000 setgray
fill
grestore
stroke
grestore
} bind def
105.988 38.016 o
grestore
gsave
/o {
gsave
newpath
translate
0.6 setlinewidth
1 setlinejoin
0 setlinecap
0 0 m
0 -2 l

gsave
0.000 setgray
fill
grestore
stroke
grestore
} bind def
109.309 38.016 o
grestore
gsave
/o {
gsave
newpath
translate
0.6 setlinewidth
1 setlinejoin
0 setlinecap
0 0 m
0 -2 l

gsave
0.000 setgray
fill
grestore
stroke
grestore
} bind def
112.237 38.016 o
grestore
gsave
/o {
gsave
newpath
translate
0.6 setlinewidth
1 setlinejoin
0 setlinecap
0 0 m
0 -2 l

gsave
0.000 setgray
fill
grestore
stroke
grestore
} bind def
132.093 38.016 o
grestore
gsave
/o {
gsave
newpath
translate
0.6 setlinewidth
1 setlinejoin
0 setlinecap
0 0 m
0 -2 l

gsave
0.000 setgray
fill
grestore
stroke
grestore
} bind def
142.176 38.016 o
grestore
gsave
/o {
gsave
newpath
translate
0.6 setlinewidth
1 setlinejoin
0 setlinecap
0 0 m
0 -2 l

gsave
0.000 setgray
fill
grestore
stroke
grestore
} bind def
149.33 38.016 o
grestore
gsave
/o {
gsave
newpath
translate
0.6 setlinewidth
1 setlinejoin
0 setlinecap
0 0 m
0 -2 l

gsave
0.000 setgray
fill
grestore
stroke
grestore
} bind def
154.878 38.016 o
grestore
gsave
/o {
gsave
newpath
translate
0.6 setlinewidth
1 setlinejoin
0 setlinecap
0 0 m
0 -2 l

gsave
0.000 setgray
fill
grestore
stroke
grestore
} bind def
159.412 38.016 o
grestore
gsave
/o {
gsave
newpath
translate
0.6 setlinewidth
1 setlinejoin
0 setlinecap
0 0 m
0 -2 l

gsave
0.000 setgray
fill
grestore
stroke
grestore
} bind def
163.245 38.016 o
grestore
gsave
/o {
gsave
newpath
translate
0.6 setlinewidth
1 setlinejoin
0 setlinecap
0 0 m
0 -2 l

gsave
0.000 setgray
fill
grestore
stroke
grestore
} bind def
166.566 38.016 o
grestore
gsave
/o {
gsave
newpath
translate
0.6 setlinewidth
1 setlinejoin
0 setlinecap
0 0 m
0 -2 l

gsave
0.000 setgray
fill
grestore
stroke
grestore
} bind def
169.495 38.016 o
grestore
gsave
/o {
gsave
newpath
translate
0.6 setlinewidth
1 setlinejoin
0 setlinecap
0 0 m
0 -2 l

gsave
0.000 setgray
fill
grestore
stroke
grestore
} bind def
189.351 38.016 o
grestore
gsave
/o {
gsave
newpath
translate
0.6 setlinewidth
1 setlinejoin
0 setlinecap
0 0 m
0 -2 l

gsave
0.000 setgray
fill
grestore
stroke
grestore
} bind def
199.433 38.016 o
grestore
gsave
/o {
gsave
newpath
translate
0.6 setlinewidth
1 setlinejoin
0 setlinecap
0 0 m
0 -2 l

gsave
0.000 setgray
fill
grestore
stroke
grestore
} bind def
206.587 38.016 o
grestore
gsave
/o {
gsave
newpath
translate
0.6 setlinewidth
1 setlinejoin
0 setlinecap
0 0 m
0 -2 l

gsave
0.000 setgray
fill
grestore
stroke
grestore
} bind def
212.136 38.016 o
grestore
gsave
/o {
gsave
newpath
translate
0.6 setlinewidth
1 setlinejoin
0 setlinecap
0 0 m
0 -2 l

gsave
0.000 setgray
fill
grestore
stroke
grestore
} bind def
216.669 38.016 o
grestore
gsave
/o {
gsave
newpath
translate
0.6 setlinewidth
1 setlinejoin
0 setlinecap
0 0 m
0 -2 l

gsave
0.000 setgray
fill
grestore
stroke
grestore
} bind def
220.503 38.016 o
grestore
gsave
/o {
gsave
newpath
translate
0.6 setlinewidth
1 setlinejoin
0 setlinecap
0 0 m
0 -2 l

gsave
0.000 setgray
fill
grestore
stroke
grestore
} bind def
223.823 38.016 o
grestore
gsave
/o {
gsave
newpath
translate
0.6 setlinewidth
1 setlinejoin
0 setlinecap
0 0 m
0 -2 l

gsave
0.000 setgray
fill
grestore
stroke
grestore
} bind def
226.752 38.016 o
grestore
gsave
/o {
gsave
newpath
translate
0.6 setlinewidth
1 setlinejoin
0 setlinecap
0 0 m
0 -2 l

gsave
0.000 setgray
fill
grestore
stroke
grestore
} bind def
246.608 38.016 o
grestore
gsave
/o {
gsave
newpath
translate
0.6 setlinewidth
1 setlinejoin
0 setlinecap
0 0 m
0 -2 l

gsave
0.000 setgray
fill
grestore
stroke
grestore
} bind def
256.691 38.016 o
grestore
gsave
/o {
gsave
newpath
translate
0.6 setlinewidth
1 setlinejoin
0 setlinecap
0 0 m
0 -2 l

gsave
0.000 setgray
fill
grestore
stroke
grestore
} bind def
263.844 38.016 o
grestore
gsave
/o {
gsave
newpath
translate
0.6 setlinewidth
1 setlinejoin
0 setlinecap
0 0 m
0 -2 l

gsave
0.000 setgray
fill
grestore
stroke
grestore
} bind def
269.393 38.016 o
grestore
gsave
/o {
gsave
newpath
translate
0.6 setlinewidth
1 setlinejoin
0 setlinecap
0 0 m
0 -2 l

gsave
0.000 setgray
fill
grestore
stroke
grestore
} bind def
273.927 38.016 o
grestore
gsave
/o {
gsave
newpath
translate
0.6 setlinewidth
1 setlinejoin
0 setlinecap
0 0 m
0 -2 l

gsave
0.000 setgray
fill
grestore
stroke
grestore
} bind def
277.76 38.016 o
grestore
gsave
/o {
gsave
newpath
translate
0.6 setlinewidth
1 setlinejoin
0 setlinecap
0 0 m
0 -2 l

gsave
0.000 setgray
fill
grestore
stroke
grestore
} bind def
281.08 38.016 o
grestore
gsave
/o {
gsave
newpath
translate
0.6 setlinewidth
1 setlinejoin
0 setlinecap
0 0 m
0 -2 l

gsave
0.000 setgray
fill
grestore
stroke
grestore
} bind def
284.009 38.016 o
grestore
gsave
/o {
gsave
newpath
translate
0.6 setlinewidth
1 setlinejoin
0 setlinecap
0 0 m
0 -2 l

gsave
0.000 setgray
fill
grestore
stroke
grestore
} bind def
303.865 38.016 o
grestore
gsave
/o {
gsave
newpath
translate
0.6 setlinewidth
1 setlinejoin
0 setlinecap
0 0 m
0 -2 l

gsave
0.000 setgray
fill
grestore
stroke
grestore
} bind def
313.948 38.016 o
grestore
gsave
/o {
gsave
newpath
translate
0.6 setlinewidth
1 setlinejoin
0 setlinecap
0 0 m
0 -2 l

gsave
0.000 setgray
fill
grestore
stroke
grestore
} bind def
321.102 38.016 o
grestore
gsave
/o {
gsave
newpath
translate
0.6 setlinewidth
1 setlinejoin
0 setlinecap
0 0 m
0 -2 l

gsave
0.000 setgray
fill
grestore
stroke
grestore
} bind def
326.65 38.016 o
grestore
gsave
/o {
gsave
newpath
translate
0.6 setlinewidth
1 setlinejoin
0 setlinecap
0 0 m
0 -2 l

gsave
0.000 setgray
fill
grestore
stroke
grestore
} bind def
331.184 38.016 o
grestore
gsave
/o {
gsave
newpath
translate
0.6 setlinewidth
1 setlinejoin
0 setlinecap
0 0 m
0 -2 l

gsave
0.000 setgray
fill
grestore
stroke
grestore
} bind def
335.017 38.016 o
grestore
gsave
/o {
gsave
newpath
translate
0.6 setlinewidth
1 setlinejoin
0 setlinecap
0 0 m
0 -2 l

gsave
0.000 setgray
fill
grestore
stroke
grestore
} bind def
338.338 38.016 o
grestore
gsave
/o {
gsave
newpath
translate
0.6 setlinewidth
1 setlinejoin
0 setlinecap
0 0 m
0 -2 l

gsave
0.000 setgray
fill
grestore
stroke
grestore
} bind def
341.267 38.016 o
grestore
gsave
/o {
gsave
newpath
translate
0.6 setlinewidth
1 setlinejoin
0 setlinecap
0 0 m
0 -2 l

gsave
0.000 setgray
fill
grestore
stroke
grestore
} bind def
361.123 38.016 o
grestore
gsave
/o {
gsave
newpath
translate
0.6 setlinewidth
1 setlinejoin
0 setlinecap
0 0 m
0 -2 l

gsave
0.000 setgray
fill
grestore
stroke
grestore
} bind def
371.205 38.016 o
grestore
gsave
/o {
gsave
newpath
translate
0.6 setlinewidth
1 setlinejoin
0 setlinecap
0 0 m
0 -2 l

gsave
0.000 setgray
fill
grestore
stroke
grestore
} bind def
378.359 38.016 o
grestore
gsave
/o {
gsave
newpath
translate
0.6 setlinewidth
1 setlinejoin
0 setlinecap
0 0 m
0 -2 l

gsave
0.000 setgray
fill
grestore
stroke
grestore
} bind def
383.908 38.016 o
grestore
gsave
/o {
gsave
newpath
translate
0.6 setlinewidth
1 setlinejoin
0 setlinecap
0 0 m
0 -2 l

gsave
0.000 setgray
fill
grestore
stroke
grestore
} bind def
388.441 38.016 o
grestore
gsave
/o {
gsave
newpath
translate
0.6 setlinewidth
1 setlinejoin
0 setlinecap
0 0 m
0 -2 l

gsave
0.000 setgray
fill
grestore
stroke
grestore
} bind def
392.275 38.016 o
grestore
gsave
/o {
gsave
newpath
translate
0.6 setlinewidth
1 setlinejoin
0 setlinecap
0 0 m
0 -2 l

gsave
0.000 setgray
fill
grestore
stroke
grestore
} bind def
395.595 38.016 o
grestore
gsave
/o {
gsave
newpath
translate
0.6 setlinewidth
1 setlinejoin
0 setlinecap
0 0 m
0 -2 l

gsave
0.000 setgray
fill
grestore
stroke
grestore
} bind def
398.524 38.016 o
grestore
gsave
/o {
gsave
newpath
translate
0.6 setlinewidth
1 setlinejoin
0 setlinecap
0 0 m
0 -2 l

gsave
0.000 setgray
fill
grestore
stroke
grestore
} bind def
418.38 38.016 o
grestore
gsave
/o {
gsave
newpath
translate
0.6 setlinewidth
1 setlinejoin
0 setlinecap
0 0 m
0 -2 l

gsave
0.000 setgray
fill
grestore
stroke
grestore
} bind def
428.463 38.016 o
grestore
gsave
/o {
gsave
newpath
translate
0.6 setlinewidth
1 setlinejoin
0 setlinecap
0 0 m
0 -2 l

gsave
0.000 setgray
fill
grestore
stroke
grestore
} bind def
435.616 38.016 o
grestore
gsave
/o {
gsave
newpath
translate
0.6 setlinewidth
1 setlinejoin
0 setlinecap
0 0 m
0 -2 l

gsave
0.000 setgray
fill
grestore
stroke
grestore
} bind def
441.165 38.016 o
grestore
gsave
/o {
gsave
newpath
translate
0.6 setlinewidth
1 setlinejoin
0 setlinecap
0 0 m
0 -2 l

gsave
0.000 setgray
fill
grestore
stroke
grestore
} bind def
445.699 38.016 o
grestore
gsave
/o {
gsave
newpath
translate
0.6 setlinewidth
1 setlinejoin
0 setlinecap
0 0 m
0 -2 l

gsave
0.000 setgray
fill
grestore
stroke
grestore
} bind def
449.532 38.016 o
grestore
gsave
/o {
gsave
newpath
translate
0.6 setlinewidth
1 setlinejoin
0 setlinecap
0 0 m
0 -2 l

gsave
0.000 setgray
fill
grestore
stroke
grestore
} bind def
452.852 38.016 o
grestore
gsave
/o {
gsave
newpath
translate
0.6 setlinewidth
1 setlinejoin
0 setlinecap
0 0 m
0 -2 l

gsave
0.000 setgray
fill
grestore
stroke
grestore
} bind def
455.781 38.016 o
grestore
/DejaVuSans findfont
10.000 scalefont
setfont
gsave
184.981938 8.422250 translate
0.000000 rotate
0.000000 0.000000 m /L glyphshow
5.571289 0.000000 m /i glyphshow
8.349609 0.000000 m /m glyphshow
18.090820 0.000000 m /i glyphshow
20.869141 0.000000 m /t glyphshow
24.790039 0.000000 m /space glyphshow
27.968750 0.000000 m /o glyphshow
34.086914 0.000000 m /n glyphshow
40.424805 0.000000 m /space glyphshow
43.603516 0.000000 m /n glyphshow
49.941406 0.000000 m /u glyphshow
56.279297 0.000000 m /m glyphshow
66.020508 0.000000 m /b glyphshow
72.368164 0.000000 m /e glyphshow
78.520508 0.000000 m /r glyphshow
82.631836 0.000000 m /space glyphshow
85.810547 0.000000 m /o glyphshow
91.928711 0.000000 m /f glyphshow
95.449219 0.000000 m /space glyphshow
98.627930 0.000000 m /L glyphshow
104.199219 0.000000 m /P glyphshow
110.229492 0.000000 m /space glyphshow
113.408203 0.000000 m /p glyphshow
119.755859 0.000000 m /i glyphshow
122.534180 0.000000 m /v glyphshow
128.452148 0.000000 m /o glyphshow
134.570312 0.000000 m /t glyphshow
138.491211 0.000000 m /s glyphshow
grestore
0.800 setlinewidth
gsave
/o {
gsave
newpath
translate
0.8 setlinewidth
1 setlinejoin
0 setlinecap
0 0 m
-3.5 0 l

gsave
0.000 setgray
fill
grestore
stroke
grestore
} bind def
57.6 38.016 o
grestore
gsave
44.240625 34.219125 translate
0.000000 rotate
0.000000 0.000000 m /zero glyphshow
grestore
gsave
/o {
gsave
newpath
translate
0.8 setlinewidth
1 setlinejoin
0 setlinecap
0 0 m
-3.5 0 l

gsave
0.000 setgray
fill
grestore
stroke
grestore
} bind def
57.6 69.504 o
grestore
gsave
31.521875 65.707125 translate
0.000000 rotate
0.000000 0.000000 m /two glyphshow
6.362305 0.000000 m /zero glyphshow
12.724609 0.000000 m /zero glyphshow
grestore
gsave
/o {
gsave
newpath
translate
0.8 setlinewidth
1 setlinejoin
0 setlinecap
0 0 m
-3.5 0 l

gsave
0.000 setgray
fill
grestore
stroke
grestore
} bind def
57.6 100.992 o
grestore
gsave
31.521875 97.195125 translate
0.000000 rotate
0.000000 0.000000 m /four glyphshow
6.362305 0.000000 m /zero glyphshow
12.724609 0.000000 m /zero glyphshow
grestore
gsave
/o {
gsave
newpath
translate
0.8 setlinewidth
1 setlinejoin
0 setlinecap
0 0 m
-3.5 0 l

gsave
0.000 setgray
fill
grestore
stroke
grestore
} bind def
57.6 132.48 o
grestore
gsave
31.521875 128.683125 translate
0.000000 rotate
0.000000 0.000000 m /six glyphshow
6.362305 0.000000 m /zero glyphshow
12.724609 0.000000 m /zero glyphshow
grestore
gsave
/o {
gsave
newpath
translate
0.8 setlinewidth
1 setlinejoin
0 setlinecap
0 0 m
-3.5 0 l

gsave
0.000 setgray
fill
grestore
stroke
grestore
} bind def
57.6 163.968 o
grestore
gsave
31.521875 160.171125 translate
0.000000 rotate
0.000000 0.000000 m /eight glyphshow
6.362305 0.000000 m /zero glyphshow
12.724609 0.000000 m /zero glyphshow
grestore
gsave
/o {
gsave
newpath
translate
0.8 setlinewidth
1 setlinejoin
0 setlinecap
0 0 m
-3.5 0 l

gsave
0.000 setgray
fill
grestore
stroke
grestore
} bind def
57.6 195.456 o
grestore
gsave
25.162500 191.659125 translate
0.000000 rotate
0.000000 0.000000 m /one glyphshow
6.362305 0.000000 m /zero glyphshow
12.724609 0.000000 m /zero glyphshow
19.086914 0.000000 m /zero glyphshow
grestore
gsave
/o {
gsave
newpath
translate
0.8 setlinewidth
1 setlinejoin
0 setlinecap
0 0 m
-3.5 0 l

gsave
0.000 setgray
fill
grestore
stroke
grestore
} bind def
57.6 226.944 o
grestore
gsave
25.162500 223.147125 translate
0.000000 rotate
0.000000 0.000000 m /one glyphshow
6.362305 0.000000 m /two glyphshow
12.724609 0.000000 m /zero glyphshow
19.086914 0.000000 m /zero glyphshow
grestore
gsave
/o {
gsave
newpath
translate
0.8 setlinewidth
1 setlinejoin
0 setlinecap
0 0 m
-3.5 0 l

gsave
0.000 setgray
fill
grestore
stroke
grestore
} bind def
57.6 258.432 o
grestore
gsave
25.162500 254.635125 translate
0.000000 rotate
0.000000 0.000000 m /one glyphshow
6.362305 0.000000 m /four glyphshow
12.724609 0.000000 m /zero glyphshow
19.086914 0.000000 m /zero glyphshow
grestore
gsave
/o {
gsave
newpath
translate
0.8 setlinewidth
1 setlinejoin
0 setlinecap
0 0 m
-3.5 0 l

gsave
0.000 setgray
fill
grestore
stroke
grestore
} bind def
57.6 289.92 o
grestore
gsave
25.162500 286.123125 translate
0.000000 rotate
0.000000 0.000000 m /one glyphshow
6.362305 0.000000 m /six glyphshow
12.724609 0.000000 m /zero glyphshow
19.086914 0.000000 m /zero glyphshow
grestore
gsave
/o {
gsave
newpath
translate
0.8 setlinewidth
1 setlinejoin
0 setlinecap
0 0 m
-3.5 0 l

gsave
0.000 setgray
fill
grestore
stroke
grestore
} bind def
57.6 321.408 o
grestore
gsave
25.162500 317.611125 translate
0.000000 rotate
0.000000 0.000000 m /one glyphshow
6.362305 0.000000 m /eight glyphshow
12.724609 0.000000 m /zero glyphshow
19.086914 0.000000 m /zero glyphshow
grestore
gsave
19.084375 109.938562 translate
90.000000 rotate
0.000000 0.000000 m /N glyphshow
7.480469 0.000000 m /u glyphshow
13.818359 0.000000 m /m glyphshow
23.559570 0.000000 m /b glyphshow
29.907227 0.000000 m /e glyphshow
36.059570 0.000000 m /r glyphshow
40.170898 0.000000 m /space glyphshow
43.349609 0.000000 m /o glyphshow
49.467773 0.000000 m /f glyphshow
52.988281 0.000000 m /space glyphshow
56.166992 0.000000 m /s glyphshow
61.376953 0.000000 m /o glyphshow
67.495117 0.000000 m /l glyphshow
70.273438 0.000000 m /v glyphshow
76.191406 0.000000 m /e glyphshow
82.343750 0.000000 m /d glyphshow
88.691406 0.000000 m /space glyphshow
91.870117 0.000000 m /i glyphshow
94.648438 0.000000 m /n glyphshow
100.986328 0.000000 m /s glyphshow
106.196289 0.000000 m /t glyphshow
110.117188 0.000000 m /a glyphshow
116.245117 0.000000 m /n glyphshow
122.583008 0.000000 m /c glyphshow
128.081055 0.000000 m /e glyphshow
134.233398 0.000000 m /s glyphshow
grestore
1.500 setlinewidth
2 setlinecap
0.122 0.467 0.706 setrgbcolor
gsave
398.6 283.4 57.6 38.02 clipbox
-1 54.546992 m
74.836171 54.5472 l
84.918684 54.70464 l
105.988049 54.86208 l
105.988049 55.3344 l
112.237369 55.49184 l
112.237369 55.96416 l
117.227354 56.27904 l
117.227354 56.43648 l
119.391026 56.59392 l
119.391026 56.75136 l
121.381411 56.9088 l
126.544683 57.22368 l
133.306733 57.53856 l
137.642298 57.696 l
138.617582 57.85344 l
138.617582 58.01088 l
139.556053 58.16832 l
139.556053 58.4832 l
141.33299 58.79808 l
144.546039 59.11296 l
146.70971 59.2704 l
146.70971 59.42784 l
148.054175 59.58528 l
148.054175 59.74272 l
152.258518 60.37248 l
153.863368 60.68736 l
153.863368 60.8448 l
154.878469 61.00224 l
154.878469 61.15968 l
155.370892 61.31712 l
156.327415 61.47456 l
156.327415 61.632 l
156.792224 61.78944 l
156.792224 61.94688 l
157.248503 62.10432 l
157.248503 62.26176 l
157.696561 62.4192 l
157.696561 62.57664 l
158.136688 62.73408 l
158.136688 63.2064 l
158.569161 63.36384 l
158.569161 63.52128 l
159.823202 63.9936 l
160.625418 64.15104 l
160.625418 64.30848 l
161.017025 64.46592 l
161.017025 64.7808 l
161.782209 64.93824 l
161.782209 65.41056 l
163.945881 65.568 l
163.945881 66.04032 l
164.627199 66.3552 l
164.627199 66.67008 l
165.615403 66.98496 l
165.615403 67.1424 l
166.253042 67.45728 l
166.253042 67.61472 l
166.874737 67.9296 l
166.874737 68.24448 l
167.179852 68.40192 l
167.179852 68.7168 l
167.481268 68.87424 l
167.481268 69.03168 l
168.073357 69.34656 l
168.651674 69.504 l
168.651674 69.66144 l
169.494689 69.97632 l
169.494689 70.44864 l
170.576013 71.0784 l
171.612269 71.23584 l
171.612269 71.39328 l
171.864723 71.55072 l
171.864723 71.8656 l
172.11464 72.02304 l
172.11464 72.18048 l
172.36207 72.33792 l
172.36207 72.6528 l
172.607063 72.81024 l
172.607063 73.44 l
173.327882 73.75488 l
173.563586 73.91232 l
174.028395 74.06976 l
174.028395 74.38464 l
174.257581 74.54208 l
174.709712 74.69952 l
174.709712 74.85696 l
175.153769 75.17184 l
175.153769 75.32928 l
175.372859 75.48672 l
175.372859 75.64416 l
175.590036 75.8016 l
175.590036 76.11648 l
176.01878 76.43136 l
176.01878 77.06112 l
176.440257 77.376 l
176.440257 77.53344 l
176.648346 77.69088 l
177.262366 78.00576 l
177.861588 78.47808 l
177.861588 78.63552 l
178.253196 78.9504 l
179.206053 79.42272 l
179.206053 79.58016 l
179.577202 79.89504 l
179.577202 80.05248 l
179.76072 80.20992 l
180.834262 80.36736 l
181.354139 80.83968 l
182.030822 81.15456 l
182.36238 81.312 l
182.36238 81.94176 l
182.689576 82.25664 l
182.689576 82.41408 l
183.012523 82.72896 l
183.012523 83.04384 l
183.489212 83.35872 l
183.6461 83.51616 l
183.6461 83.6736 l
183.802003 83.98848 l
184.110908 84.30336 l
184.567188 84.4608 l
184.567188 84.77568 l
184.866788 85.248 l
184.866788 85.40544 l
185.309528 85.72032 l
186.030347 86.0352 l
186.73086 86.8224 l
186.73086 87.29472 l
187.277399 87.92448 l
187.944102 88.08192 l
187.944102 88.23936 l
188.335709 88.71168 l
188.848439 88.86912 l
189.226166 89.49888 l
189.226166 89.65632 l
189.350811 89.9712 l
189.350811 90.12864 l
189.843234 90.28608 l
189.843234 90.7584 l
190.682184 91.38816 l
191.033247 91.70304 l
191.607558 91.86048 l
191.720845 92.17536 l
191.720845 92.49024 l
192.057643 92.80512 l
192.38994 93.12 l
193.466582 94.53696 l
194.090879 94.85184 l
194.295543 95.16672 l
194.699886 95.4816 l
194.799953 95.79648 l
194.899618 97.68576 l
195.196241 98.31552 l
195.294334 98.6304 l
195.392041 98.78784 l
195.874902 99.10272 l
195.874902 99.26016 l
196.065451 99.4176 l
196.065451 99.57504 l
196.442224 99.88992 l
196.721104 100.2048 l
198.244936 102.88128 l
198.33173 103.3536 l
199.09954 104.1408 l
199.183407 104.45568 l
199.266992 104.77056 l
199.516075 105.08544 l
199.598551 105.55776 l
199.762687 105.87264 l
200.168349 106.18752 l
200.328779 106.65984 l
200.328779 106.81728 l
200.646567 107.13216 l
200.646567 107.2896 l
200.88227 107.60448 l
201.038174 108.0768 l
201.115761 109.02144 l
201.193106 109.17888 l
201.500104 109.49376 l
201.576265 109.96608 l
202.251416 110.28096 l
202.325314 110.59584 l
202.398993 110.91072 l
202.836538 111.2256 l
202.980693 111.69792 l
203.052458 112.0128 l
203.195369 112.32768 l
203.619241 113.11488 l
204.241801 113.42976 l
204.378057 113.74464 l
204.715464 113.90208 l
204.7824 114.05952 l
205.829567 114.68928 l
206.64907 115.00416 l
206.711004 115.31904 l
207.562265 115.9488 l
207.621969 116.26368 l
207.918355 117.05088 l
208.672824 117.20832 l
208.729923 117.83808 l
208.786891 118.15296 l
209.237997 118.3104 l
209.293814 118.94016 l
210.277673 119.56992 l
210.437931 119.72736 l
210.491121 120.04224 l
211.172439 121.14432 l
211.27562 121.93152 l
211.480706 122.2464 l
211.986141 122.56128 l
212.086006 124.29312 l
212.432411 125.71008 l
212.481506 126.1824 l
212.579406 126.49728 l
212.967196 127.44192 l
213.063206 127.7568 l
213.490722 128.07168 l
213.631609 128.38656 l
214.003452 129.3312 l
214.141472 129.64608 l
214.27873 130.1184 l
214.505823 130.27584 l
214.596083 130.9056 l
214.953881 131.22048 l
214.998246 131.53536 l
215.654393 132.79488 l
216.039929 133.10976 l
216.335711 133.42464 l
216.669495 133.73952 l
216.752246 134.21184 l
217.039723 134.99904 l
217.364251 135.47136 l
217.40452 135.78624 l
217.684597 136.25856 l
217.843236 136.57344 l
218.23546 136.73088 l
218.274345 136.88832 l
218.964062 137.04576 l
219.33913 138.30528 l
219.487587 138.62016 l
219.561485 139.09248 l
219.745274 139.40736 l
219.927714 139.72224 l
220.144891 140.352 l
220.180903 140.66688 l
220.750119 141.45408 l
220.785266 141.76896 l
220.995112 141.9264 l
221.064668 142.24128 l
221.512106 142.87104 l
221.74974 144.44544 l
222.151903 144.60288 l
222.251436 146.49216 l
222.350572 146.96448 l
222.710726 147.27936 l
222.937228 147.59424 l
223.320781 148.224 l
223.541818 148.69632 l
223.63595 149.48352 l
223.667249 149.64096 l
223.854216 149.95584 l
223.947175 150.27072 l
224.34603 152.00256 l
224.588337 152.16 l
224.738588 152.63232 l
224.947427 153.10464 l
225.006774 153.41952 l
225.70811 153.89184 l
225.765671 154.5216 l
226.079899 154.99392 l
226.585677 156.72576 l
226.668982 157.04064 l
226.889774 157.19808 l
227.081372 157.98528 l
227.513844 158.30016 l
227.567378 158.61504 l
227.833333 158.92992 l
228.122635 159.2448 l
228.304999 159.71712 l
228.434445 160.18944 l
228.869589 160.50432 l
229.046575 160.97664 l
229.347081 162.23616 l
229.446448 163.968 l
229.520713 164.28288 l
229.61939 164.91264 l
229.643998 165.07008 l
229.839992 165.38496 l
229.937412 165.69984 l
230.034453 166.3296 l
230.082831 166.64448 l
230.773944 168.37632 l
230.937925 169.00608 l
231.100832 169.32096 l
231.239623 169.95072 l
231.514901 170.58048 l
231.719378 171.84 l
231.877261 172.15488 l
232.034149 172.46976 l
232.190052 172.94208 l
232.673767 174.2016 l
233.041206 174.35904 l
233.403295 175.46112 l
233.655749 175.93344 l
233.822639 176.5632 l
234.398089 177.82272 l
234.519686 178.1376 l
234.620564 178.45248 l
234.900866 179.39712 l
234.960522 180.97152 l
235.099165 181.60128 l
235.138636 182.0736 l
235.354612 182.38848 l
235.452166 183.01824 l
235.607461 183.648 l
235.781017 183.96288 l
235.781017 184.12032 l
236.124535 184.4352 l
236.40722 185.37984 l
236.64964 185.69472 l
236.66819 186.0096 l
236.908092 186.48192 l
237.01804 186.7968 l
237.182056 187.74144 l
237.435061 188.3712 l
237.614215 189.00096 l
237.649892 189.1584 l
237.809806 189.31584 l
237.845203 189.63072 l
238.161531 190.41792 l
238.318198 190.89024 l
238.662854 191.20512 l
239.002799 192.3072 l
239.187806 192.62208 l
239.338158 192.93696 l
239.43789 193.25184 l
239.537224 194.6688 l
239.751096 195.77088 l
239.816534 196.2432 l
240.493436 196.87296 l
240.636119 197.18784 l
240.809406 197.50272 l
240.887775 197.97504 l
240.965898 198.28992 l
241.059323 199.07712 l
241.74904 201.28128 l
242.079398 201.59616 l
242.434852 202.5408 l
242.843226 203.01312 l
243.216518 203.80032 l
243.499901 206.31936 l
243.738262 206.63424 l
244.180838 206.94912 l
244.194542 207.264 l
244.399206 207.57888 l
244.412791 207.73632 l
244.896957 207.89376 l
245.029791 208.20864 l
245.319553 208.36608 l
245.397996 209.31072 l
245.825067 210.57024 l
246.118443 211.04256 l
246.483486 211.82976 l
246.595694 212.14464 l
246.632985 213.87648 l
246.953848 214.3488 l
247.258514 214.82112 l
247.702678 215.136 l
247.99836 215.76576 l
248.255683 216.08064 l
248.429616 216.7104 l
248.762476 217.02528 l
248.864878 217.34016 l
249.023336 217.4976 l
249.525933 217.81248 l
249.636255 219.54432 l
249.899048 220.01664 l
250.137525 220.6464 l
250.512271 220.80384 l
250.533515 220.96128 l
250.723902 221.27616 l
250.923297 221.74848 l
251.152196 221.90592 l
251.183246 222.2208 l
251.866801 222.85056 l
251.927107 223.008 l
252.14699 223.16544 l
252.206622 224.89728 l
252.522266 225.84192 l
252.541862 225.99936 l
252.688337 226.31424 l
253.294281 226.47168 l
253.540112 227.10144 l
254.135078 228.04608 l
254.409143 228.20352 l
254.445458 228.5184 l
254.689205 228.67584 l
254.796775 228.99072 l
255.240041 229.62048 l
255.432602 230.25024 l
255.701432 230.72256 l
255.856203 231.19488 l
256.027049 231.50976 l
256.052575 231.82464 l
256.145947 231.98208 l
256.582655 232.29696 l
256.615933 232.4544 l
257.626046 233.55648 l
258.084792 233.71392 l
258.365333 234.50112 l
259.225905 235.44576 l
259.832256 236.07552 l
259.883339 236.23296 l
260.91156 236.70528 l
261.064971 237.02016 l
261.141323 237.1776 l
261.403297 237.49248 l
261.621785 237.80736 l
261.932536 238.752 l
262.252711 238.90944 l
262.398091 239.22432 l
263.862945 240.64128 l
263.88778 240.79872 l
264.753745 241.42848 l
264.765729 241.58592 l
265.234531 242.21568 l
265.269778 242.37312 l
267.080699 243.00288 l
267.146108 243.16032 l
267.743127 243.4752 l
267.89149 243.94752 l
268.936369 244.57728 l
268.941434 244.73472 l
269.773135 245.0496 l
270.449554 245.20704 l
271.172961 246.15168 l
272.392597 246.46656 l
273.062355 246.624 l
273.075225 246.78144 l
273.483579 246.93888 l
273.546783 247.09632 l
273.906084 247.25376 l
273.926815 247.4112 l
274.182451 247.56864 l
274.268445 247.88352 l
274.512515 248.04096 l
275.092648 248.1984 l
275.151896 248.35584 l
275.832894 248.67072 l
275.947786 248.82816 l
276.551739 248.9856 l
276.600172 249.14304 l
277.873425 249.45792 l
277.940523 249.61536 l
278.474332 250.08768 l
278.567356 250.24512 l
279.269205 250.56 l
279.269205 250.71744 l
279.667184 250.87488 l
279.693491 251.03232 l
280.393456 251.3472 l
280.501862 251.66208 l
280.69518 251.97696 l
281.355585 252.1344 l
281.453763 252.44928 l
283.342896 253.39392 l
283.495677 253.55136 l
284.108596 253.7088 l
284.1773 253.86624 l
285.164613 254.02368 l
285.588262 254.33856 l
286.126909 254.496 l
286.444583 254.81088 l
288.699111 255.44064 l
288.836016 255.59808 l
289.854759 255.91296 l
290.046225 256.22784 l
290.433327 256.54272 l
290.614052 256.70016 l
290.656385 257.01504 l
290.973696 257.32992 l
291.004997 257.48736 l
291.293194 257.6448 l
291.315859 257.80224 l
291.54342 257.95968 l
292.068433 258.11712 l
292.162168 258.27456 l
293.602624 258.74688 l
293.672034 258.90432 l
294.156228 259.37664 l
294.310076 259.69152 l
294.921468 259.84896 l
297.448428 260.16384 l
298.516326 260.7936 l
298.624013 260.95104 l
299.678933 261.10848 l
299.771453 261.42336 l
300.302246 261.5808 l
300.426768 261.89568 l
300.871078 262.05312 l
300.96207 262.368 l
301.271734 262.52544 l
302.21414 262.84032 l
302.30168 263.1552 l
302.648789 263.31264 l
302.674889 263.47008 l
303.299563 263.62752 l
303.358004 263.78496 l
306.073325 264.25728 l
306.136954 264.41472 l
306.870448 264.7296 l
307.259627 265.04448 l
307.634264 265.20192 l
308.825465 265.35936 l
308.950426 265.5168 l
310.438271 266.304 l
310.835977 266.61888 l
312.0961 266.93376 l
312.0961 267.0912 l
312.74914 267.40608 l
312.855033 267.56352 l
314.285506 267.8784 l
315.565244 268.50816 l
315.595517 268.6656 l
316.40976 268.98048 l
318.261737 269.13792 l
318.348694 269.29536 l
319.232785 269.61024 l
319.521295 269.92512 l
319.521295 270.08256 l
319.922144 270.24 l
319.923447 270.39744 l
320.551628 270.71232 l
323.886388 271.18464 l
324.724696 271.49952 l
326.268546 272.28672 l
327.483279 272.44416 l
327.832865 272.75904 l
327.919027 272.91648 l
329.223089 273.3888 l
329.268341 273.54624 l
329.648153 273.70368 l
329.697039 274.01856 l
329.989225 274.176 l
331.454944 274.49088 l
331.582929 274.64832 l
333.662442 274.9632 l
333.862702 275.12064 l
335.413792 275.27808 l
335.608118 275.43552 l
336.505454 275.59296 l
336.700761 275.7504 l
337.859515 275.90784 l
338.210336 276.5376 l
340.005409 277.00992 l
341.780191 277.48224 l
342.246182 277.63968 l
343.256269 277.79712 l
343.259329 278.112 l
343.947697 278.58432 l
344.890798 278.74176 l
344.906078 278.8992 l
345.767177 279.21408 l
345.890677 279.52896 l
347.087385 279.6864 l
347.090228 279.84384 l
347.535884 280.00128 l
348.874709 280.15872 l
349.258125 280.4736 l
350.147052 280.63104 l
350.26085 280.78848 l
350.609211 280.94592 l
350.714495 281.2608 l
350.925045 281.41824 l
353.200587 281.57568 l
353.444234 281.73312 l
354.000426 281.89056 l
355.064772 282.048 l
355.170512 282.20544 l
357.329787 282.8352 l
357.43182 283.15008 l
357.604724 283.30752 l
359.899972 283.46496 l
359.930383 283.6224 l
361.226992 284.25216 l
363.943305 285.03936 l
363.962833 285.1968 l
365.27655 285.51168 l
366.833182 285.66912 l
366.97223 285.82656 l
368.02133 285.984 l
368.310937 286.29888 l
369.285551 286.7712 l
372.339064 287.24352 l
372.996631 287.5584 l
376.431999 288.3456 l
376.780006 288.66048 l
376.781927 288.81792 l
377.845149 289.1328 l
377.928528 289.44768 l
378.700305 289.76256 l
379.161353 289.92 l
380.983567 290.23488 l
381.139094 290.39232 l
381.543652 290.54976 l
381.63248 290.7072 l
382.320612 290.86464 l
386.169855 291.17952 l
388.057215 291.65184 l
389.290732 291.80928 l
389.346263 291.96672 l
396.5865 292.75392 l
400.554541 293.0688 l
404.278569 293.38368 l
404.904141 293.69856 l
408.711198 294.01344 l
409.331383 294.17088 l
409.496482 294.48576 l
410.486633 294.6432 l
425.316014 295.27296 l
437.094186 295.74528 l
450.046167 295.90272 l
450.046167 295.90272 l
stroke
grestore
0 setlinecap
[9.6 2.4 1.5 2.4] 0 setdash
1.000 0.498 0.055 setrgbcolor
gsave
398.6 283.4 57.6 38.02 clipbox
-1 54.546992 m
74.836171 54.5472 l
84.918684 54.70464 l
105.988049 54.86208 l
105.988049 55.3344 l
112.237369 55.49184 l
112.237369 55.96416 l
117.227354 56.27904 l
117.227354 56.43648 l
119.391026 56.59392 l
119.391026 56.75136 l
121.381411 56.9088 l
126.544683 57.22368 l
133.306733 57.53856 l
137.642298 57.696 l
138.617582 57.85344 l
138.617582 58.01088 l
139.556053 58.16832 l
139.556053 58.64064 l
146.70971 59.2704 l
146.70971 59.42784 l
148.054175 59.74272 l
152.258518 60.37248 l
153.863368 60.68736 l
153.863368 61.00224 l
154.878469 61.15968 l
154.878469 61.31712 l
155.370892 61.47456 l
156.327415 61.632 l
156.327415 61.78944 l
156.792224 61.94688 l
156.792224 62.26176 l
157.696561 62.4192 l
157.696561 62.57664 l
159.412175 63.2064 l
159.412175 63.36384 l
159.823202 63.52128 l
161.017025 63.83616 l
161.017025 63.9936 l
162.156149 64.30848 l
162.524549 64.46592 l
162.524549 64.62336 l
163.245369 64.93824 l
163.945881 65.09568 l
163.945881 65.72544 l
164.627199 66.04032 l
164.627199 66.67008 l
164.960983 66.82752 l
166.253042 67.1424 l
166.253042 67.29984 l
166.874737 67.61472 l
166.874737 67.9296 l
167.179852 68.08704 l
167.179852 68.24448 l
167.481268 68.40192 l
167.481268 68.87424 l
167.779075 69.03168 l
168.651674 69.18912 l
168.651674 69.34656 l
169.494689 69.81888 l
169.494689 69.97632 l
169.76946 70.13376 l
170.310058 70.2912 l
170.310058 70.44864 l
170.576013 70.60608 l
171.357225 70.92096 l
171.612269 71.0784 l
171.612269 71.23584 l
171.864723 71.39328 l
171.864723 71.70816 l
172.11464 71.8656 l
172.11464 72.02304 l
172.607063 72.33792 l
172.607063 72.49536 l
172.849665 72.6528 l
172.849665 72.96768 l
173.327882 73.28256 l
173.327882 73.44 l
173.563586 73.59744 l
174.257581 73.91232 l
174.257581 74.06976 l
174.932732 74.38464 l
175.153769 74.54208 l
175.153769 74.69952 l
175.590036 75.0144 l
175.590036 75.64416 l
175.805332 75.8016 l
175.805332 75.95904 l
176.01878 76.11648 l
176.01878 76.5888 l
176.230411 76.74624 l
176.230411 76.90368 l
177.059372 77.21856 l
177.059372 77.376 l
177.262366 77.53344 l
177.262366 77.69088 l
178.058163 78.32064 l
178.82928 78.63552 l
178.82928 78.79296 l
179.206053 79.10784 l
179.206053 79.26528 l
179.577202 79.42272 l
179.577202 79.58016 l
179.76072 79.7376 l
179.76072 79.89504 l
181.008765 80.20992 l
181.008765 80.36736 l
181.354139 80.68224 l
181.354139 80.83968 l
181.86337 81.15456 l
182.030822 81.312 l
182.030822 81.46944 l
182.36238 81.62688 l
182.36238 81.94176 l
182.689576 82.25664 l
182.689576 82.41408 l
183.012523 82.72896 l
183.012523 82.8864 l
183.489212 83.20128 l
183.6461 83.35872 l
183.6461 83.6736 l
183.956935 83.98848 l
183.956935 84.14592 l
184.110908 84.30336 l
184.717439 84.4608 l
184.717439 84.77568 l
185.309528 85.40544 l
186.030347 85.72032 l
186.73086 86.50752 l
186.73086 86.66496 l
187.141886 86.8224 l
187.944102 86.97984 l
187.944102 87.13728 l
188.464886 87.6096 l
188.848439 87.92448 l
189.350811 88.71168 l
189.350811 88.86912 l
189.843234 89.65632 l
189.843234 89.81376 l
190.206255 89.9712 l
190.206255 90.12864 l
190.564053 90.28608 l
190.564053 90.44352 l
191.033247 90.91584 l
191.607558 91.23072 l
191.720845 91.5456 l
191.720845 91.70304 l
192.38994 92.80512 l
192.499726 93.27744 l
193.041503 93.9072 l
193.466582 94.22208 l
194.090879 94.53696 l
194.295543 94.6944 l
194.799953 95.00928 l
194.899618 97.056 l
195.196241 97.68576 l
195.196241 98.00064 l
195.682881 98.31552 l
196.348564 98.78784 l
196.442224 99.26016 l
196.721104 99.57504 l
196.996891 99.73248 l
197.088144 100.2048 l
197.269653 100.67712 l
197.359912 100.992 l
197.982721 101.93664 l
198.33173 102.09408 l
198.418223 102.40896 l
198.761215 102.5664 l
198.761215 102.72384 l
198.930953 102.88128 l
199.01539 103.3536 l
199.266992 103.66848 l
199.516075 103.98336 l
199.680755 104.45568 l
200.087745 104.61312 l
200.248694 105.08544 l
200.328779 105.55776 l
200.5675 105.87264 l
200.88227 106.65984 l
200.960344 106.97472 l
201.038174 107.2896 l
201.115761 107.76192 l
201.193106 107.91936 l
201.500104 108.23424 l
201.576265 108.70656 l
201.652194 108.864 l
202.691544 109.17888 l
202.980693 109.6512 l
203.052458 110.12352 l
203.195369 110.4384 l
203.619241 111.38304 l
204.241801 111.69792 l
204.378057 111.85536 l
204.715464 112.0128 l
204.7824 112.17024 l
205.311495 112.48512 l
205.311495 112.64256 l
205.442028 112.95744 l
205.829567 113.74464 l
206.021094 113.90208 l
206.64907 114.21696 l
206.711004 114.3744 l
207.502418 115.00416 l
207.562265 115.31904 l
207.977211 116.42112 l
208.672824 116.736 l
208.729923 117.20832 l
208.786891 117.5232 l
209.237997 117.68064 l
209.405074 117.99552 l
209.571036 118.15296 l
210.062377 118.46784 l
210.437931 118.78272 l
210.75538 119.41248 l
210.964784 119.72736 l
211.378374 121.14432 l
211.684114 121.4592 l
211.734707 121.61664 l
212.086006 121.77408 l
212.135789 123.34848 l
212.235057 123.66336 l
212.432411 124.608 l
212.481506 124.92288 l
212.579406 125.23776 l
212.967196 126.1824 l
213.254121 126.33984 l
213.301622 126.49728 l
213.631609 126.81216 l
213.725092 127.44192 l
214.141472 128.07168 l
214.187309 128.38656 l
214.27873 128.544 l
214.505823 128.70144 l
214.596083 129.17376 l
214.909437 129.3312 l
215.086739 129.80352 l
215.306604 130.1184 l
215.654393 130.59072 l
215.654393 130.74816 l
216.039929 130.9056 l
216.752246 132.16512 l
217.323916 132.63744 l
217.40452 132.95232 l
217.843236 133.42464 l
217.843236 133.58208 l
218.196515 133.73952 l
218.274345 134.21184 l
218.964062 134.52672 l
219.33913 135.6288 l
220.144891 136.88832 l
220.144891 137.04576 l
220.714922 137.67552 l
220.995112 138.62016 l
221.340966 139.24992 l
221.580234 140.03712 l
221.74974 140.352 l
221.74974 140.98176 l
222.151903 141.1392 l
222.251436 143.18592 l
222.350572 143.65824 l
222.710726 144.13056 l
222.937228 144.60288 l
223.289043 144.91776 l
223.478865 145.39008 l
223.573235 145.8624 l
223.667249 146.33472 l
223.823152 146.6496 l
224.254553 148.38144 l
224.947427 149.64096 l
225.006774 149.95584 l
225.650415 150.11328 l
225.908994 151.21536 l
226.193187 151.53024 l
226.585677 152.9472 l
226.668982 153.41952 l
226.889774 153.57696 l
227.081372 154.5216 l
227.647464 154.83648 l
228.044068 155.3088 l
228.122635 155.62368 l
228.330942 155.93856 l
228.434445 156.096 l
228.869589 156.25344 l
229.122043 156.8832 l
229.347081 157.04064 l
229.446448 159.08736 l
229.520713 159.40224 l
229.61939 159.87456 l
229.839992 160.18944 l
229.937412 160.50432 l
231.100832 164.59776 l
231.124018 164.7552 l
231.492077 165.07008 l
231.877261 166.3296 l
232.25657 166.80192 l
232.367039 167.27424 l
232.847356 167.74656 l
233.297344 168.21888 l
233.403295 168.84864 l
233.676672 169.16352 l
233.967755 169.32096 l
233.988417 169.4784 l
234.25547 169.63584 l
234.337067 170.10816 l
234.680896 170.42304 l
234.781124 170.73792 l
234.900866 171.21024 l
234.980376 173.09952 l
235.099165 173.4144 l
235.237039 173.72928 l
236.18133 175.776 l
236.294531 176.24832 l
236.444669 176.5632 l
236.705249 177.50784 l
236.908092 177.82272 l
237.01804 178.29504 l
237.200213 179.08224 l
237.809806 180.65664 l
237.915846 181.12896 l
238.00387 181.60128 l
238.213863 182.0736 l
239.15427 184.75008 l
239.43789 184.90752 l
239.537224 186.63936 l
239.669055 187.11168 l
239.751096 187.74144 l
239.91437 188.3712 l
240.221668 188.68608 l
240.349928 189.00096 l
240.50933 189.31584 l
240.762266 189.78816 l
240.965898 190.7328 l
241.059323 191.67744 l
241.74904 193.72416 l
242.004701 194.03904 l
242.434852 195.14112 l
242.785296 195.29856 l
243.273454 196.87296 l
243.372778 198.91968 l
243.58429 199.23456 l
243.598327 199.392 l
243.752213 199.70688 l
244.180838 199.86432 l
244.194542 200.1792 l
244.399206 200.49408 l
245.029791 200.80896 l
245.095943 201.12384 l
245.319553 201.28128 l
245.437126 202.06848 l
245.644781 202.22592 l
245.644781 202.38336 l
246.219681 203.328 l
246.483486 203.95776 l
246.595694 204.27264 l
246.632985 205.84704 l
246.904753 206.31936 l
246.953848 206.4768 l
247.750224 206.63424 l
247.99836 206.94912 l
248.360189 207.57888 l
248.429616 207.89376 l
248.796657 208.68096 l
249.348393 208.8384 l
249.348393 209.15328 l
249.525933 209.31072 l
249.636255 210.88512 l
249.964314 211.35744 l
250.20217 212.14464 l
250.501642 212.30208 l
250.575949 212.61696 l
251.460973 213.71904 l
251.481422 214.19136 l
251.6241 214.3488 l
252.127081 214.66368 l
252.14699 215.60832 l
252.14699 216.23808 l
252.44373 216.7104 l
252.541862 217.18272 l
252.639608 217.4976 l
252.688337 217.81248 l
253.132222 218.12736 l
253.33226 218.44224 l
253.624645 218.91456 l
253.68084 219.072 l
254.409143 219.38688 l
254.445458 219.70176 l
254.778879 220.01664 l
254.796775 220.17408 l
255.336508 220.80384 l
255.336508 220.96128 l
255.606373 221.27616 l
255.796129 221.59104 l
256.814667 221.74848 l
256.954483 222.2208 l
257.126118 222.53568 l
257.239886 222.85056 l
257.296576 223.16544 l
258.665722 223.7952 l
258.818372 224.11008 l
259.530929 224.42496 l
259.597387 224.73984 l
260.345583 225.05472 l
260.402764 225.3696 l
260.757196 225.68448 l
260.91156 226.1568 l
261.621785 226.62912 l
261.743846 227.10144 l
262.398091 227.41632 l
263.11891 228.20352 l
263.455852 228.36096 l
263.943569 229.46304 l
264.085576 229.62048 l
264.867359 229.93536 l
264.897172 230.0928 l
265.573174 230.25024 l
265.648448 230.56512 l
266.004347 230.88 l
266.338359 231.35232 l
266.478547 231.50976 l
267.140664 231.82464 l
267.529634 232.13952 l
267.615251 232.4544 l
268.017957 232.92672 l
268.232528 233.2416 l
268.732919 233.71392 l
268.763543 233.87136 l
269.59125 234.50112 l
269.85626 235.13088 l
270.344471 235.44576 l
270.592138 235.76064 l
271.080193 236.07552 l
271.494952 236.3904 l
271.604396 236.54784 l
271.952312 236.70528 l
273.040891 237.02016 l
273.083801 237.1776 l
274.194754 237.49248 l
274.252088 237.64992 l
274.451722 237.9648 l
274.657816 238.27968 l
274.738173 238.752 l
275.663419 239.22432 l
276.480783 239.5392 l
276.637364 239.85408 l
276.899839 240.01152 l
277.862815 240.16896 l
278.1722 240.48384 l
279.45904 240.64128 l
279.716487 240.95616 l
280.007021 241.1136 l
280.007021 241.27104 l
280.524123 242.05824 l
281.207588 242.21568 l
281.355585 242.53056 l
282.526486 243.00288 l
282.576292 243.16032 l
282.904846 243.31776 l
282.919284 243.4752 l
283.240517 243.63264 l
283.291759 243.79008 l
283.686743 244.10496 l
284.626044 244.41984 l
284.677201 244.57728 l
286.815083 245.0496 l
286.992157 245.36448 l
287.640403 245.8368 l
288.63955 246.15168 l
288.667058 246.46656 l
289.547082 246.78144 l
289.854759 247.25376 l
290.478099 247.4112 l
290.6585 247.72608 l
290.996654 247.88352 l
290.996654 248.04096 l
292.08641 248.35584 l
292.35451 248.82816 l
294.205783 249.45792 l
294.477491 249.93024 l
294.891164 250.08768 l
297.771416 250.56 l
298.304207 251.18976 l
300.096206 251.3472 l
301.10002 251.97696 l
302.279161 252.29184 l
302.596507 252.44928 l
303.44035 252.76416 l
304.163302 253.23648 l
304.284629 253.39392 l
304.861049 253.55136 l
304.886122 253.7088 l
305.692713 254.18112 l
305.751561 254.33856 l
306.907881 254.81088 l
307.071264 254.96832 l
307.471323 255.12576 l
307.4896 255.59808 l
308.047514 256.0704 l
308.084267 256.22784 l
309.951498 256.54272 l
310.410574 257.32992 l
311.661011 257.48736 l
311.822242 257.6448 l
312.485935 257.95968 l
312.519318 258.11712 l
312.760445 258.432 l
312.879273 258.58944 l
314.712747 258.90432 l
315.547374 259.2192 l
315.722415 259.37664 l
316.988561 259.53408 l
317.355515 260.0064 l
317.704308 260.16384 l
318.514804 260.32128 l
318.707891 260.47872 l
320.214409 261.10848 l
320.296093 261.26592 l
321.472462 261.42336 l
321.95226 261.73824 l
322.987155 261.89568 l
324.023293 262.368 l
324.343476 262.52544 l
325.412606 262.68288 l
325.69845 262.84032 l
325.786656 263.1552 l
326.056543 263.31264 l
327.14529 263.47008 l
327.253287 263.9424 l
327.485684 264.09984 l
328.379766 264.25728 l
329.106218 264.7296 l
329.316639 264.88704 l
329.316639 265.04448 l
329.543895 265.20192 l
330.864209 265.35936 l
331.318878 265.83168 l
331.325884 265.98912 l
332.832851 266.304 l
332.934648 266.61888 l
334.408886 266.77632 l
334.677904 267.24864 l
336.727306 267.56352 l
337.784939 268.19328 l
341.634155 268.82304 l
341.699135 269.29536 l
341.930755 269.61024 l
342.28679 269.76768 l
342.305346 269.92512 l
345.62243 271.97184 l
345.927356 272.12928 l
347.563997 272.28672 l
347.953222 272.6016 l
348.060255 272.91648 l
348.882033 273.70368 l
349.638087 273.86112 l
354.21638 274.49088 l
355.041124 274.80576 l
355.041124 274.9632 l
356.325128 275.27808 l
357.096257 275.59296 l
357.21977 275.7504 l
358.05663 276.22272 l
358.465353 276.69504 l
360.019184 277.00992 l
361.66512 277.79712 l
363.060805 278.26944 l
363.415939 278.58432 l
365.011072 278.74176 l
365.223786 279.05664 l
366.581897 279.37152 l
366.738429 279.52896 l
368.148941 279.84384 l
368.77141 280.00128 l
368.833493 280.15872 l
369.58363 280.4736 l
369.628005 280.63104 l
369.806118 280.78848 l
372.299911 281.10336 l
372.440069 281.2608 l
374.3061 281.57568 l
374.809149 281.89056 l
375.408776 282.048 l
375.431305 282.20544 l
376.952233 282.36288 l
377.848132 282.99264 l
379.169538 283.15008 l
380.762805 283.93728 l
380.767263 284.09472 l
381.749322 284.25216 l
381.821793 284.4096 l
382.441553 284.72448 l
382.502461 285.03936 l
382.816325 285.1968 l
383.761953 285.35424 l
386.788152 285.66912 l
387.715851 285.984 l
387.724469 286.14144 l
391.416686 286.61376 l
395.049695 287.24352 l
395.171181 287.40096 l
396.086895 287.5584 l
396.175206 287.71584 l
396.719862 287.87328 l
396.845804 288.03072 l
397.564036 288.18816 l
397.778286 288.50304 l
399.186542 288.66048 l
399.519302 288.81792 l
400.404238 289.1328 l
400.752439 289.29024 l
402.272258 289.60512 l
402.712407 289.92 l
402.858523 290.07744 l
403.834667 290.23488 l
406.009177 290.39232 l
406.195268 290.54976 l
407.389849 290.86464 l
407.549402 291.02208 l
408.019141 291.17952 l
409.316387 291.33696 l
409.535354 291.65184 l
411.648839 291.80928 l
412.019156 291.96672 l
412.062794 292.12416 l
416.355796 292.43904 l
417.270745 292.75392 l
422.308097 293.0688 l
424.028434 293.38368 l
424.367366 293.54112 l
426.694404 293.69856 l
427.52558 294.01344 l
431.363919 294.48576 l
432.102353 294.6432 l
432.237314 294.80064 l
432.845626 294.95808 l
432.945745 295.11552 l
440.462582 295.4304 l
440.942716 295.58784 l
453.896211 295.74528 l
456.192 295.90272 l
456.192 295.90272 l
stroke
grestore
[1.5 2.475] 0 setdash
0.173 0.627 0.173 setrgbcolor
gsave
398.6 283.4 57.6 38.02 clipbox
-1 54.546992 m
74.836171 54.5472 l
84.918684 54.70464 l
105.988049 54.86208 l
105.988049 55.3344 l
112.237369 55.49184 l
112.237369 55.96416 l
117.227354 56.27904 l
117.227354 56.43648 l
119.391026 56.59392 l
119.391026 56.75136 l
121.381411 56.9088 l
126.544683 57.22368 l
133.306733 57.53856 l
137.642298 57.696 l
138.617582 57.85344 l
138.617582 58.01088 l
139.556053 58.16832 l
139.556053 58.64064 l
146.70971 59.2704 l
146.70971 59.42784 l
151.699696 60.0576 l
152.258518 60.21504 l
152.258518 60.37248 l
153.863368 60.68736 l
153.863368 61.00224 l
154.878469 61.15968 l
154.878469 61.31712 l
155.370892 61.47456 l
156.327415 61.632 l
156.327415 61.78944 l
156.792224 61.94688 l
156.792224 62.4192 l
157.696561 62.73408 l
157.696561 62.89152 l
159.412175 63.52128 l
159.412175 63.67872 l
159.823202 63.83616 l
159.823202 63.9936 l
161.017025 64.30848 l
161.017025 64.46592 l
161.782209 64.62336 l
161.782209 64.7808 l
162.524549 64.93824 l
163.945881 65.09568 l
163.945881 65.72544 l
164.627199 66.04032 l
164.627199 66.3552 l
165.615403 66.82752 l
166.253042 66.98496 l
166.253042 67.29984 l
166.874737 67.61472 l
166.874737 68.08704 l
167.179852 68.24448 l
167.179852 68.40192 l
167.481268 68.55936 l
167.481268 68.87424 l
167.779075 69.03168 l
168.651674 69.18912 l
168.651674 69.34656 l
169.494689 69.81888 l
169.494689 69.97632 l
169.76946 70.13376 l
170.310058 70.2912 l
170.310058 70.44864 l
170.576013 70.60608 l
171.612269 70.92096 l
171.612269 71.0784 l
171.864723 71.23584 l
171.864723 71.55072 l
172.11464 71.70816 l
172.11464 71.8656 l
172.36207 72.02304 l
172.36207 72.33792 l
172.607063 72.49536 l
172.607063 72.6528 l
172.849665 72.81024 l
172.849665 73.28256 l
173.563586 73.75488 l
174.257581 74.06976 l
174.257581 74.2272 l
174.932732 74.54208 l
175.153769 74.69952 l
175.153769 74.85696 l
175.590036 75.17184 l
175.590036 75.64416 l
175.805332 75.8016 l
175.805332 75.95904 l
176.01878 76.11648 l
176.01878 76.5888 l
177.262366 77.53344 l
177.262366 77.84832 l
178.058163 78.47808 l
178.82928 78.79296 l
178.82928 78.9504 l
179.206053 79.26528 l
179.206053 79.42272 l
179.577202 79.58016 l
179.577202 79.7376 l
179.76072 79.89504 l
181.008765 80.36736 l
181.354139 80.68224 l
181.354139 80.83968 l
182.030822 81.15456 l
182.030822 81.46944 l
182.36238 81.62688 l
182.36238 81.94176 l
182.689576 82.25664 l
182.689576 82.41408 l
183.012523 82.72896 l
183.012523 82.8864 l
183.331329 83.04384 l
183.331329 83.20128 l
183.6461 83.51616 l
183.6461 83.6736 l
183.956935 83.98848 l
183.956935 84.14592 l
184.110908 84.30336 l
184.717439 84.4608 l
184.717439 84.77568 l
185.309528 85.40544 l
186.030347 85.72032 l
186.030347 85.87776 l
186.312925 86.35008 l
186.312925 86.50752 l
187.141886 87.29472 l
187.944102 87.45216 l
187.944102 87.6096 l
188.464886 88.08192 l
188.974987 88.3968 l
188.974987 88.55424 l
189.226166 88.71168 l
189.226166 88.86912 l
189.843234 89.81376 l
189.843234 90.12864 l
190.085836 90.28608 l
190.085836 90.44352 l
190.206255 90.7584 l
190.206255 90.91584 l
190.682184 91.23072 l
191.033247 91.5456 l
191.720845 91.86048 l
191.720845 92.3328 l
192.057643 92.64768 l
192.279667 92.80512 l
192.38994 93.27744 l
193.041503 94.06464 l
194.090879 94.85184 l
194.699886 95.00928 l
194.799953 95.32416 l
194.899618 97.21344 l
195.196241 97.8432 l
195.196241 98.15808 l
195.586312 98.47296 l
196.065451 98.78784 l
196.348564 98.94528 l
196.442224 99.4176 l
196.996891 99.57504 l
197.088144 99.88992 l
197.269653 100.36224 l
197.359912 100.67712 l
198.33173 102.5664 l
198.418223 103.03872 l
198.761215 103.19616 l
198.761215 103.3536 l
198.930953 103.51104 l
198.930953 103.66848 l
199.516075 104.29824 l
199.680755 104.77056 l
200.087745 104.928 l
200.248694 105.40032 l
200.328779 106.03008 l
200.646567 106.34496 l
200.646567 106.65984 l
200.88227 106.81728 l
200.960344 107.13216 l
201.038174 107.44704 l
201.115761 108.0768 l
201.193106 108.23424 l
201.500104 108.54912 l
201.576265 109.17888 l
202.325314 109.49376 l
202.691544 109.6512 l
202.691544 109.80864 l
202.980693 110.28096 l
203.052458 110.59584 l
203.195369 110.91072 l
203.828498 112.17024 l
204.241801 112.48512 l
204.378057 112.64256 l
204.715464 112.8 l
204.7824 112.95744 l
205.311495 113.27232 l
205.311495 113.42976 l
205.829567 113.90208 l
206.021094 114.05952 l
206.64907 114.3744 l
206.711004 114.53184 l
207.382289 115.00416 l
207.382289 115.1616 l
207.621969 115.47648 l
207.85936 115.9488 l
208.035928 116.42112 l
208.672824 116.89344 l
208.729923 117.5232 l
208.786891 117.83808 l
209.237997 117.99552 l
209.405074 118.3104 l
210.277673 118.62528 l
210.597162 119.25504 l
210.597162 119.41248 l
210.964784 119.8848 l
211.378374 121.30176 l
211.734707 121.61664 l
212.086006 122.2464 l
212.135789 123.66336 l
212.235057 123.97824 l
212.432411 124.92288 l
212.481506 125.23776 l
212.579406 125.55264 l
212.967196 126.49728 l
213.20653 126.81216 l
213.631609 127.12704 l
213.725092 127.7568 l
214.141472 128.38656 l
214.187309 128.70144 l
214.27873 128.85888 l
214.505823 129.01632 l
214.596083 129.48864 l
214.953881 129.64608 l
214.998246 129.96096 l
215.654393 131.22048 l
216.544851 131.6928 l
216.669495 132.00768 l
216.916925 132.63744 l
217.039723 132.95232 l
217.323916 133.10976 l
217.40452 133.42464 l
218.274345 134.36928 l
218.698107 134.52672 l
218.736275 134.68416 l
219.001824 134.99904 l
219.077177 135.31392 l
219.264567 135.47136 l
219.33913 135.94368 l
219.487587 136.25856 l
219.524564 136.416 l
219.708625 136.57344 l
219.781869 137.04576 l
220.785266 138.62016 l
220.785266 138.7776 l
220.995112 138.93504 l
220.995112 139.09248 l
221.375289 139.5648 l
221.512106 139.87968 l
221.74974 141.1392 l
222.151903 141.29664 l
222.251436 143.18592 l
222.449314 143.81568 l
223.129744 144.60288 l
223.225446 144.91776 l
223.63595 146.17728 l
223.854216 146.96448 l
224.008956 147.4368 l
224.070583 147.90912 l
224.132057 148.224 l
224.132057 148.53888 l
224.738588 149.48352 l
224.947427 149.95584 l
225.036395 150.42816 l
225.70811 150.5856 l
225.765671 150.90048 l
226.390206 151.68768 l
226.474167 152.16 l
226.779623 153.41952 l
226.917236 153.7344 l
226.999439 154.36416 l
227.352547 154.83648 l
227.567378 155.15136 l
227.833333 155.62368 l
228.044068 155.93856 l
228.122635 156.25344 l
228.434445 156.8832 l
228.869589 157.04064 l
229.247315 157.98528 l
229.347081 158.30016 l
229.446448 160.18944 l
229.520713 160.50432 l
229.61939 160.97664 l
229.791138 161.44896 l
230.561509 163.81056 l
230.773944 163.968 l
230.86778 164.7552 l
230.914565 164.91264 l
231.100832 165.22752 l
231.124018 165.38496 l
231.400572 165.69984 l
231.583247 166.17216 l
231.877261 167.1168 l
232.101084 167.43168 l
232.16784 167.74656 l
232.367039 168.21888 l
232.367039 168.37632 l
232.847356 168.84864 l
233.233556 169.16352 l
233.31857 169.95072 l
233.676672 170.89536 l
234.25547 171.21024 l
234.337067 171.68256 l
234.841067 171.99744 l
234.900866 174.2016 l
235.099165 174.9888 l
235.237039 175.46112 l
235.452166 176.09088 l
235.491081 176.40576 l
236.162413 177.3504 l
236.294531 177.98016 l
236.612498 178.60992 l
237.09107 180.18432 l
237.109293 180.4992 l
237.363036 180.81408 l
237.614215 181.60128 l
238.318198 183.648 l
238.542767 183.96288 l
238.816405 184.75008 l
239.15427 185.69472 l
239.43789 185.85216 l
239.537224 187.584 l
239.751096 188.3712 l
239.832867 189.47328 l
239.91437 189.63072 l
240.157288 189.78816 l
240.349928 190.26048 l
240.50933 190.57536 l
240.762266 191.04768 l
240.965898 191.99232 l
241.059323 192.77952 l
241.612619 194.35392 l
242.213289 195.14112 l
242.346463 195.77088 l
242.434852 196.08576 l
242.785296 196.2432 l
242.857688 196.71552 l
242.973078 197.18784 l
243.13087 197.50272 l
243.273454 197.97504 l
243.372778 199.70688 l
243.598327 200.1792 l
244.180838 200.33664 l
244.249284 200.80896 l
244.439937 201.43872 l
244.790176 201.7536 l
245.332644 202.69824 l
246.105759 204.27264 l
246.333083 204.58752 l
246.595694 204.9024 l
246.632985 206.63424 l
247.294824 207.57888 l
247.666959 207.73632 l
247.750224 208.0512 l
247.99836 208.36608 l
247.99836 208.52352 l
248.371774 209.15328 l
248.659651 209.78304 l
248.796657 209.94048 l
249.514874 210.25536 l
249.636255 211.9872 l
249.855441 212.30208 l
249.931702 212.61696 l
250.32025 213.24672 l
250.77653 213.71904 l
250.839536 214.03392 l
251.16255 214.19136 l
251.183246 214.3488 l
251.481422 214.66368 l
251.481422 214.82112 l
252.14699 215.45088 l
252.14699 216.7104 l
252.404369 217.18272 l
252.522266 217.4976 l
252.746686 218.44224 l
253.294281 218.59968 l
253.455292 218.91456 l
253.68084 219.22944 l
254.135078 219.38688 l
254.153444 219.54432 l
254.409143 219.70176 l
254.445458 220.01664 l
254.796775 220.33152 l
255.275163 220.96128 l
256.078075 222.85056 l
256.499266 223.008 l
256.814667 223.63776 l
257.264198 224.26752 l
257.361207 224.5824 l
257.681863 224.73984 l
257.769323 225.05472 l
258.373081 225.3696 l
258.780297 225.52704 l
258.947391 226.31424 l
259.16595 226.47168 l
259.180952 226.62912 l
259.315568 226.78656 l
259.671022 227.10144 l
259.788387 227.25888 l
260.345583 227.57376 l
260.495403 227.7312 l
260.806415 227.88864 l
261.002326 228.5184 l
261.162106 228.67584 l
261.621785 228.83328 l
261.992884 229.77792 l
262.66026 230.0928 l
263.029139 230.88 l
263.029139 231.03744 l
263.481097 231.19488 l
263.512618 231.35232 l
264.385435 231.98208 l
264.597427 232.4544 l
265.509302 232.92672 l
265.717731 233.2416 l
266.78973 234.816 l
267.140664 235.13088 l
267.838605 235.91808 l
267.865061 236.07552 l
268.789034 236.54784 l
269.248463 237.02016 l
269.7192 237.1776 l
269.773135 237.33504 l
270.592138 237.49248 l
270.611088 237.64992 l
270.780987 237.9648 l
270.818585 238.12224 l
271.080193 238.43712 l
272.484997 238.90944 l
272.842544 239.22432 l
273.394823 239.38176 l
273.483579 239.5392 l
273.951669 239.85408 l
274.096159 240.01152 l
275.682735 240.48384 l
275.9172 240.79872 l
276.34202 241.27104 l
277.692422 241.58592 l
277.799054 241.74336 l
278.269839 242.05824 l
278.422502 242.37312 l
278.42596 242.53056 l
279.000302 242.84544 l
280.18166 243.00288 l
280.34868 243.4752 l
281.361733 244.73472 l
281.380166 244.89216 l
282.207718 245.20704 l
283.074683 245.67936 l
283.254762 246.15168 l
284.526119 246.93888 l
284.773844 247.25376 l
285.585669 247.4112 l
285.691765 247.56864 l
286.903778 248.04096 l
286.962732 248.51328 l
288.838292 248.9856 l
289.13683 249.14304 l
289.340572 249.45792 l
289.544871 249.7728 l
289.854759 250.40256 l
290.096025 250.71744 l
290.904695 251.18976 l
291.54342 251.3472 l
291.659472 251.50464 l
292.162168 251.66208 l
292.273392 251.81952 l
292.563011 251.97696 l
292.576719 252.1344 l
292.878324 252.44928 l
293.9459 252.9216 l
293.992177 253.23648 l
294.444824 253.55136 l
294.468421 253.7088 l
296.194193 254.81088 l
297.419442 255.12576 l
297.763472 255.2832 l
298.45458 255.44064 l
298.700648 255.75552 l
299.130007 255.91296 l
300.883697 256.22784 l
301.106967 256.54272 l
301.999295 256.70016 l
302.592582 257.01504 l
303.337692 257.32992 l
303.542585 257.80224 l
305.521147 258.11712 l
305.524637 258.27456 l
305.865398 258.432 l
306.553319 258.58944 l
306.615734 258.74688 l
307.274808 259.06176 l
307.402396 259.2192 l
308.206735 259.53408 l
309.833437 259.69152 l
310.084498 259.84896 l
310.857574 260.0064 l
311.371262 260.32128 l
311.988712 260.47872 l
311.990506 260.63616 l
313.111809 260.95104 l
313.123807 261.10848 l
313.534244 261.26592 l
313.708092 261.5808 l
313.931381 261.73824 l
313.934699 261.89568 l
314.093422 262.05312 l
315.39691 262.52544 l
315.87553 262.99776 l
315.923808 263.1552 l
316.351132 263.47008 l
316.40976 263.78496 l
316.726801 263.9424 l
317.900232 264.25728 l
318.314643 264.41472 l
319.413745 264.7296 l
319.434362 264.88704 l
320.186691 265.35936 l
323.508928 265.83168 l
323.623218 266.14656 l
324.904068 266.46144 l
325.021696 266.77632 l
328.204717 267.56352 l
328.908993 268.19328 l
329.57398 268.50816 l
329.816866 269.29536 l
330.955977 269.61024 l
331.183306 269.76768 l
332.001109 269.92512 l
332.363805 270.39744 l
332.878963 270.71232 l
333.652311 271.0272 l
334.984626 271.49952 l
335.531335 271.65696 l
335.616788 271.8144 l
336.252891 271.97184 l
336.314671 272.12928 l
338.210336 272.6016 l
338.217209 272.75904 l
338.704958 273.07392 l
339.194438 273.23136 l
340.66965 273.54624 l
342.055533 274.01856 l
343.031321 274.176 l
343.947697 275.12064 l
345.767177 275.27808 l
346.077631 275.43552 l
347.769052 275.90784 l
348.037749 276.22272 l
348.2717 276.38016 l
348.2717 276.5376 l
349.107403 277.00992 l
349.197142 277.16736 l
351.451549 277.63968 l
352.496885 278.112 l
352.874796 278.74176 l
354.000426 278.8992 l
354.011847 279.05664 l
354.262296 279.37152 l
356.878364 279.52896 l
357.431099 280.00128 l
357.558274 280.15872 l
358.723427 280.63104 l
360.776592 280.94592 l
360.806328 281.10336 l
361.205067 281.41824 l
361.540971 281.57568 l
363.252591 281.89056 l
364.514561 282.20544 l
364.583675 282.36288 l
365.291485 282.67776 l
365.309773 282.8352 l
365.758943 283.15008 l
366.134776 283.46496 l
366.55533 283.6224 l
368.372507 284.09472 l
368.691847 284.25216 l
368.738847 284.4096 l
369.336358 284.56704 l
372.915902 284.88192 l
373.36115 285.03936 l
374.869166 285.35424 l
377.587808 285.51168 l
377.587808 285.66912 l
380.047071 286.14144 l
380.242689 286.29888 l
381.180086 286.45632 l
381.313922 286.61376 l
382.07695 286.7712 l
382.153918 286.92864 l
382.822716 287.08608 l
386.299792 287.5584 l
387.022507 287.87328 l
388.239968 288.3456 l
388.35506 288.50304 l
388.87929 288.81792 l
389.301064 289.1328 l
389.734694 289.29024 l
392.362556 289.60512 l
392.552028 289.76256 l
393.697542 290.07744 l
397.373894 290.54976 l
397.680897 290.7072 l
400.82511 291.02208 l
404.131635 291.65184 l
404.140851 291.80928 l
405.342729 291.96672 l
405.479356 292.12416 l
409.463635 292.43904 l
409.51359 292.75392 l
409.823479 292.91136 l
410.451751 293.0688 l
410.454847 293.22624 l
410.68338 293.38368 l
413.976301 293.856 l
414.430629 294.01344 l
420.583584 294.32832 l
420.802696 294.48576 l
421.756928 294.6432 l
426.176724 294.80064 l
426.38767 294.95808 l
428.576448 295.27296 l
431.439681 295.4304 l
455.288766 295.90272 l
455.288766 295.90272 l
stroke
grestore
0.800 setlinewidth
0 setlinejoin
2 setlinecap
[] 0 setdash
0.000 setgray
gsave
57.6 38.016 m
57.6 321.408 l
stroke
grestore
gsave
456.192 38.016 m
456.192 321.408 l
stroke
grestore
gsave
57.6 38.016 m
456.192 38.016 l
stroke
grestore
gsave
57.6 321.408 m
456.192 321.408 l
stroke
grestore
/DejaVuSans findfont
12.000 scalefont
setfont
gsave
203.325688 327.408000 translate
0.000000 rotate
0.000000 0.000000 m /I glyphshow
3.539062 0.000000 m /n glyphshow
11.144531 0.000000 m /f glyphshow
15.369141 0.000000 m /i glyphshow
18.703125 0.000000 m /n glyphshow
26.308594 0.000000 m /i glyphshow
29.642578 0.000000 m /t glyphshow
34.347656 0.000000 m /e glyphshow
41.730469 0.000000 m /space glyphshow
45.544922 0.000000 m /p glyphshow
53.162109 0.000000 m /i glyphshow
56.496094 0.000000 m /v glyphshow
63.597656 0.000000 m /o glyphshow
70.939453 0.000000 m /t glyphshow
75.644531 0.000000 m /space glyphshow
79.458984 0.000000 m /r glyphshow
84.392578 0.000000 m /a glyphshow
91.746094 0.000000 m /t glyphshow
96.451172 0.000000 m /i glyphshow
99.785156 0.000000 m /o glyphshow
grestore
1.000 setlinewidth
0 setlinecap
0.800 setgray
gsave
64.6 269.392375 m
202.303125 269.392375 l
203.636458 269.392375 204.303125 270.059042 204.303125 271.392375 c
204.303125 314.408 l
204.303125 315.741333 203.636458 316.408 202.303125 316.408 c
64.6 316.408 l
63.266667 316.408 62.6 315.741333 62.6 314.408 c
62.6 271.392375 l
62.6 270.059042 63.266667 269.392375 64.6 269.392375 c
cl
gsave
1.000 setgray
fill
grestore
stroke
grestore
1.500 setlinewidth
1 setlinejoin
2 setlinecap
[] 0 setdash
0.122 0.467 0.706 setrgbcolor
gsave
66.6 308.31425 m
86.6 308.31425 l
stroke
grestore
0.000 setgray
/DejaVuSans findfont
10.000 scalefont
setfont
gsave
94.600000 304.814250 translate
0.000000 rotate
0.000000 0.000000 m /R glyphshow
6.948242 0.000000 m /o glyphshow
13.066406 0.000000 m /u glyphshow
19.404297 0.000000 m /n glyphshow
25.742188 0.000000 m /d glyphshow
32.089844 0.000000 m /i glyphshow
34.868164 0.000000 m /n glyphshow
41.206055 0.000000 m /g glyphshow
47.553711 0.000000 m /S glyphshow
53.901367 0.000000 m /a glyphshow
60.029297 0.000000 m /t glyphshow
63.950195 0.000000 m /plus glyphshow
72.329102 0.000000 m /S glyphshow
78.676758 0.000000 m /o glyphshow
84.794922 0.000000 m /P glyphshow
90.825195 0.000000 m /l glyphshow
93.603516 0.000000 m /e glyphshow
99.755859 0.000000 m /x glyphshow
grestore
0 setlinecap
[9.6 2.4 1.5 2.4] 0 setdash
1.000 0.498 0.055 setrgbcolor
gsave
66.6 293.642375 m
86.6 293.642375 l
stroke
grestore
0.000 setgray
gsave
94.600000 290.142375 translate
0.000000 rotate
0.000000 0.000000 m /n glyphshow
6.337891 0.000000 m /a glyphshow
12.465820 0.000000 m /i glyphshow
15.244141 0.000000 m /v glyphshow
21.162109 0.000000 m /e glyphshow
grestore
[1.5 2.475] 0 setdash
0.173 0.627 0.173 setrgbcolor
gsave
66.6 278.9705 m
86.6 278.9705 l
stroke
grestore
0.000 setgray
gsave
94.600000 275.470500 translate
0.000000 rotate
0.000000 0.000000 m /t glyphshow
3.920898 0.000000 m /i glyphshow
6.699219 0.000000 m /g glyphshow
13.046875 0.000000 m /h glyphshow
19.384766 0.000000 m /t glyphshow
grestore

end
showpage
