%!PS-Adobe-3.0 EPSF-3.0
%%Title: /home/jodv/workspace/PB_experiments/results/summarized/abisko_addlearnts-1/scripts/../graphs/learnts-1_ecdf_MIPLIB.eps
%%Creator: matplotlib version 3.0.3, http://matplotlib.org/
%%CreationDate: Fri Apr 19 21:39:19 2019
%%Orientation: portrait
%%BoundingBox: 126 216 486 576
%%EndComments
%%BeginProlog
/mpldict 8 dict def
mpldict begin
/m { moveto } bind def
/l { lineto } bind def
/r { rlineto } bind def
/c { curveto } bind def
/cl { closepath } bind def
/box {
m
1 index 0 r
0 exch r
neg 0 r
cl
} bind def
/clipbox {
box
clip
newpath
} bind def
%!PS-Adobe-3.0 Resource-Font
%%Title: DejaVu Sans
%%Copyright: Copyright (c) 2003 by Bitstream, Inc. All Rights Reserved. Copyright (c) 2006 by Tavmjong Bah. All Rights Reserved. DejaVu changes are in public domain 
%%Creator: Converted from TrueType to type 3 by PPR
25 dict begin
/_d{bind def}bind def
/_m{moveto}_d
/_l{lineto}_d
/_cl{closepath eofill}_d
/_c{curveto}_d
/_sc{7 -1 roll{setcachedevice}{pop pop pop pop pop pop}ifelse}_d
/_e{exec}_d
/FontName /DejaVuSans def
/PaintType 0 def
/FontMatrix[.001 0 0 .001 0 0]def
/FontBBox[-1021 -463 1793 1232]def
/FontType 3 def
/Encoding [ /space /parenleft /parenright /plus /zero /one /two /three /four /five /B /I /L /M /N /P /R /S /T /a /b /c /d /e /f /g /h /i /l /m /n /o /r /s /t /u /v /x /minus ] def
/FontInfo 10 dict dup begin
/FamilyName (DejaVu Sans) def
/FullName (DejaVu Sans) def
/Notice (Copyright (c) 2003 by Bitstream, Inc. All Rights Reserved. Copyright (c) 2006 by Tavmjong Bah. All Rights Reserved. DejaVu changes are in public domain ) def
/Weight (Book) def
/Version (Version 2.35) def
/ItalicAngle 0.0 def
/isFixedPitch false def
/UnderlinePosition -130 def
/UnderlineThickness 90 def
end readonly def
/CharStrings 40 dict dup begin
/.notdef 0 def
/space{318 0 0 0 0 0 _sc
}_d
/parenleft{390 0 86 -131 310 759 _sc
310 759 _m
266 683 234 609 213 536 _c
191 463 181 389 181 314 _c
181 238 191 164 213 91 _c
234 17 266 -56 310 -131 _c
232 -131 _l
183 -54 146 20 122 94 _c
98 168 86 241 86 314 _c
86 386 98 459 122 533 _c
146 607 182 682 232 759 _c
310 759 _l
_cl}_d
/parenright{390 0 80 -131 304 759 _sc
80 759 _m
158 759 _l
206 682 243 607 267 533 _c
291 459 304 386 304 314 _c
304 241 291 168 267 94 _c
243 20 206 -54 158 -131 _c
80 -131 _l
123 -56 155 17 177 91 _c
198 164 209 238 209 314 _c
209 389 198 463 177 536 _c
155 609 123 683 80 759 _c
_cl}_d
/plus{838 0 106 0 732 627 _sc
460 627 _m
460 355 _l
732 355 _l
732 272 _l
460 272 _l
460 0 _l
378 0 _l
378 272 _l
106 272 _l
106 355 _l
378 355 _l
378 627 _l
460 627 _l
_cl}_d
/zero{636 0 66 -13 570 742 _sc
318 664 _m
267 664 229 639 203 589 _c
177 539 165 464 165 364 _c
165 264 177 189 203 139 _c
229 89 267 64 318 64 _c
369 64 407 89 433 139 _c
458 189 471 264 471 364 _c
471 464 458 539 433 589 _c
407 639 369 664 318 664 _c
318 742 _m
399 742 461 709 505 645 _c
548 580 570 486 570 364 _c
570 241 548 147 505 83 _c
461 19 399 -13 318 -13 _c
236 -13 173 19 130 83 _c
87 147 66 241 66 364 _c
66 486 87 580 130 645 _c
173 709 236 742 318 742 _c
_cl}_d
/one{636 0 110 0 544 729 _sc
124 83 _m
285 83 _l
285 639 _l
110 604 _l
110 694 _l
284 729 _l
383 729 _l
383 83 _l
544 83 _l
544 0 _l
124 0 _l
124 83 _l
_cl}_d
/two{{636 0 73 0 536 742 _sc
192 83 _m
536 83 _l
536 0 _l
73 0 _l
73 83 _l
110 121 161 173 226 239 _c
290 304 331 346 348 365 _c
380 400 402 430 414 455 _c
426 479 433 504 433 528 _c
433 566 419 598 392 622 _c
365 646 330 659 286 659 _c
255 659 222 653 188 643 _c
154 632 117 616 78 594 _c
78 694 _l
118 710 155 722 189 730 _c
223 738 255 742 284 742 _c
}_e{359 742 419 723 464 685 _c
509 647 532 597 532 534 _c
532 504 526 475 515 449 _c
504 422 484 390 454 354 _c
446 344 420 317 376 272 _c
332 227 271 164 192 83 _c
_cl}_e}_d
/three{{636 0 76 -13 556 742 _sc
406 393 _m
453 383 490 362 516 330 _c
542 298 556 258 556 212 _c
556 140 531 84 482 45 _c
432 6 362 -13 271 -13 _c
240 -13 208 -10 176 -4 _c
144 1 110 10 76 22 _c
76 117 _l
103 101 133 89 166 81 _c
198 73 232 69 268 69 _c
330 69 377 81 409 105 _c
441 129 458 165 458 212 _c
458 254 443 288 413 312 _c
383 336 341 349 287 349 _c
}_e{202 349 _l
202 430 _l
291 430 _l
339 430 376 439 402 459 _c
428 478 441 506 441 543 _c
441 580 427 609 401 629 _c
374 649 336 659 287 659 _c
260 659 231 656 200 650 _c
169 644 135 635 98 623 _c
98 711 _l
135 721 170 729 203 734 _c
235 739 266 742 296 742 _c
370 742 429 725 473 691 _c
517 657 539 611 539 553 _c
539 513 527 479 504 451 _c
481 423 448 403 406 393 _c
_cl}_e}_d
/four{636 0 49 0 580 729 _sc
378 643 _m
129 254 _l
378 254 _l
378 643 _l
352 729 _m
476 729 _l
476 254 _l
580 254 _l
580 172 _l
476 172 _l
476 0 _l
378 0 _l
378 172 _l
49 172 _l
49 267 _l
352 729 _l
_cl}_d
/five{{636 0 77 -13 549 729 _sc
108 729 _m
495 729 _l
495 646 _l
198 646 _l
198 467 _l
212 472 227 476 241 478 _c
255 480 270 482 284 482 _c
365 482 429 459 477 415 _c
525 370 549 310 549 234 _c
549 155 524 94 475 51 _c
426 8 357 -13 269 -13 _c
238 -13 207 -10 175 -6 _c
143 -1 111 6 77 17 _c
77 116 _l
106 100 136 88 168 80 _c
199 72 232 69 267 69 _c
}_e{323 69 368 83 401 113 _c
433 143 450 183 450 234 _c
450 284 433 324 401 354 _c
368 384 323 399 267 399 _c
241 399 214 396 188 390 _c
162 384 135 375 108 363 _c
108 729 _l
_cl}_e}_d
/B{{686 0 98 0 615 729 _sc
197 348 _m
197 81 _l
355 81 _l
408 81 447 92 473 114 _c
498 136 511 169 511 215 _c
511 260 498 293 473 315 _c
447 337 408 348 355 348 _c
197 348 _l
197 648 _m
197 428 _l
343 428 _l
391 428 426 437 450 455 _c
474 473 486 500 486 538 _c
486 574 474 602 450 620 _c
426 638 391 648 343 648 _c
197 648 _l
98 729 _m
350 729 _l
}_e{425 729 483 713 524 682 _c
564 650 585 606 585 549 _c
585 504 574 468 553 442 _c
532 416 502 399 462 393 _c
510 382 548 360 575 327 _c
601 294 615 253 615 204 _c
615 138 592 88 548 53 _c
504 17 441 0 360 0 _c
98 0 _l
98 729 _l
_cl}_e}_d
/I{295 0 98 0 197 729 _sc
98 729 _m
197 729 _l
197 0 _l
98 0 _l
98 729 _l
_cl}_d
/L{557 0 98 0 552 729 _sc
98 729 _m
197 729 _l
197 83 _l
552 83 _l
552 0 _l
98 0 _l
98 729 _l
_cl}_d
/M{863 0 98 0 765 729 _sc
98 729 _m
245 729 _l
431 233 _l
618 729 _l
765 729 _l
765 0 _l
669 0 _l
669 640 _l
481 140 _l
382 140 _l
194 640 _l
194 0 _l
98 0 _l
98 729 _l
_cl}_d
/N{748 0 98 0 650 729 _sc
98 729 _m
231 729 _l
554 119 _l
554 729 _l
650 729 _l
650 0 _l
517 0 _l
194 610 _l
194 0 _l
98 0 _l
98 729 _l
_cl}_d
/P{603 0 98 0 569 729 _sc
197 648 _m
197 374 _l
321 374 _l
367 374 402 385 427 409 _c
452 433 465 467 465 511 _c
465 555 452 588 427 612 _c
402 636 367 648 321 648 _c
197 648 _l
98 729 _m
321 729 _l
402 729 464 710 506 673 _c
548 636 569 582 569 511 _c
569 439 548 384 506 348 _c
464 311 402 293 321 293 _c
197 293 _l
197 0 _l
98 0 _l
98 729 _l
_cl}_d
/R{{695 0 98 0 666 729 _sc
444 342 _m
465 334 486 319 506 296 _c
526 272 546 240 566 199 _c
666 0 _l
560 0 _l
467 187 _l
443 235 419 268 397 284 _c
374 300 343 308 304 308 _c
197 308 _l
197 0 _l
98 0 _l
98 729 _l
321 729 _l
404 729 466 711 507 677 _c
548 642 569 589 569 519 _c
569 473 558 434 537 404 _c
515 374 484 353 444 342 _c
197 648 _m
197 389 _l
321 389 _l
}_e{368 389 404 400 428 422 _c
452 444 465 476 465 519 _c
465 561 452 593 428 615 _c
404 637 368 648 321 648 _c
197 648 _l
_cl}_e}_d
/S{{635 0 66 -13 579 742 _sc
535 705 _m
535 609 _l
497 627 462 640 429 649 _c
395 657 363 662 333 662 _c
279 662 237 651 208 631 _c
179 610 165 580 165 542 _c
165 510 174 485 194 469 _c
213 452 250 439 304 429 _c
364 417 _l
437 403 491 378 526 343 _c
561 307 579 260 579 201 _c
579 130 555 77 508 41 _c
460 5 391 -13 300 -13 _c
265 -13 228 -9 189 -2 _c
}_e{150 5 110 16 69 32 _c
69 134 _l
109 111 148 94 186 83 _c
224 71 262 66 300 66 _c
356 66 399 77 430 99 _c
460 121 476 152 476 194 _c
476 230 465 258 443 278 _c
421 298 385 313 335 323 _c
275 335 _l
201 349 148 372 115 404 _c
82 435 66 478 66 534 _c
66 598 88 649 134 686 _c
179 723 242 742 322 742 _c
356 742 390 739 426 733 _c
461 727 497 717 535 705 _c
}_e{_cl}_e}_d
/T{611 0 -2 0 614 729 _sc
-2 729 _m
614 729 _l
614 646 _l
355 646 _l
355 0 _l
256 0 _l
256 646 _l
-2 646 _l
-2 729 _l
_cl}_d
/a{{613 0 60 -13 522 560 _sc
343 275 _m
270 275 220 266 192 250 _c
164 233 150 205 150 165 _c
150 133 160 107 181 89 _c
202 70 231 61 267 61 _c
317 61 357 78 387 114 _c
417 149 432 196 432 255 _c
432 275 _l
343 275 _l
522 312 _m
522 0 _l
432 0 _l
432 83 _l
411 49 385 25 355 10 _c
325 -5 287 -13 243 -13 _c
187 -13 142 2 109 33 _c
76 64 60 106 60 159 _c
}_e{60 220 80 266 122 298 _c
163 329 224 345 306 345 _c
432 345 _l
432 354 _l
432 395 418 427 391 450 _c
364 472 326 484 277 484 _c
245 484 215 480 185 472 _c
155 464 127 453 100 439 _c
100 522 _l
132 534 164 544 195 550 _c
226 556 256 560 286 560 _c
365 560 424 539 463 498 _c
502 457 522 395 522 312 _c
_cl}_e}_d
/b{{635 0 91 -13 580 760 _sc
487 273 _m
487 339 473 390 446 428 _c
418 466 381 485 334 485 _c
286 485 249 466 222 428 _c
194 390 181 339 181 273 _c
181 207 194 155 222 117 _c
249 79 286 61 334 61 _c
381 61 418 79 446 117 _c
473 155 487 207 487 273 _c
181 464 _m
199 496 223 520 252 536 _c
281 552 316 560 356 560 _c
422 560 476 533 518 481 _c
559 428 580 359 580 273 _c
}_e{580 187 559 117 518 65 _c
476 13 422 -13 356 -13 _c
316 -13 281 -5 252 10 _c
223 25 199 49 181 82 _c
181 0 _l
91 0 _l
91 760 _l
181 760 _l
181 464 _l
_cl}_e}_d
/c{{550 0 55 -13 488 560 _sc
488 526 _m
488 442 _l
462 456 437 466 411 473 _c
385 480 360 484 334 484 _c
276 484 230 465 198 428 _c
166 391 150 339 150 273 _c
150 206 166 154 198 117 _c
230 80 276 62 334 62 _c
360 62 385 65 411 72 _c
437 79 462 90 488 104 _c
488 21 _l
462 9 436 0 410 -5 _c
383 -10 354 -13 324 -13 _c
242 -13 176 12 128 64 _c
}_e{79 115 55 185 55 273 _c
55 362 79 432 128 483 _c
177 534 244 560 330 560 _c
358 560 385 557 411 551 _c
437 545 463 537 488 526 _c
_cl}_e}_d
/d{{635 0 55 -13 544 760 _sc
454 464 _m
454 760 _l
544 760 _l
544 0 _l
454 0 _l
454 82 _l
435 49 411 25 382 10 _c
353 -5 319 -13 279 -13 _c
213 -13 159 13 117 65 _c
75 117 55 187 55 273 _c
55 359 75 428 117 481 _c
159 533 213 560 279 560 _c
319 560 353 552 382 536 _c
411 520 435 496 454 464 _c
148 273 _m
148 207 161 155 188 117 _c
215 79 253 61 301 61 _c
}_e{348 61 385 79 413 117 _c
440 155 454 207 454 273 _c
454 339 440 390 413 428 _c
385 466 348 485 301 485 _c
253 485 215 466 188 428 _c
161 390 148 339 148 273 _c
_cl}_e}_d
/e{{615 0 55 -13 562 560 _sc
562 296 _m
562 252 _l
149 252 _l
153 190 171 142 205 110 _c
238 78 284 62 344 62 _c
378 62 412 66 444 74 _c
476 82 509 95 541 113 _c
541 28 _l
509 14 476 3 442 -3 _c
408 -9 373 -13 339 -13 _c
251 -13 182 12 131 62 _c
80 112 55 181 55 268 _c
55 357 79 428 127 481 _c
175 533 241 560 323 560 _c
397 560 455 536 498 489 _c
}_e{540 441 562 377 562 296 _c
472 322 _m
471 371 457 410 431 440 _c
404 469 368 484 324 484 _c
274 484 234 469 204 441 _c
174 413 156 373 152 322 _c
472 322 _l
_cl}_e}_d
/f{352 0 23 0 371 760 _sc
371 760 _m
371 685 _l
285 685 _l
253 685 230 678 218 665 _c
205 652 199 629 199 595 _c
199 547 _l
347 547 _l
347 477 _l
199 477 _l
199 0 _l
109 0 _l
109 477 _l
23 477 _l
23 547 _l
109 547 _l
109 585 _l
109 645 123 690 151 718 _c
179 746 224 760 286 760 _c
371 760 _l
_cl}_d
/g{{635 0 55 -207 544 560 _sc
454 280 _m
454 344 440 395 414 431 _c
387 467 349 485 301 485 _c
253 485 215 467 188 431 _c
161 395 148 344 148 280 _c
148 215 161 165 188 129 _c
215 93 253 75 301 75 _c
349 75 387 93 414 129 _c
440 165 454 215 454 280 _c
544 68 _m
544 -24 523 -93 482 -139 _c
440 -184 377 -207 292 -207 _c
260 -207 231 -204 203 -200 _c
175 -195 147 -188 121 -178 _c
}_e{121 -91 _l
147 -105 173 -115 199 -122 _c
225 -129 251 -133 278 -133 _c
336 -133 380 -117 410 -87 _c
439 -56 454 -10 454 52 _c
454 96 _l
435 64 411 40 382 24 _c
353 8 319 0 279 0 _c
211 0 157 25 116 76 _c
75 127 55 195 55 280 _c
55 364 75 432 116 483 _c
157 534 211 560 279 560 _c
319 560 353 552 382 536 _c
411 520 435 496 454 464 _c
454 547 _l
544 547 _l
}_e{544 68 _l
_cl}_e}_d
/h{634 0 91 0 549 760 _sc
549 330 _m
549 0 _l
459 0 _l
459 327 _l
459 379 448 417 428 443 _c
408 469 378 482 338 482 _c
289 482 251 466 223 435 _c
195 404 181 362 181 309 _c
181 0 _l
91 0 _l
91 760 _l
181 760 _l
181 462 _l
202 494 227 519 257 535 _c
286 551 320 560 358 560 _c
420 560 468 540 500 501 _c
532 462 549 405 549 330 _c
_cl}_d
/i{278 0 94 0 184 760 _sc
94 547 _m
184 547 _l
184 0 _l
94 0 _l
94 547 _l
94 760 _m
184 760 _l
184 646 _l
94 646 _l
94 760 _l
_cl}_d
/l{278 0 94 0 184 760 _sc
94 760 _m
184 760 _l
184 0 _l
94 0 _l
94 760 _l
_cl}_d
/m{{974 0 91 0 889 560 _sc
520 442 _m
542 482 569 511 600 531 _c
631 550 668 560 711 560 _c
767 560 811 540 842 500 _c
873 460 889 403 889 330 _c
889 0 _l
799 0 _l
799 327 _l
799 379 789 418 771 444 _c
752 469 724 482 686 482 _c
639 482 602 466 575 435 _c
548 404 535 362 535 309 _c
535 0 _l
445 0 _l
445 327 _l
445 379 435 418 417 444 _c
398 469 369 482 331 482 _c
}_e{285 482 248 466 221 435 _c
194 404 181 362 181 309 _c
181 0 _l
91 0 _l
91 547 _l
181 547 _l
181 462 _l
201 495 226 520 255 536 _c
283 552 317 560 357 560 _c
397 560 430 550 458 530 _c
486 510 506 480 520 442 _c
_cl}_e}_d
/n{634 0 91 0 549 560 _sc
549 330 _m
549 0 _l
459 0 _l
459 327 _l
459 379 448 417 428 443 _c
408 469 378 482 338 482 _c
289 482 251 466 223 435 _c
195 404 181 362 181 309 _c
181 0 _l
91 0 _l
91 547 _l
181 547 _l
181 462 _l
202 494 227 519 257 535 _c
286 551 320 560 358 560 _c
420 560 468 540 500 501 _c
532 462 549 405 549 330 _c
_cl}_d
/o{612 0 55 -13 557 560 _sc
306 484 _m
258 484 220 465 192 427 _c
164 389 150 338 150 273 _c
150 207 163 156 191 118 _c
219 80 257 62 306 62 _c
354 62 392 80 420 118 _c
448 156 462 207 462 273 _c
462 337 448 389 420 427 _c
392 465 354 484 306 484 _c
306 560 _m
384 560 445 534 490 484 _c
534 433 557 363 557 273 _c
557 183 534 113 490 63 _c
445 12 384 -13 306 -13 _c
227 -13 165 12 121 63 _c
77 113 55 183 55 273 _c
55 363 77 433 121 484 _c
165 534 227 560 306 560 _c
_cl}_d
/r{411 0 91 0 411 560 _sc
411 463 _m
401 469 390 473 378 476 _c
366 478 353 480 339 480 _c
288 480 249 463 222 430 _c
194 397 181 350 181 288 _c
181 0 _l
91 0 _l
91 547 _l
181 547 _l
181 462 _l
199 495 224 520 254 536 _c
284 552 321 560 365 560 _c
371 560 378 559 386 559 _c
393 558 401 557 411 555 _c
411 463 _l
_cl}_d
/s{{521 0 54 -13 472 560 _sc
443 531 _m
443 446 _l
417 458 391 468 364 475 _c
336 481 308 485 279 485 _c
234 485 200 478 178 464 _c
156 450 145 430 145 403 _c
145 382 153 366 169 354 _c
185 342 217 330 265 320 _c
296 313 _l
360 299 405 279 432 255 _c
458 230 472 195 472 151 _c
472 100 452 60 412 31 _c
372 1 316 -13 246 -13 _c
216 -13 186 -10 154 -5 _c
}_e{122 0 89 8 54 20 _c
54 113 _l
87 95 120 82 152 74 _c
184 65 216 61 248 61 _c
290 61 323 68 346 82 _c
368 96 380 117 380 144 _c
380 168 371 187 355 200 _c
339 213 303 226 247 238 _c
216 245 _l
160 257 119 275 95 299 _c
70 323 58 356 58 399 _c
58 450 76 490 112 518 _c
148 546 200 560 268 560 _c
301 560 332 557 362 552 _c
391 547 418 540 443 531 _c
}_e{_cl}_e}_d
/t{392 0 27 0 368 702 _sc
183 702 _m
183 547 _l
368 547 _l
368 477 _l
183 477 _l
183 180 _l
183 135 189 106 201 94 _c
213 81 238 75 276 75 _c
368 75 _l
368 0 _l
276 0 _l
206 0 158 13 132 39 _c
106 65 93 112 93 180 _c
93 477 _l
27 477 _l
27 547 _l
93 547 _l
93 702 _l
183 702 _l
_cl}_d
/u{634 0 85 -13 543 560 _sc
85 216 _m
85 547 _l
175 547 _l
175 219 _l
175 167 185 129 205 103 _c
225 77 255 64 296 64 _c
344 64 383 79 411 110 _c
439 141 453 183 453 237 _c
453 547 _l
543 547 _l
543 0 _l
453 0 _l
453 84 _l
431 50 405 26 377 10 _c
348 -5 315 -13 277 -13 _c
214 -13 166 6 134 45 _c
101 83 85 140 85 216 _c
311 560 _m
311 560 _l
_cl}_d
/v{592 0 30 0 562 547 _sc
30 547 _m
125 547 _l
296 88 _l
467 547 _l
562 547 _l
357 0 _l
235 0 _l
30 547 _l
_cl}_d
/x{592 0 29 0 559 547 _sc
549 547 _m
351 281 _l
559 0 _l
453 0 _l
294 215 _l
135 0 _l
29 0 _l
241 286 _l
47 547 _l
153 547 _l
298 352 _l
443 547 _l
549 547 _l
_cl}_d
/minus{838 0 106 272 732 355 _sc
106 355 _m
732 355 _l
732 272 _l
106 272 _l
106 355 _l
_cl}_d
end readonly def

/BuildGlyph
 {exch begin
 CharStrings exch
 2 copy known not{pop /.notdef}if
 true 3 1 roll get exec
 end}_d

/BuildChar {
 1 index /Encoding get exch get
 1 index /BuildGlyph get exec
}_d

FontName currentdict end definefont pop
end
%%EndProlog
mpldict begin
126 216 translate
360 360 0 0 clipbox
gsave
0 0 m
360 0 l
360 360 l
0 360 l
cl
1.000 setgray
fill
grestore
gsave
45 39.6 m
356.4 39.6 l
356.4 334.8 l
45 334.8 l
cl
1.000 setgray
fill
grestore
0.800 setlinewidth
1 setlinejoin
0 setlinecap
[] 0 setdash
0.000 setgray
gsave
/o {
gsave
newpath
translate
0.8 setlinewidth
1 setlinejoin
0 setlinecap
0 0 m
0 -3.5 l

gsave
0.000 setgray
fill
grestore
stroke
grestore
} bind def
45 39.6 o
grestore
gsave
33.000000 23.678125 translate
0.000000 rotate
/DejaVuSans findfont
10.0 scalefont
setfont
0.000000 0.976562 moveto
/one glyphshow

6.362305 0.976562 moveto
/zero glyphshow

/DejaVuSans findfont
7.0 scalefont
setfont
12.820312 4.804688 moveto
/minus glyphshow

18.685547 4.804688 moveto
/two glyphshow


grestore
gsave
/o {
gsave
newpath
translate
0.8 setlinewidth
1 setlinejoin
0 setlinecap
0 0 m
0 -3.5 l

gsave
0.000 setgray
fill
grestore
stroke
grestore
} bind def
101.855 39.6 o
grestore
gsave
89.854684 24.678125 translate
0.000000 rotate
/DejaVuSans findfont
10.0 scalefont
setfont
0.000000 0.064063 moveto
/one glyphshow

6.362305 0.064063 moveto
/zero glyphshow

/DejaVuSans findfont
7.0 scalefont
setfont
12.820312 3.892188 moveto
/minus glyphshow

18.685547 3.892188 moveto
/one glyphshow


grestore
gsave
/o {
gsave
newpath
translate
0.8 setlinewidth
1 setlinejoin
0 setlinecap
0 0 m
0 -3.5 l

gsave
0.000 setgray
fill
grestore
stroke
grestore
} bind def
158.709 39.6 o
grestore
gsave
149.709369 23.678125 translate
0.000000 rotate
/DejaVuSans findfont
10.0 scalefont
setfont
0.000000 0.976562 moveto
/one glyphshow

6.362305 0.976562 moveto
/zero glyphshow

/DejaVuSans findfont
7.0 scalefont
setfont
12.820312 4.804688 moveto
/zero glyphshow


grestore
gsave
/o {
gsave
newpath
translate
0.8 setlinewidth
1 setlinejoin
0 setlinecap
0 0 m
0 -3.5 l

gsave
0.000 setgray
fill
grestore
stroke
grestore
} bind def
215.564 39.6 o
grestore
gsave
206.564053 24.678125 translate
0.000000 rotate
/DejaVuSans findfont
10.0 scalefont
setfont
0.000000 0.064063 moveto
/one glyphshow

6.362305 0.064063 moveto
/zero glyphshow

/DejaVuSans findfont
7.0 scalefont
setfont
12.820312 3.892188 moveto
/one glyphshow


grestore
gsave
/o {
gsave
newpath
translate
0.8 setlinewidth
1 setlinejoin
0 setlinecap
0 0 m
0 -3.5 l

gsave
0.000 setgray
fill
grestore
stroke
grestore
} bind def
272.419 39.6 o
grestore
gsave
263.418737 23.678125 translate
0.000000 rotate
/DejaVuSans findfont
10.0 scalefont
setfont
0.000000 0.976562 moveto
/one glyphshow

6.362305 0.976562 moveto
/zero glyphshow

/DejaVuSans findfont
7.0 scalefont
setfont
12.820312 4.804688 moveto
/two glyphshow


grestore
gsave
/o {
gsave
newpath
translate
0.8 setlinewidth
1 setlinejoin
0 setlinecap
0 0 m
0 -3.5 l

gsave
0.000 setgray
fill
grestore
stroke
grestore
} bind def
329.273 39.6 o
grestore
gsave
320.273422 23.678125 translate
0.000000 rotate
/DejaVuSans findfont
10.0 scalefont
setfont
0.000000 0.976562 moveto
/one glyphshow

6.362305 0.976562 moveto
/zero glyphshow

/DejaVuSans findfont
7.0 scalefont
setfont
12.820312 4.804688 moveto
/three glyphshow


grestore
0.600 setlinewidth
gsave
/o {
gsave
newpath
translate
0.6 setlinewidth
1 setlinejoin
0 setlinecap
0 0 m
0 -2 l

gsave
0.000 setgray
fill
grestore
stroke
grestore
} bind def
62.115 39.6 o
grestore
gsave
/o {
gsave
newpath
translate
0.6 setlinewidth
1 setlinejoin
0 setlinecap
0 0 m
0 -2 l

gsave
0.000 setgray
fill
grestore
stroke
grestore
} bind def
72.1266 39.6 o
grestore
gsave
/o {
gsave
newpath
translate
0.6 setlinewidth
1 setlinejoin
0 setlinecap
0 0 m
0 -2 l

gsave
0.000 setgray
fill
grestore
stroke
grestore
} bind def
79.2299 39.6 o
grestore
gsave
/o {
gsave
newpath
translate
0.6 setlinewidth
1 setlinejoin
0 setlinecap
0 0 m
0 -2 l

gsave
0.000 setgray
fill
grestore
stroke
grestore
} bind def
84.7397 39.6 o
grestore
gsave
/o {
gsave
newpath
translate
0.6 setlinewidth
1 setlinejoin
0 setlinecap
0 0 m
0 -2 l

gsave
0.000 setgray
fill
grestore
stroke
grestore
} bind def
89.2415 39.6 o
grestore
gsave
/o {
gsave
newpath
translate
0.6 setlinewidth
1 setlinejoin
0 setlinecap
0 0 m
0 -2 l

gsave
0.000 setgray
fill
grestore
stroke
grestore
} bind def
93.0478 39.6 o
grestore
gsave
/o {
gsave
newpath
translate
0.6 setlinewidth
1 setlinejoin
0 setlinecap
0 0 m
0 -2 l

gsave
0.000 setgray
fill
grestore
stroke
grestore
} bind def
96.3449 39.6 o
grestore
gsave
/o {
gsave
newpath
translate
0.6 setlinewidth
1 setlinejoin
0 setlinecap
0 0 m
0 -2 l

gsave
0.000 setgray
fill
grestore
stroke
grestore
} bind def
99.2532 39.6 o
grestore
gsave
/o {
gsave
newpath
translate
0.6 setlinewidth
1 setlinejoin
0 setlinecap
0 0 m
0 -2 l

gsave
0.000 setgray
fill
grestore
stroke
grestore
} bind def
118.97 39.6 o
grestore
gsave
/o {
gsave
newpath
translate
0.6 setlinewidth
1 setlinejoin
0 setlinecap
0 0 m
0 -2 l

gsave
0.000 setgray
fill
grestore
stroke
grestore
} bind def
128.981 39.6 o
grestore
gsave
/o {
gsave
newpath
translate
0.6 setlinewidth
1 setlinejoin
0 setlinecap
0 0 m
0 -2 l

gsave
0.000 setgray
fill
grestore
stroke
grestore
} bind def
136.085 39.6 o
grestore
gsave
/o {
gsave
newpath
translate
0.6 setlinewidth
1 setlinejoin
0 setlinecap
0 0 m
0 -2 l

gsave
0.000 setgray
fill
grestore
stroke
grestore
} bind def
141.594 39.6 o
grestore
gsave
/o {
gsave
newpath
translate
0.6 setlinewidth
1 setlinejoin
0 setlinecap
0 0 m
0 -2 l

gsave
0.000 setgray
fill
grestore
stroke
grestore
} bind def
146.096 39.6 o
grestore
gsave
/o {
gsave
newpath
translate
0.6 setlinewidth
1 setlinejoin
0 setlinecap
0 0 m
0 -2 l

gsave
0.000 setgray
fill
grestore
stroke
grestore
} bind def
149.902 39.6 o
grestore
gsave
/o {
gsave
newpath
translate
0.6 setlinewidth
1 setlinejoin
0 setlinecap
0 0 m
0 -2 l

gsave
0.000 setgray
fill
grestore
stroke
grestore
} bind def
153.2 39.6 o
grestore
gsave
/o {
gsave
newpath
translate
0.6 setlinewidth
1 setlinejoin
0 setlinecap
0 0 m
0 -2 l

gsave
0.000 setgray
fill
grestore
stroke
grestore
} bind def
156.108 39.6 o
grestore
gsave
/o {
gsave
newpath
translate
0.6 setlinewidth
1 setlinejoin
0 setlinecap
0 0 m
0 -2 l

gsave
0.000 setgray
fill
grestore
stroke
grestore
} bind def
175.824 39.6 o
grestore
gsave
/o {
gsave
newpath
translate
0.6 setlinewidth
1 setlinejoin
0 setlinecap
0 0 m
0 -2 l

gsave
0.000 setgray
fill
grestore
stroke
grestore
} bind def
185.836 39.6 o
grestore
gsave
/o {
gsave
newpath
translate
0.6 setlinewidth
1 setlinejoin
0 setlinecap
0 0 m
0 -2 l

gsave
0.000 setgray
fill
grestore
stroke
grestore
} bind def
192.939 39.6 o
grestore
gsave
/o {
gsave
newpath
translate
0.6 setlinewidth
1 setlinejoin
0 setlinecap
0 0 m
0 -2 l

gsave
0.000 setgray
fill
grestore
stroke
grestore
} bind def
198.449 39.6 o
grestore
gsave
/o {
gsave
newpath
translate
0.6 setlinewidth
1 setlinejoin
0 setlinecap
0 0 m
0 -2 l

gsave
0.000 setgray
fill
grestore
stroke
grestore
} bind def
202.951 39.6 o
grestore
gsave
/o {
gsave
newpath
translate
0.6 setlinewidth
1 setlinejoin
0 setlinecap
0 0 m
0 -2 l

gsave
0.000 setgray
fill
grestore
stroke
grestore
} bind def
206.757 39.6 o
grestore
gsave
/o {
gsave
newpath
translate
0.6 setlinewidth
1 setlinejoin
0 setlinecap
0 0 m
0 -2 l

gsave
0.000 setgray
fill
grestore
stroke
grestore
} bind def
210.054 39.6 o
grestore
gsave
/o {
gsave
newpath
translate
0.6 setlinewidth
1 setlinejoin
0 setlinecap
0 0 m
0 -2 l

gsave
0.000 setgray
fill
grestore
stroke
grestore
} bind def
212.963 39.6 o
grestore
gsave
/o {
gsave
newpath
translate
0.6 setlinewidth
1 setlinejoin
0 setlinecap
0 0 m
0 -2 l

gsave
0.000 setgray
fill
grestore
stroke
grestore
} bind def
232.679 39.6 o
grestore
gsave
/o {
gsave
newpath
translate
0.6 setlinewidth
1 setlinejoin
0 setlinecap
0 0 m
0 -2 l

gsave
0.000 setgray
fill
grestore
stroke
grestore
} bind def
242.691 39.6 o
grestore
gsave
/o {
gsave
newpath
translate
0.6 setlinewidth
1 setlinejoin
0 setlinecap
0 0 m
0 -2 l

gsave
0.000 setgray
fill
grestore
stroke
grestore
} bind def
249.794 39.6 o
grestore
gsave
/o {
gsave
newpath
translate
0.6 setlinewidth
1 setlinejoin
0 setlinecap
0 0 m
0 -2 l

gsave
0.000 setgray
fill
grestore
stroke
grestore
} bind def
255.304 39.6 o
grestore
gsave
/o {
gsave
newpath
translate
0.6 setlinewidth
1 setlinejoin
0 setlinecap
0 0 m
0 -2 l

gsave
0.000 setgray
fill
grestore
stroke
grestore
} bind def
259.806 39.6 o
grestore
gsave
/o {
gsave
newpath
translate
0.6 setlinewidth
1 setlinejoin
0 setlinecap
0 0 m
0 -2 l

gsave
0.000 setgray
fill
grestore
stroke
grestore
} bind def
263.612 39.6 o
grestore
gsave
/o {
gsave
newpath
translate
0.6 setlinewidth
1 setlinejoin
0 setlinecap
0 0 m
0 -2 l

gsave
0.000 setgray
fill
grestore
stroke
grestore
} bind def
266.909 39.6 o
grestore
gsave
/o {
gsave
newpath
translate
0.6 setlinewidth
1 setlinejoin
0 setlinecap
0 0 m
0 -2 l

gsave
0.000 setgray
fill
grestore
stroke
grestore
} bind def
269.817 39.6 o
grestore
gsave
/o {
gsave
newpath
translate
0.6 setlinewidth
1 setlinejoin
0 setlinecap
0 0 m
0 -2 l

gsave
0.000 setgray
fill
grestore
stroke
grestore
} bind def
289.534 39.6 o
grestore
gsave
/o {
gsave
newpath
translate
0.6 setlinewidth
1 setlinejoin
0 setlinecap
0 0 m
0 -2 l

gsave
0.000 setgray
fill
grestore
stroke
grestore
} bind def
299.545 39.6 o
grestore
gsave
/o {
gsave
newpath
translate
0.6 setlinewidth
1 setlinejoin
0 setlinecap
0 0 m
0 -2 l

gsave
0.000 setgray
fill
grestore
stroke
grestore
} bind def
306.649 39.6 o
grestore
gsave
/o {
gsave
newpath
translate
0.6 setlinewidth
1 setlinejoin
0 setlinecap
0 0 m
0 -2 l

gsave
0.000 setgray
fill
grestore
stroke
grestore
} bind def
312.158 39.6 o
grestore
gsave
/o {
gsave
newpath
translate
0.6 setlinewidth
1 setlinejoin
0 setlinecap
0 0 m
0 -2 l

gsave
0.000 setgray
fill
grestore
stroke
grestore
} bind def
316.66 39.6 o
grestore
gsave
/o {
gsave
newpath
translate
0.6 setlinewidth
1 setlinejoin
0 setlinecap
0 0 m
0 -2 l

gsave
0.000 setgray
fill
grestore
stroke
grestore
} bind def
320.467 39.6 o
grestore
gsave
/o {
gsave
newpath
translate
0.6 setlinewidth
1 setlinejoin
0 setlinecap
0 0 m
0 -2 l

gsave
0.000 setgray
fill
grestore
stroke
grestore
} bind def
323.764 39.6 o
grestore
gsave
/o {
gsave
newpath
translate
0.6 setlinewidth
1 setlinejoin
0 setlinecap
0 0 m
0 -2 l

gsave
0.000 setgray
fill
grestore
stroke
grestore
} bind def
326.672 39.6 o
grestore
gsave
/o {
gsave
newpath
translate
0.6 setlinewidth
1 setlinejoin
0 setlinecap
0 0 m
0 -2 l

gsave
0.000 setgray
fill
grestore
stroke
grestore
} bind def
346.388 39.6 o
grestore
gsave
/o {
gsave
newpath
translate
0.6 setlinewidth
1 setlinejoin
0 setlinecap
0 0 m
0 -2 l

gsave
0.000 setgray
fill
grestore
stroke
grestore
} bind def
356.4 39.6 o
grestore
/DejaVuSans findfont
10.000 scalefont
setfont
gsave
159.395312 10.006250 translate
0.000000 rotate
0.000000 0.000000 m /T glyphshow
6.108398 0.000000 m /i glyphshow
8.886719 0.000000 m /m glyphshow
18.627930 0.000000 m /e glyphshow
24.780273 0.000000 m /o glyphshow
30.898438 0.000000 m /u glyphshow
37.236328 0.000000 m /t glyphshow
41.157227 0.000000 m /space glyphshow
44.335938 0.000000 m /l glyphshow
47.114258 0.000000 m /i glyphshow
49.892578 0.000000 m /m glyphshow
59.633789 0.000000 m /i glyphshow
62.412109 0.000000 m /t glyphshow
66.333008 0.000000 m /space glyphshow
69.511719 0.000000 m /parenleft glyphshow
73.413086 0.000000 m /s glyphshow
78.623047 0.000000 m /parenright glyphshow
grestore
0.800 setlinewidth
gsave
/o {
gsave
newpath
translate
0.8 setlinewidth
1 setlinejoin
0 setlinecap
0 0 m
-3.5 0 l

gsave
0.000 setgray
fill
grestore
stroke
grestore
} bind def
45 39.6 o
grestore
gsave
31.640625 35.803125 translate
0.000000 rotate
0.000000 0.000000 m /zero glyphshow
grestore
gsave
/o {
gsave
newpath
translate
0.8 setlinewidth
1 setlinejoin
0 setlinecap
0 0 m
-3.5 0 l

gsave
0.000 setgray
fill
grestore
stroke
grestore
} bind def
45 92.6935 o
grestore
gsave
18.921875 88.896650 translate
0.000000 rotate
0.000000 0.000000 m /one glyphshow
6.362305 0.000000 m /zero glyphshow
12.724609 0.000000 m /zero glyphshow
grestore
gsave
/o {
gsave
newpath
translate
0.8 setlinewidth
1 setlinejoin
0 setlinecap
0 0 m
-3.5 0 l

gsave
0.000 setgray
fill
grestore
stroke
grestore
} bind def
45 145.787 o
grestore
gsave
18.921875 141.990175 translate
0.000000 rotate
0.000000 0.000000 m /two glyphshow
6.362305 0.000000 m /zero glyphshow
12.724609 0.000000 m /zero glyphshow
grestore
gsave
/o {
gsave
newpath
translate
0.8 setlinewidth
1 setlinejoin
0 setlinecap
0 0 m
-3.5 0 l

gsave
0.000 setgray
fill
grestore
stroke
grestore
} bind def
45 198.881 o
grestore
gsave
18.921875 195.083701 translate
0.000000 rotate
0.000000 0.000000 m /three glyphshow
6.362305 0.000000 m /zero glyphshow
12.724609 0.000000 m /zero glyphshow
grestore
gsave
/o {
gsave
newpath
translate
0.8 setlinewidth
1 setlinejoin
0 setlinecap
0 0 m
-3.5 0 l

gsave
0.000 setgray
fill
grestore
stroke
grestore
} bind def
45 251.974 o
grestore
gsave
18.921875 248.177226 translate
0.000000 rotate
0.000000 0.000000 m /four glyphshow
6.362305 0.000000 m /zero glyphshow
12.724609 0.000000 m /zero glyphshow
grestore
gsave
/o {
gsave
newpath
translate
0.8 setlinewidth
1 setlinejoin
0 setlinecap
0 0 m
-3.5 0 l

gsave
0.000 setgray
fill
grestore
stroke
grestore
} bind def
45 305.068 o
grestore
gsave
18.921875 301.270751 translate
0.000000 rotate
0.000000 0.000000 m /five glyphshow
6.362305 0.000000 m /zero glyphshow
12.724609 0.000000 m /zero glyphshow
grestore
gsave
12.843750 117.426563 translate
90.000000 rotate
0.000000 0.000000 m /N glyphshow
7.480469 0.000000 m /u glyphshow
13.818359 0.000000 m /m glyphshow
23.559570 0.000000 m /b glyphshow
29.907227 0.000000 m /e glyphshow
36.059570 0.000000 m /r glyphshow
40.170898 0.000000 m /space glyphshow
43.349609 0.000000 m /o glyphshow
49.467773 0.000000 m /f glyphshow
52.988281 0.000000 m /space glyphshow
56.166992 0.000000 m /s glyphshow
61.376953 0.000000 m /o glyphshow
67.495117 0.000000 m /l glyphshow
70.273438 0.000000 m /v glyphshow
76.191406 0.000000 m /e glyphshow
82.343750 0.000000 m /d glyphshow
88.691406 0.000000 m /space glyphshow
91.870117 0.000000 m /i glyphshow
94.648438 0.000000 m /n glyphshow
100.986328 0.000000 m /s glyphshow
106.196289 0.000000 m /t glyphshow
110.117188 0.000000 m /a glyphshow
116.245117 0.000000 m /n glyphshow
122.583008 0.000000 m /c glyphshow
128.081055 0.000000 m /e glyphshow
134.233398 0.000000 m /s glyphshow
grestore
1.500 setlinewidth
2 setlinecap
0.122 0.467 0.706 setrgbcolor
gsave
311.4 295.2 45 39.6 clipbox
-1 66.677267 m
45 66.677698 l
45 67.208633 l
62.114965 67.739568 l
72.126578 68.270504 l
79.229931 68.801439 l
89.241544 69.332374 l
89.241544 69.863309 l
96.344896 70.394245 l
96.344896 71.456115 l
101.854684 72.517986 l
104.208052 73.048921 l
104.208052 74.641727 l
128.981263 75.172662 l
132.07175 75.703597 l
132.07175 76.234532 l
132.787501 76.765468 l
132.787501 77.827338 l
134.159614 78.358273 l
135.459476 79.420144 l
135.459476 79.951079 l
137.870333 81.01295 l
146.504364 81.543885 l
147.689792 82.07482 l
149.547185 82.605755 l
150.252709 83.136691 l
153.19958 83.667626 l
155.831953 84.729496 l
158.21053 85.260432 l
165.935872 85.791367 l
169.3708 86.322302 l
174.557817 86.853237 l
174.816371 87.384173 l
176.911185 87.915108 l
178.289683 88.976978 l
181.53087 89.507914 l
194.20273 90.038849 l
195.236486 90.569784 l
196.390256 91.631655 l
196.92128 92.16259 l
197.84926 92.693525 l
197.899806 93.22446 l
201.942949 94.286331 l
202.494031 94.817266 l
205.154179 95.348201 l
211.434718 95.879137 l
212.323313 96.410072 l
217.188463 96.941007 l
217.46435 98.002878 l
220.209494 98.533813 l
224.942084 99.064748 l
226.44894 99.595683 l
230.282402 100.126619 l
232.393419 100.657554 l
232.863515 101.188489 l
232.912482 101.719424 l
234.533548 102.25036 l
234.795561 103.31223 l
236.17288 103.843165 l
239.071612 104.374101 l
241.057529 104.905036 l
242.375872 105.435971 l
242.707087 105.966906 l
243.856118 106.497842 l
244.514602 107.028777 l
248.035257 107.559712 l
248.501461 108.090647 l
248.811727 108.621583 l
250.559773 109.152518 l
250.744596 109.683453 l
253.341371 110.214388 l
254.556774 110.745324 l
255.224632 111.276259 l
255.338316 111.807194 l
256.310155 112.338129 l
259.91646 113.4 l
263.320882 113.930935 l
264.910431 114.461871 l
265.364719 114.992806 l
266.837858 115.523741 l
268.92614 116.054676 l
271.54416 116.585612 l
273.42275 117.116547 l
273.969053 118.709353 l
282.110589 119.771223 l
285.312259 120.302158 l
285.632424 120.833094 l
287.274108 121.364029 l
288.299653 121.894964 l
288.443296 122.425899 l
289.731675 122.956835 l
290.385517 123.48777 l
291.351557 124.018705 l
293.707219 124.54964 l
293.840311 125.080576 l
296.101971 125.611511 l
296.20301 126.142446 l
297.309611 127.204317 l
299.043957 128.266187 l
299.250555 128.797122 l
303.696927 129.328058 l
304.060169 129.858993 l
304.792308 130.389928 l
306.224045 130.920863 l
314.388959 131.451799 l
316.45739 131.982734 l
316.564622 132.513669 l
319.769643 133.044604 l
320.587564 133.57554 l
321.14255 134.106475 l
321.294809 134.63741 l
323.505183 135.168345 l
324.346521 136.230216 l
325.293361 136.761151 l
325.486394 137.292086 l
328.671317 137.823022 l
330.689806 138.353957 l
331.720664 138.884892 l
336.982923 139.946763 l
340.839833 140.477698 l
342.084779 141.008633 l
345.000975 141.539568 l
346.971697 142.070504 l
347.46082 142.601439 l
348.678486 143.132374 l
350.486827 143.663309 l
354.791858 144.194245 l
361 144.37029 l
361 144.37029 l
stroke
grestore
0 setlinecap
[9.6 2.4 1.5 2.4] 0 setdash
1.000 0.498 0.055 setrgbcolor
gsave
311.4 295.2 45 39.6 clipbox
-1 62.960721 m
45 62.961151 l
62.114965 63.492086 l
72.126578 64.023022 l
72.126578 64.553957 l
79.229931 65.084892 l
79.229931 65.615827 l
89.241544 66.677698 l
89.241544 67.208633 l
93.047782 67.739568 l
93.047782 68.270504 l
96.344896 68.801439 l
96.344896 69.332374 l
99.253157 69.863309 l
99.253157 70.394245 l
101.854684 70.92518 l
101.854684 72.517986 l
106.356509 73.579856 l
130.574827 74.641727 l
131.334631 75.172662 l
132.787501 75.703597 l
134.818098 76.234532 l
136.694317 77.827338 l
150.598053 78.358273 l
151.274579 79.420144 l
155.270755 79.951079 l
157.181561 80.482014 l
157.442851 81.01295 l
157.442851 81.543885 l
158.955059 82.07482 l
159.198329 82.605755 l
162.374107 83.136691 l
164.219157 83.667626 l
173.222806 84.729496 l
174.164837 85.260432 l
177.724631 86.322302 l
178.401158 86.853237 l
178.622609 87.384173 l
179.489073 87.915108 l
180.119533 88.446043 l
187.429511 88.976978 l
195.84756 90.038849 l
197.338027 90.569784 l
197.798611 91.100719 l
199.559555 91.631655 l
200.349385 92.16259 l
213.181037 93.22446 l
213.505221 93.755396 l
214.964226 94.286331 l
215.809743 94.817266 l
217.849988 95.348201 l
217.98467 96.410072 l
219.313789 96.941007 l
220.004071 97.471942 l
220.024691 98.002878 l
223.355274 98.533813 l
223.641765 99.064748 l
225.327506 99.595683 l
225.772413 100.126619 l
227.16923 100.657554 l
231.111778 101.188489 l
232.192774 101.719424 l
232.2933 102.25036 l
234.395733 102.781295 l
241.527861 103.31223 l
242.698861 103.843165 l
244.299623 104.905036 l
246.262958 105.435971 l
249.232076 105.966906 l
253.24494 106.497842 l
253.448077 108.090647 l
255.525003 108.621583 l
256.691229 109.683453 l
262.93962 110.745324 l
263.285165 111.276259 l
265.35486 111.807194 l
266.532634 112.338129 l
267.065859 112.869065 l
267.90407 113.930935 l
268.974447 114.461871 l
270.880421 114.992806 l
278.183993 116.054676 l
282.001959 116.585612 l
288.773976 117.116547 l
289.824579 117.647482 l
291.422566 118.178417 l
295.990064 118.709353 l
298.244119 119.240288 l
299.216381 119.771223 l
299.743696 120.302158 l
299.886166 120.833094 l
301.787696 121.364029 l
303.19231 121.894964 l
309.232164 122.956835 l
309.624327 123.48777 l
315.342595 124.018705 l
319.000552 124.54964 l
321.544255 125.080576 l
322.597627 125.611511 l
323.96681 126.142446 l
326.10353 126.673381 l
327.037897 127.204317 l
327.065724 127.735252 l
328.700144 128.266187 l
328.920537 128.797122 l
334.930132 129.328058 l
347.803606 129.858993 l
352.460037 130.389928 l
353.66119 130.920863 l
353.742074 131.451799 l
355.297203 131.982734 l
361 132.148935 l
361 132.148935 l
stroke
grestore
[1.5 2.475] 0 setdash
0.173 0.627 0.173 setrgbcolor
gsave
311.4 295.2 45 39.6 clipbox
-1 64.553526 m
45 64.553957 l
45 65.615827 l
62.114965 66.146763 l
72.126578 66.677698 l
84.739719 67.208633 l
89.241544 67.739568 l
89.241544 68.801439 l
96.344896 69.332374 l
96.344896 70.394245 l
99.253157 70.92518 l
99.253157 71.98705 l
101.854684 72.517986 l
101.854684 73.048921 l
104.208052 73.579856 l
128.981263 74.110791 l
131.334631 75.703597 l
132.787501 76.234532 l
134.818098 76.765468 l
135.459476 77.296403 l
136.694317 77.827338 l
136.694317 78.358273 l
148.449596 78.889209 l
149.186716 79.951079 l
150.252709 80.482014 l
155.831953 81.543885 l
158.461209 82.07482 l
163.211193 82.605755 l
163.820895 83.136691 l
165.564561 83.667626 l
174.164837 84.729496 l
174.164837 85.260432 l
174.427517 86.322302 l
176.911185 86.853237 l
177.494939 87.384173 l
178.401158 87.915108 l
194.319753 88.976978 l
199.464951 90.569784 l
200.349385 91.100719 l
202.992031 91.631655 l
206.544596 92.16259 l
207.384054 92.693525 l
209.397449 93.22446 l
210.933497 93.755396 l
211.288353 94.286331 l
211.347003 94.817266 l
211.609218 95.348201 l
214.478807 95.879137 l
214.964226 96.410072 l
216.627264 96.941007 l
217.418582 97.471942 l
219.713578 98.002878 l
226.670391 98.533813 l
230.282402 99.064748 l
233.083106 99.595683 l
233.119516 100.126619 l
236.870252 100.657554 l
238.010383 101.188489 l
239.571594 101.719424 l
241.921566 102.25036 l
242.707087 102.781295 l
248.644151 104.374101 l
248.997308 104.905036 l
250.72677 105.966906 l
252.784413 106.497842 l
253.718108 107.559712 l
254.444539 108.090647 l
256.480248 108.621583 l
264.970598 110.214388 l
265.232942 110.745324 l
268.946043 111.276259 l
270.772441 111.807194 l
270.846234 112.338129 l
271.364434 112.869065 l
276.377592 113.930935 l
276.58704 114.461871 l
277.07645 114.992806 l
281.710484 116.585612 l
282.797975 117.116547 l
286.216828 117.647482 l
288.451037 118.178417 l
289.09526 118.709353 l
291.336642 119.240288 l
291.667237 119.771223 l
294.044785 120.302158 l
295.62041 121.364029 l
297.395063 121.894964 l
301.430366 122.425899 l
304.71766 124.018705 l
307.798055 124.54964 l
309.938065 125.080576 l
310.401055 125.611511 l
311.158208 126.142446 l
315.115394 126.673381 l
316.419187 127.204317 l
319.395645 127.735252 l
320.2817 128.266187 l
320.579841 128.797122 l
321.2757 129.328058 l
323.947211 129.858993 l
334.722691 130.389928 l
335.353374 130.920863 l
347.639616 131.451799 l
354.072487 131.982734 l
355.194054 132.513669 l
361 132.681924 l
361 132.681924 l
stroke
grestore
0.800 setlinewidth
0 setlinejoin
2 setlinecap
[] 0 setdash
0.000 setgray
gsave
45 39.6 m
45 334.8 l
stroke
grestore
gsave
356.4 39.6 m
356.4 334.8 l
stroke
grestore
gsave
45 39.6 m
356.4 39.6 l
stroke
grestore
gsave
45 334.8 m
356.4 334.8 l
stroke
grestore
/DejaVuSans findfont
12.000 scalefont
setfont
gsave
180.895312 340.800000 translate
0.000000 rotate
0.000000 0.000000 m /M glyphshow
10.353516 0.000000 m /I glyphshow
13.892578 0.000000 m /P glyphshow
21.128906 0.000000 m /L glyphshow
27.814453 0.000000 m /I glyphshow
31.353516 0.000000 m /B glyphshow
grestore
1.000 setlinewidth
0 setlinecap
0.800 setgray
gsave
211.696875 282.784375 m
349.4 282.784375 l
350.733333 282.784375 351.4 283.451042 351.4 284.784375 c
351.4 327.8 l
351.4 329.133333 350.733333 329.8 349.4 329.8 c
211.696875 329.8 l
210.363542 329.8 209.696875 329.133333 209.696875 327.8 c
209.696875 284.784375 l
209.696875 283.451042 210.363542 282.784375 211.696875 282.784375 c
cl
gsave
1.000 setgray
fill
grestore
stroke
grestore
1.500 setlinewidth
1 setlinejoin
2 setlinecap
[] 0 setdash
0.122 0.467 0.706 setrgbcolor
gsave
213.696875 321.70625 m
233.696875 321.70625 l
stroke
grestore
0.000 setgray
/DejaVuSans findfont
10.000 scalefont
setfont
gsave
241.696875 318.206250 translate
0.000000 rotate
0.000000 0.000000 m /R glyphshow
6.948242 0.000000 m /o glyphshow
13.066406 0.000000 m /u glyphshow
19.404297 0.000000 m /n glyphshow
25.742188 0.000000 m /d glyphshow
32.089844 0.000000 m /i glyphshow
34.868164 0.000000 m /n glyphshow
41.206055 0.000000 m /g glyphshow
47.553711 0.000000 m /S glyphshow
53.901367 0.000000 m /a glyphshow
60.029297 0.000000 m /t glyphshow
63.950195 0.000000 m /plus glyphshow
72.329102 0.000000 m /S glyphshow
78.676758 0.000000 m /o glyphshow
84.794922 0.000000 m /P glyphshow
90.825195 0.000000 m /l glyphshow
93.603516 0.000000 m /e glyphshow
99.755859 0.000000 m /x glyphshow
grestore
0 setlinecap
[9.6 2.4 1.5 2.4] 0 setdash
1.000 0.498 0.055 setrgbcolor
gsave
213.696875 307.034375 m
233.696875 307.034375 l
stroke
grestore
0.000 setgray
gsave
241.696875 303.534375 translate
0.000000 rotate
0.000000 0.000000 m /n glyphshow
6.337891 0.000000 m /a glyphshow
12.465820 0.000000 m /i glyphshow
15.244141 0.000000 m /v glyphshow
21.162109 0.000000 m /e glyphshow
grestore
[1.5 2.475] 0 setdash
0.173 0.627 0.173 setrgbcolor
gsave
213.696875 292.3625 m
233.696875 292.3625 l
stroke
grestore
0.000 setgray
gsave
241.696875 288.862500 translate
0.000000 rotate
0.000000 0.000000 m /t glyphshow
3.920898 0.000000 m /i glyphshow
6.699219 0.000000 m /g glyphshow
13.046875 0.000000 m /h glyphshow
19.384766 0.000000 m /t glyphshow
grestore

end
showpage
