%!PS-Adobe-3.0 EPSF-3.0
%%Title: /home/jodv/workspace/PB_experiments/results/summarized/abisko_addlearnts-1/scripts/../graphs/learnts-1_ecdf_PROOF.eps
%%Creator: matplotlib version 3.0.3, http://matplotlib.org/
%%CreationDate: Fri Apr 19 21:39:20 2019
%%Orientation: portrait
%%BoundingBox: 126 216 486 576
%%EndComments
%%BeginProlog
/mpldict 8 dict def
mpldict begin
/m { moveto } bind def
/l { lineto } bind def
/r { rlineto } bind def
/c { curveto } bind def
/cl { closepath } bind def
/box {
m
1 index 0 r
0 exch r
neg 0 r
cl
} bind def
/clipbox {
box
clip
newpath
} bind def
%!PS-Adobe-3.0 Resource-Font
%%Title: DejaVu Sans
%%Copyright: Copyright (c) 2003 by Bitstream, Inc. All Rights Reserved. Copyright (c) 2006 by Tavmjong Bah. All Rights Reserved. DejaVu changes are in public domain 
%%Creator: Converted from TrueType to type 3 by PPR
25 dict begin
/_d{bind def}bind def
/_m{moveto}_d
/_l{lineto}_d
/_cl{closepath eofill}_d
/_c{curveto}_d
/_sc{7 -1 roll{setcachedevice}{pop pop pop pop pop pop}ifelse}_d
/_e{exec}_d
/FontName /DejaVuSans def
/PaintType 0 def
/FontMatrix[.001 0 0 .001 0 0]def
/FontBBox[-1021 -463 1793 1232]def
/FontType 3 def
/Encoding [ /space /parenleft /parenright /plus /zero /one /two /three /four /six /eight /F /N /O /P /R /S /T /a /b /c /d /e /f /g /h /i /l /m /n /o /r /s /t /u /v /x /minus ] def
/FontInfo 10 dict dup begin
/FamilyName (DejaVu Sans) def
/FullName (DejaVu Sans) def
/Notice (Copyright (c) 2003 by Bitstream, Inc. All Rights Reserved. Copyright (c) 2006 by Tavmjong Bah. All Rights Reserved. DejaVu changes are in public domain ) def
/Weight (Book) def
/Version (Version 2.35) def
/ItalicAngle 0.0 def
/isFixedPitch false def
/UnderlinePosition -130 def
/UnderlineThickness 90 def
end readonly def
/CharStrings 39 dict dup begin
/.notdef 0 def
/space{318 0 0 0 0 0 _sc
}_d
/parenleft{390 0 86 -131 310 759 _sc
310 759 _m
266 683 234 609 213 536 _c
191 463 181 389 181 314 _c
181 238 191 164 213 91 _c
234 17 266 -56 310 -131 _c
232 -131 _l
183 -54 146 20 122 94 _c
98 168 86 241 86 314 _c
86 386 98 459 122 533 _c
146 607 182 682 232 759 _c
310 759 _l
_cl}_d
/parenright{390 0 80 -131 304 759 _sc
80 759 _m
158 759 _l
206 682 243 607 267 533 _c
291 459 304 386 304 314 _c
304 241 291 168 267 94 _c
243 20 206 -54 158 -131 _c
80 -131 _l
123 -56 155 17 177 91 _c
198 164 209 238 209 314 _c
209 389 198 463 177 536 _c
155 609 123 683 80 759 _c
_cl}_d
/plus{838 0 106 0 732 627 _sc
460 627 _m
460 355 _l
732 355 _l
732 272 _l
460 272 _l
460 0 _l
378 0 _l
378 272 _l
106 272 _l
106 355 _l
378 355 _l
378 627 _l
460 627 _l
_cl}_d
/zero{636 0 66 -13 570 742 _sc
318 664 _m
267 664 229 639 203 589 _c
177 539 165 464 165 364 _c
165 264 177 189 203 139 _c
229 89 267 64 318 64 _c
369 64 407 89 433 139 _c
458 189 471 264 471 364 _c
471 464 458 539 433 589 _c
407 639 369 664 318 664 _c
318 742 _m
399 742 461 709 505 645 _c
548 580 570 486 570 364 _c
570 241 548 147 505 83 _c
461 19 399 -13 318 -13 _c
236 -13 173 19 130 83 _c
87 147 66 241 66 364 _c
66 486 87 580 130 645 _c
173 709 236 742 318 742 _c
_cl}_d
/one{636 0 110 0 544 729 _sc
124 83 _m
285 83 _l
285 639 _l
110 604 _l
110 694 _l
284 729 _l
383 729 _l
383 83 _l
544 83 _l
544 0 _l
124 0 _l
124 83 _l
_cl}_d
/two{{636 0 73 0 536 742 _sc
192 83 _m
536 83 _l
536 0 _l
73 0 _l
73 83 _l
110 121 161 173 226 239 _c
290 304 331 346 348 365 _c
380 400 402 430 414 455 _c
426 479 433 504 433 528 _c
433 566 419 598 392 622 _c
365 646 330 659 286 659 _c
255 659 222 653 188 643 _c
154 632 117 616 78 594 _c
78 694 _l
118 710 155 722 189 730 _c
223 738 255 742 284 742 _c
}_e{359 742 419 723 464 685 _c
509 647 532 597 532 534 _c
532 504 526 475 515 449 _c
504 422 484 390 454 354 _c
446 344 420 317 376 272 _c
332 227 271 164 192 83 _c
_cl}_e}_d
/three{{636 0 76 -13 556 742 _sc
406 393 _m
453 383 490 362 516 330 _c
542 298 556 258 556 212 _c
556 140 531 84 482 45 _c
432 6 362 -13 271 -13 _c
240 -13 208 -10 176 -4 _c
144 1 110 10 76 22 _c
76 117 _l
103 101 133 89 166 81 _c
198 73 232 69 268 69 _c
330 69 377 81 409 105 _c
441 129 458 165 458 212 _c
458 254 443 288 413 312 _c
383 336 341 349 287 349 _c
}_e{202 349 _l
202 430 _l
291 430 _l
339 430 376 439 402 459 _c
428 478 441 506 441 543 _c
441 580 427 609 401 629 _c
374 649 336 659 287 659 _c
260 659 231 656 200 650 _c
169 644 135 635 98 623 _c
98 711 _l
135 721 170 729 203 734 _c
235 739 266 742 296 742 _c
370 742 429 725 473 691 _c
517 657 539 611 539 553 _c
539 513 527 479 504 451 _c
481 423 448 403 406 393 _c
_cl}_e}_d
/four{636 0 49 0 580 729 _sc
378 643 _m
129 254 _l
378 254 _l
378 643 _l
352 729 _m
476 729 _l
476 254 _l
580 254 _l
580 172 _l
476 172 _l
476 0 _l
378 0 _l
378 172 _l
49 172 _l
49 267 _l
352 729 _l
_cl}_d
/six{{636 0 70 -13 573 742 _sc
330 404 _m
286 404 251 388 225 358 _c
199 328 186 286 186 234 _c
186 181 199 139 225 109 _c
251 79 286 64 330 64 _c
374 64 409 79 435 109 _c
461 139 474 181 474 234 _c
474 286 461 328 435 358 _c
409 388 374 404 330 404 _c
526 713 _m
526 623 _l
501 635 476 644 451 650 _c
425 656 400 659 376 659 _c
310 659 260 637 226 593 _c
}_e{192 549 172 482 168 394 _c
187 422 211 444 240 459 _c
269 474 301 482 336 482 _c
409 482 467 459 509 415 _c
551 371 573 310 573 234 _c
573 159 550 99 506 54 _c
462 9 403 -13 330 -13 _c
246 -13 181 19 137 83 _c
92 147 70 241 70 364 _c
70 479 97 571 152 639 _c
206 707 280 742 372 742 _c
396 742 421 739 447 735 _c
472 730 498 723 526 713 _c
_cl}_e}_d
/eight{{636 0 68 -13 568 742 _sc
318 346 _m
271 346 234 333 207 308 _c
180 283 167 249 167 205 _c
167 161 180 126 207 101 _c
234 76 271 64 318 64 _c
364 64 401 76 428 102 _c
455 127 469 161 469 205 _c
469 249 455 283 429 308 _c
402 333 365 346 318 346 _c
219 388 _m
177 398 144 418 120 447 _c
96 476 85 511 85 553 _c
85 611 105 657 147 691 _c
188 725 245 742 318 742 _c
}_e{390 742 447 725 489 691 _c
530 657 551 611 551 553 _c
551 511 539 476 515 447 _c
491 418 459 398 417 388 _c
464 377 501 355 528 323 _c
554 291 568 251 568 205 _c
568 134 546 80 503 43 _c
459 5 398 -13 318 -13 _c
237 -13 175 5 132 43 _c
89 80 68 134 68 205 _c
68 251 81 291 108 323 _c
134 355 171 377 219 388 _c
183 544 _m
183 506 194 476 218 455 _c
}_e{242 434 275 424 318 424 _c
360 424 393 434 417 455 _c
441 476 453 506 453 544 _c
453 582 441 611 417 632 _c
393 653 360 664 318 664 _c
275 664 242 653 218 632 _c
194 611 183 582 183 544 _c
_cl}_e}_d
/F{575 0 98 0 517 729 _sc
98 729 _m
517 729 _l
517 646 _l
197 646 _l
197 431 _l
486 431 _l
486 348 _l
197 348 _l
197 0 _l
98 0 _l
98 729 _l
_cl}_d
/N{748 0 98 0 650 729 _sc
98 729 _m
231 729 _l
554 119 _l
554 729 _l
650 729 _l
650 0 _l
517 0 _l
194 610 _l
194 0 _l
98 0 _l
98 729 _l
_cl}_d
/O{787 0 56 -13 731 742 _sc
394 662 _m
322 662 265 635 223 582 _c
181 528 160 456 160 364 _c
160 272 181 199 223 146 _c
265 92 322 66 394 66 _c
465 66 522 92 564 146 _c
606 199 627 272 627 364 _c
627 456 606 528 564 582 _c
522 635 465 662 394 662 _c
394 742 _m
496 742 577 707 639 639 _c
700 571 731 479 731 364 _c
731 248 700 157 639 89 _c
577 21 496 -13 394 -13 _c
291 -13 209 21 148 89 _c
86 157 56 248 56 364 _c
56 479 86 571 148 639 _c
209 707 291 742 394 742 _c
_cl}_d
/P{603 0 98 0 569 729 _sc
197 648 _m
197 374 _l
321 374 _l
367 374 402 385 427 409 _c
452 433 465 467 465 511 _c
465 555 452 588 427 612 _c
402 636 367 648 321 648 _c
197 648 _l
98 729 _m
321 729 _l
402 729 464 710 506 673 _c
548 636 569 582 569 511 _c
569 439 548 384 506 348 _c
464 311 402 293 321 293 _c
197 293 _l
197 0 _l
98 0 _l
98 729 _l
_cl}_d
/R{{695 0 98 0 666 729 _sc
444 342 _m
465 334 486 319 506 296 _c
526 272 546 240 566 199 _c
666 0 _l
560 0 _l
467 187 _l
443 235 419 268 397 284 _c
374 300 343 308 304 308 _c
197 308 _l
197 0 _l
98 0 _l
98 729 _l
321 729 _l
404 729 466 711 507 677 _c
548 642 569 589 569 519 _c
569 473 558 434 537 404 _c
515 374 484 353 444 342 _c
197 648 _m
197 389 _l
321 389 _l
}_e{368 389 404 400 428 422 _c
452 444 465 476 465 519 _c
465 561 452 593 428 615 _c
404 637 368 648 321 648 _c
197 648 _l
_cl}_e}_d
/S{{635 0 66 -13 579 742 _sc
535 705 _m
535 609 _l
497 627 462 640 429 649 _c
395 657 363 662 333 662 _c
279 662 237 651 208 631 _c
179 610 165 580 165 542 _c
165 510 174 485 194 469 _c
213 452 250 439 304 429 _c
364 417 _l
437 403 491 378 526 343 _c
561 307 579 260 579 201 _c
579 130 555 77 508 41 _c
460 5 391 -13 300 -13 _c
265 -13 228 -9 189 -2 _c
}_e{150 5 110 16 69 32 _c
69 134 _l
109 111 148 94 186 83 _c
224 71 262 66 300 66 _c
356 66 399 77 430 99 _c
460 121 476 152 476 194 _c
476 230 465 258 443 278 _c
421 298 385 313 335 323 _c
275 335 _l
201 349 148 372 115 404 _c
82 435 66 478 66 534 _c
66 598 88 649 134 686 _c
179 723 242 742 322 742 _c
356 742 390 739 426 733 _c
461 727 497 717 535 705 _c
}_e{_cl}_e}_d
/T{611 0 -2 0 614 729 _sc
-2 729 _m
614 729 _l
614 646 _l
355 646 _l
355 0 _l
256 0 _l
256 646 _l
-2 646 _l
-2 729 _l
_cl}_d
/a{{613 0 60 -13 522 560 _sc
343 275 _m
270 275 220 266 192 250 _c
164 233 150 205 150 165 _c
150 133 160 107 181 89 _c
202 70 231 61 267 61 _c
317 61 357 78 387 114 _c
417 149 432 196 432 255 _c
432 275 _l
343 275 _l
522 312 _m
522 0 _l
432 0 _l
432 83 _l
411 49 385 25 355 10 _c
325 -5 287 -13 243 -13 _c
187 -13 142 2 109 33 _c
76 64 60 106 60 159 _c
}_e{60 220 80 266 122 298 _c
163 329 224 345 306 345 _c
432 345 _l
432 354 _l
432 395 418 427 391 450 _c
364 472 326 484 277 484 _c
245 484 215 480 185 472 _c
155 464 127 453 100 439 _c
100 522 _l
132 534 164 544 195 550 _c
226 556 256 560 286 560 _c
365 560 424 539 463 498 _c
502 457 522 395 522 312 _c
_cl}_e}_d
/b{{635 0 91 -13 580 760 _sc
487 273 _m
487 339 473 390 446 428 _c
418 466 381 485 334 485 _c
286 485 249 466 222 428 _c
194 390 181 339 181 273 _c
181 207 194 155 222 117 _c
249 79 286 61 334 61 _c
381 61 418 79 446 117 _c
473 155 487 207 487 273 _c
181 464 _m
199 496 223 520 252 536 _c
281 552 316 560 356 560 _c
422 560 476 533 518 481 _c
559 428 580 359 580 273 _c
}_e{580 187 559 117 518 65 _c
476 13 422 -13 356 -13 _c
316 -13 281 -5 252 10 _c
223 25 199 49 181 82 _c
181 0 _l
91 0 _l
91 760 _l
181 760 _l
181 464 _l
_cl}_e}_d
/c{{550 0 55 -13 488 560 _sc
488 526 _m
488 442 _l
462 456 437 466 411 473 _c
385 480 360 484 334 484 _c
276 484 230 465 198 428 _c
166 391 150 339 150 273 _c
150 206 166 154 198 117 _c
230 80 276 62 334 62 _c
360 62 385 65 411 72 _c
437 79 462 90 488 104 _c
488 21 _l
462 9 436 0 410 -5 _c
383 -10 354 -13 324 -13 _c
242 -13 176 12 128 64 _c
}_e{79 115 55 185 55 273 _c
55 362 79 432 128 483 _c
177 534 244 560 330 560 _c
358 560 385 557 411 551 _c
437 545 463 537 488 526 _c
_cl}_e}_d
/d{{635 0 55 -13 544 760 _sc
454 464 _m
454 760 _l
544 760 _l
544 0 _l
454 0 _l
454 82 _l
435 49 411 25 382 10 _c
353 -5 319 -13 279 -13 _c
213 -13 159 13 117 65 _c
75 117 55 187 55 273 _c
55 359 75 428 117 481 _c
159 533 213 560 279 560 _c
319 560 353 552 382 536 _c
411 520 435 496 454 464 _c
148 273 _m
148 207 161 155 188 117 _c
215 79 253 61 301 61 _c
}_e{348 61 385 79 413 117 _c
440 155 454 207 454 273 _c
454 339 440 390 413 428 _c
385 466 348 485 301 485 _c
253 485 215 466 188 428 _c
161 390 148 339 148 273 _c
_cl}_e}_d
/e{{615 0 55 -13 562 560 _sc
562 296 _m
562 252 _l
149 252 _l
153 190 171 142 205 110 _c
238 78 284 62 344 62 _c
378 62 412 66 444 74 _c
476 82 509 95 541 113 _c
541 28 _l
509 14 476 3 442 -3 _c
408 -9 373 -13 339 -13 _c
251 -13 182 12 131 62 _c
80 112 55 181 55 268 _c
55 357 79 428 127 481 _c
175 533 241 560 323 560 _c
397 560 455 536 498 489 _c
}_e{540 441 562 377 562 296 _c
472 322 _m
471 371 457 410 431 440 _c
404 469 368 484 324 484 _c
274 484 234 469 204 441 _c
174 413 156 373 152 322 _c
472 322 _l
_cl}_e}_d
/f{352 0 23 0 371 760 _sc
371 760 _m
371 685 _l
285 685 _l
253 685 230 678 218 665 _c
205 652 199 629 199 595 _c
199 547 _l
347 547 _l
347 477 _l
199 477 _l
199 0 _l
109 0 _l
109 477 _l
23 477 _l
23 547 _l
109 547 _l
109 585 _l
109 645 123 690 151 718 _c
179 746 224 760 286 760 _c
371 760 _l
_cl}_d
/g{{635 0 55 -207 544 560 _sc
454 280 _m
454 344 440 395 414 431 _c
387 467 349 485 301 485 _c
253 485 215 467 188 431 _c
161 395 148 344 148 280 _c
148 215 161 165 188 129 _c
215 93 253 75 301 75 _c
349 75 387 93 414 129 _c
440 165 454 215 454 280 _c
544 68 _m
544 -24 523 -93 482 -139 _c
440 -184 377 -207 292 -207 _c
260 -207 231 -204 203 -200 _c
175 -195 147 -188 121 -178 _c
}_e{121 -91 _l
147 -105 173 -115 199 -122 _c
225 -129 251 -133 278 -133 _c
336 -133 380 -117 410 -87 _c
439 -56 454 -10 454 52 _c
454 96 _l
435 64 411 40 382 24 _c
353 8 319 0 279 0 _c
211 0 157 25 116 76 _c
75 127 55 195 55 280 _c
55 364 75 432 116 483 _c
157 534 211 560 279 560 _c
319 560 353 552 382 536 _c
411 520 435 496 454 464 _c
454 547 _l
544 547 _l
}_e{544 68 _l
_cl}_e}_d
/h{634 0 91 0 549 760 _sc
549 330 _m
549 0 _l
459 0 _l
459 327 _l
459 379 448 417 428 443 _c
408 469 378 482 338 482 _c
289 482 251 466 223 435 _c
195 404 181 362 181 309 _c
181 0 _l
91 0 _l
91 760 _l
181 760 _l
181 462 _l
202 494 227 519 257 535 _c
286 551 320 560 358 560 _c
420 560 468 540 500 501 _c
532 462 549 405 549 330 _c
_cl}_d
/i{278 0 94 0 184 760 _sc
94 547 _m
184 547 _l
184 0 _l
94 0 _l
94 547 _l
94 760 _m
184 760 _l
184 646 _l
94 646 _l
94 760 _l
_cl}_d
/l{278 0 94 0 184 760 _sc
94 760 _m
184 760 _l
184 0 _l
94 0 _l
94 760 _l
_cl}_d
/m{{974 0 91 0 889 560 _sc
520 442 _m
542 482 569 511 600 531 _c
631 550 668 560 711 560 _c
767 560 811 540 842 500 _c
873 460 889 403 889 330 _c
889 0 _l
799 0 _l
799 327 _l
799 379 789 418 771 444 _c
752 469 724 482 686 482 _c
639 482 602 466 575 435 _c
548 404 535 362 535 309 _c
535 0 _l
445 0 _l
445 327 _l
445 379 435 418 417 444 _c
398 469 369 482 331 482 _c
}_e{285 482 248 466 221 435 _c
194 404 181 362 181 309 _c
181 0 _l
91 0 _l
91 547 _l
181 547 _l
181 462 _l
201 495 226 520 255 536 _c
283 552 317 560 357 560 _c
397 560 430 550 458 530 _c
486 510 506 480 520 442 _c
_cl}_e}_d
/n{634 0 91 0 549 560 _sc
549 330 _m
549 0 _l
459 0 _l
459 327 _l
459 379 448 417 428 443 _c
408 469 378 482 338 482 _c
289 482 251 466 223 435 _c
195 404 181 362 181 309 _c
181 0 _l
91 0 _l
91 547 _l
181 547 _l
181 462 _l
202 494 227 519 257 535 _c
286 551 320 560 358 560 _c
420 560 468 540 500 501 _c
532 462 549 405 549 330 _c
_cl}_d
/o{612 0 55 -13 557 560 _sc
306 484 _m
258 484 220 465 192 427 _c
164 389 150 338 150 273 _c
150 207 163 156 191 118 _c
219 80 257 62 306 62 _c
354 62 392 80 420 118 _c
448 156 462 207 462 273 _c
462 337 448 389 420 427 _c
392 465 354 484 306 484 _c
306 560 _m
384 560 445 534 490 484 _c
534 433 557 363 557 273 _c
557 183 534 113 490 63 _c
445 12 384 -13 306 -13 _c
227 -13 165 12 121 63 _c
77 113 55 183 55 273 _c
55 363 77 433 121 484 _c
165 534 227 560 306 560 _c
_cl}_d
/r{411 0 91 0 411 560 _sc
411 463 _m
401 469 390 473 378 476 _c
366 478 353 480 339 480 _c
288 480 249 463 222 430 _c
194 397 181 350 181 288 _c
181 0 _l
91 0 _l
91 547 _l
181 547 _l
181 462 _l
199 495 224 520 254 536 _c
284 552 321 560 365 560 _c
371 560 378 559 386 559 _c
393 558 401 557 411 555 _c
411 463 _l
_cl}_d
/s{{521 0 54 -13 472 560 _sc
443 531 _m
443 446 _l
417 458 391 468 364 475 _c
336 481 308 485 279 485 _c
234 485 200 478 178 464 _c
156 450 145 430 145 403 _c
145 382 153 366 169 354 _c
185 342 217 330 265 320 _c
296 313 _l
360 299 405 279 432 255 _c
458 230 472 195 472 151 _c
472 100 452 60 412 31 _c
372 1 316 -13 246 -13 _c
216 -13 186 -10 154 -5 _c
}_e{122 0 89 8 54 20 _c
54 113 _l
87 95 120 82 152 74 _c
184 65 216 61 248 61 _c
290 61 323 68 346 82 _c
368 96 380 117 380 144 _c
380 168 371 187 355 200 _c
339 213 303 226 247 238 _c
216 245 _l
160 257 119 275 95 299 _c
70 323 58 356 58 399 _c
58 450 76 490 112 518 _c
148 546 200 560 268 560 _c
301 560 332 557 362 552 _c
391 547 418 540 443 531 _c
}_e{_cl}_e}_d
/t{392 0 27 0 368 702 _sc
183 702 _m
183 547 _l
368 547 _l
368 477 _l
183 477 _l
183 180 _l
183 135 189 106 201 94 _c
213 81 238 75 276 75 _c
368 75 _l
368 0 _l
276 0 _l
206 0 158 13 132 39 _c
106 65 93 112 93 180 _c
93 477 _l
27 477 _l
27 547 _l
93 547 _l
93 702 _l
183 702 _l
_cl}_d
/u{634 0 85 -13 543 560 _sc
85 216 _m
85 547 _l
175 547 _l
175 219 _l
175 167 185 129 205 103 _c
225 77 255 64 296 64 _c
344 64 383 79 411 110 _c
439 141 453 183 453 237 _c
453 547 _l
543 547 _l
543 0 _l
453 0 _l
453 84 _l
431 50 405 26 377 10 _c
348 -5 315 -13 277 -13 _c
214 -13 166 6 134 45 _c
101 83 85 140 85 216 _c
311 560 _m
311 560 _l
_cl}_d
/v{592 0 30 0 562 547 _sc
30 547 _m
125 547 _l
296 88 _l
467 547 _l
562 547 _l
357 0 _l
235 0 _l
30 547 _l
_cl}_d
/x{592 0 29 0 559 547 _sc
549 547 _m
351 281 _l
559 0 _l
453 0 _l
294 215 _l
135 0 _l
29 0 _l
241 286 _l
47 547 _l
153 547 _l
298 352 _l
443 547 _l
549 547 _l
_cl}_d
/minus{838 0 106 272 732 355 _sc
106 355 _m
732 355 _l
732 272 _l
106 272 _l
106 355 _l
_cl}_d
end readonly def

/BuildGlyph
 {exch begin
 CharStrings exch
 2 copy known not{pop /.notdef}if
 true 3 1 roll get exec
 end}_d

/BuildChar {
 1 index /Encoding get exch get
 1 index /BuildGlyph get exec
}_d

FontName currentdict end definefont pop
end
%%EndProlog
mpldict begin
126 216 translate
360 360 0 0 clipbox
gsave
0 0 m
360 0 l
360 360 l
0 360 l
cl
1.000 setgray
fill
grestore
gsave
45 39.6 m
356.4 39.6 l
356.4 334.8 l
45 334.8 l
cl
1.000 setgray
fill
grestore
0.800 setlinewidth
1 setlinejoin
0 setlinecap
[] 0 setdash
0.000 setgray
gsave
/o {
gsave
newpath
translate
0.8 setlinewidth
1 setlinejoin
0 setlinecap
0 0 m
0 -3.5 l

gsave
0.000 setgray
fill
grestore
stroke
grestore
} bind def
45 39.6 o
grestore
gsave
33.000000 23.678125 translate
0.000000 rotate
/DejaVuSans findfont
10.0 scalefont
setfont
0.000000 0.976562 moveto
/one glyphshow

6.362305 0.976562 moveto
/zero glyphshow

/DejaVuSans findfont
7.0 scalefont
setfont
12.820312 4.804688 moveto
/minus glyphshow

18.685547 4.804688 moveto
/two glyphshow


grestore
gsave
/o {
gsave
newpath
translate
0.8 setlinewidth
1 setlinejoin
0 setlinecap
0 0 m
0 -3.5 l

gsave
0.000 setgray
fill
grestore
stroke
grestore
} bind def
101.855 39.6 o
grestore
gsave
89.854684 24.678125 translate
0.000000 rotate
/DejaVuSans findfont
10.0 scalefont
setfont
0.000000 0.064063 moveto
/one glyphshow

6.362305 0.064063 moveto
/zero glyphshow

/DejaVuSans findfont
7.0 scalefont
setfont
12.820312 3.892188 moveto
/minus glyphshow

18.685547 3.892188 moveto
/one glyphshow


grestore
gsave
/o {
gsave
newpath
translate
0.8 setlinewidth
1 setlinejoin
0 setlinecap
0 0 m
0 -3.5 l

gsave
0.000 setgray
fill
grestore
stroke
grestore
} bind def
158.709 39.6 o
grestore
gsave
149.709369 23.678125 translate
0.000000 rotate
/DejaVuSans findfont
10.0 scalefont
setfont
0.000000 0.976562 moveto
/one glyphshow

6.362305 0.976562 moveto
/zero glyphshow

/DejaVuSans findfont
7.0 scalefont
setfont
12.820312 4.804688 moveto
/zero glyphshow


grestore
gsave
/o {
gsave
newpath
translate
0.8 setlinewidth
1 setlinejoin
0 setlinecap
0 0 m
0 -3.5 l

gsave
0.000 setgray
fill
grestore
stroke
grestore
} bind def
215.564 39.6 o
grestore
gsave
206.564053 24.678125 translate
0.000000 rotate
/DejaVuSans findfont
10.0 scalefont
setfont
0.000000 0.064063 moveto
/one glyphshow

6.362305 0.064063 moveto
/zero glyphshow

/DejaVuSans findfont
7.0 scalefont
setfont
12.820312 3.892188 moveto
/one glyphshow


grestore
gsave
/o {
gsave
newpath
translate
0.8 setlinewidth
1 setlinejoin
0 setlinecap
0 0 m
0 -3.5 l

gsave
0.000 setgray
fill
grestore
stroke
grestore
} bind def
272.419 39.6 o
grestore
gsave
263.418737 23.678125 translate
0.000000 rotate
/DejaVuSans findfont
10.0 scalefont
setfont
0.000000 0.976562 moveto
/one glyphshow

6.362305 0.976562 moveto
/zero glyphshow

/DejaVuSans findfont
7.0 scalefont
setfont
12.820312 4.804688 moveto
/two glyphshow


grestore
gsave
/o {
gsave
newpath
translate
0.8 setlinewidth
1 setlinejoin
0 setlinecap
0 0 m
0 -3.5 l

gsave
0.000 setgray
fill
grestore
stroke
grestore
} bind def
329.273 39.6 o
grestore
gsave
320.273422 23.678125 translate
0.000000 rotate
/DejaVuSans findfont
10.0 scalefont
setfont
0.000000 0.976562 moveto
/one glyphshow

6.362305 0.976562 moveto
/zero glyphshow

/DejaVuSans findfont
7.0 scalefont
setfont
12.820312 4.804688 moveto
/three glyphshow


grestore
0.600 setlinewidth
gsave
/o {
gsave
newpath
translate
0.6 setlinewidth
1 setlinejoin
0 setlinecap
0 0 m
0 -2 l

gsave
0.000 setgray
fill
grestore
stroke
grestore
} bind def
62.115 39.6 o
grestore
gsave
/o {
gsave
newpath
translate
0.6 setlinewidth
1 setlinejoin
0 setlinecap
0 0 m
0 -2 l

gsave
0.000 setgray
fill
grestore
stroke
grestore
} bind def
72.1266 39.6 o
grestore
gsave
/o {
gsave
newpath
translate
0.6 setlinewidth
1 setlinejoin
0 setlinecap
0 0 m
0 -2 l

gsave
0.000 setgray
fill
grestore
stroke
grestore
} bind def
79.2299 39.6 o
grestore
gsave
/o {
gsave
newpath
translate
0.6 setlinewidth
1 setlinejoin
0 setlinecap
0 0 m
0 -2 l

gsave
0.000 setgray
fill
grestore
stroke
grestore
} bind def
84.7397 39.6 o
grestore
gsave
/o {
gsave
newpath
translate
0.6 setlinewidth
1 setlinejoin
0 setlinecap
0 0 m
0 -2 l

gsave
0.000 setgray
fill
grestore
stroke
grestore
} bind def
89.2415 39.6 o
grestore
gsave
/o {
gsave
newpath
translate
0.6 setlinewidth
1 setlinejoin
0 setlinecap
0 0 m
0 -2 l

gsave
0.000 setgray
fill
grestore
stroke
grestore
} bind def
93.0478 39.6 o
grestore
gsave
/o {
gsave
newpath
translate
0.6 setlinewidth
1 setlinejoin
0 setlinecap
0 0 m
0 -2 l

gsave
0.000 setgray
fill
grestore
stroke
grestore
} bind def
96.3449 39.6 o
grestore
gsave
/o {
gsave
newpath
translate
0.6 setlinewidth
1 setlinejoin
0 setlinecap
0 0 m
0 -2 l

gsave
0.000 setgray
fill
grestore
stroke
grestore
} bind def
99.2532 39.6 o
grestore
gsave
/o {
gsave
newpath
translate
0.6 setlinewidth
1 setlinejoin
0 setlinecap
0 0 m
0 -2 l

gsave
0.000 setgray
fill
grestore
stroke
grestore
} bind def
118.97 39.6 o
grestore
gsave
/o {
gsave
newpath
translate
0.6 setlinewidth
1 setlinejoin
0 setlinecap
0 0 m
0 -2 l

gsave
0.000 setgray
fill
grestore
stroke
grestore
} bind def
128.981 39.6 o
grestore
gsave
/o {
gsave
newpath
translate
0.6 setlinewidth
1 setlinejoin
0 setlinecap
0 0 m
0 -2 l

gsave
0.000 setgray
fill
grestore
stroke
grestore
} bind def
136.085 39.6 o
grestore
gsave
/o {
gsave
newpath
translate
0.6 setlinewidth
1 setlinejoin
0 setlinecap
0 0 m
0 -2 l

gsave
0.000 setgray
fill
grestore
stroke
grestore
} bind def
141.594 39.6 o
grestore
gsave
/o {
gsave
newpath
translate
0.6 setlinewidth
1 setlinejoin
0 setlinecap
0 0 m
0 -2 l

gsave
0.000 setgray
fill
grestore
stroke
grestore
} bind def
146.096 39.6 o
grestore
gsave
/o {
gsave
newpath
translate
0.6 setlinewidth
1 setlinejoin
0 setlinecap
0 0 m
0 -2 l

gsave
0.000 setgray
fill
grestore
stroke
grestore
} bind def
149.902 39.6 o
grestore
gsave
/o {
gsave
newpath
translate
0.6 setlinewidth
1 setlinejoin
0 setlinecap
0 0 m
0 -2 l

gsave
0.000 setgray
fill
grestore
stroke
grestore
} bind def
153.2 39.6 o
grestore
gsave
/o {
gsave
newpath
translate
0.6 setlinewidth
1 setlinejoin
0 setlinecap
0 0 m
0 -2 l

gsave
0.000 setgray
fill
grestore
stroke
grestore
} bind def
156.108 39.6 o
grestore
gsave
/o {
gsave
newpath
translate
0.6 setlinewidth
1 setlinejoin
0 setlinecap
0 0 m
0 -2 l

gsave
0.000 setgray
fill
grestore
stroke
grestore
} bind def
175.824 39.6 o
grestore
gsave
/o {
gsave
newpath
translate
0.6 setlinewidth
1 setlinejoin
0 setlinecap
0 0 m
0 -2 l

gsave
0.000 setgray
fill
grestore
stroke
grestore
} bind def
185.836 39.6 o
grestore
gsave
/o {
gsave
newpath
translate
0.6 setlinewidth
1 setlinejoin
0 setlinecap
0 0 m
0 -2 l

gsave
0.000 setgray
fill
grestore
stroke
grestore
} bind def
192.939 39.6 o
grestore
gsave
/o {
gsave
newpath
translate
0.6 setlinewidth
1 setlinejoin
0 setlinecap
0 0 m
0 -2 l

gsave
0.000 setgray
fill
grestore
stroke
grestore
} bind def
198.449 39.6 o
grestore
gsave
/o {
gsave
newpath
translate
0.6 setlinewidth
1 setlinejoin
0 setlinecap
0 0 m
0 -2 l

gsave
0.000 setgray
fill
grestore
stroke
grestore
} bind def
202.951 39.6 o
grestore
gsave
/o {
gsave
newpath
translate
0.6 setlinewidth
1 setlinejoin
0 setlinecap
0 0 m
0 -2 l

gsave
0.000 setgray
fill
grestore
stroke
grestore
} bind def
206.757 39.6 o
grestore
gsave
/o {
gsave
newpath
translate
0.6 setlinewidth
1 setlinejoin
0 setlinecap
0 0 m
0 -2 l

gsave
0.000 setgray
fill
grestore
stroke
grestore
} bind def
210.054 39.6 o
grestore
gsave
/o {
gsave
newpath
translate
0.6 setlinewidth
1 setlinejoin
0 setlinecap
0 0 m
0 -2 l

gsave
0.000 setgray
fill
grestore
stroke
grestore
} bind def
212.963 39.6 o
grestore
gsave
/o {
gsave
newpath
translate
0.6 setlinewidth
1 setlinejoin
0 setlinecap
0 0 m
0 -2 l

gsave
0.000 setgray
fill
grestore
stroke
grestore
} bind def
232.679 39.6 o
grestore
gsave
/o {
gsave
newpath
translate
0.6 setlinewidth
1 setlinejoin
0 setlinecap
0 0 m
0 -2 l

gsave
0.000 setgray
fill
grestore
stroke
grestore
} bind def
242.691 39.6 o
grestore
gsave
/o {
gsave
newpath
translate
0.6 setlinewidth
1 setlinejoin
0 setlinecap
0 0 m
0 -2 l

gsave
0.000 setgray
fill
grestore
stroke
grestore
} bind def
249.794 39.6 o
grestore
gsave
/o {
gsave
newpath
translate
0.6 setlinewidth
1 setlinejoin
0 setlinecap
0 0 m
0 -2 l

gsave
0.000 setgray
fill
grestore
stroke
grestore
} bind def
255.304 39.6 o
grestore
gsave
/o {
gsave
newpath
translate
0.6 setlinewidth
1 setlinejoin
0 setlinecap
0 0 m
0 -2 l

gsave
0.000 setgray
fill
grestore
stroke
grestore
} bind def
259.806 39.6 o
grestore
gsave
/o {
gsave
newpath
translate
0.6 setlinewidth
1 setlinejoin
0 setlinecap
0 0 m
0 -2 l

gsave
0.000 setgray
fill
grestore
stroke
grestore
} bind def
263.612 39.6 o
grestore
gsave
/o {
gsave
newpath
translate
0.6 setlinewidth
1 setlinejoin
0 setlinecap
0 0 m
0 -2 l

gsave
0.000 setgray
fill
grestore
stroke
grestore
} bind def
266.909 39.6 o
grestore
gsave
/o {
gsave
newpath
translate
0.6 setlinewidth
1 setlinejoin
0 setlinecap
0 0 m
0 -2 l

gsave
0.000 setgray
fill
grestore
stroke
grestore
} bind def
269.817 39.6 o
grestore
gsave
/o {
gsave
newpath
translate
0.6 setlinewidth
1 setlinejoin
0 setlinecap
0 0 m
0 -2 l

gsave
0.000 setgray
fill
grestore
stroke
grestore
} bind def
289.534 39.6 o
grestore
gsave
/o {
gsave
newpath
translate
0.6 setlinewidth
1 setlinejoin
0 setlinecap
0 0 m
0 -2 l

gsave
0.000 setgray
fill
grestore
stroke
grestore
} bind def
299.545 39.6 o
grestore
gsave
/o {
gsave
newpath
translate
0.6 setlinewidth
1 setlinejoin
0 setlinecap
0 0 m
0 -2 l

gsave
0.000 setgray
fill
grestore
stroke
grestore
} bind def
306.649 39.6 o
grestore
gsave
/o {
gsave
newpath
translate
0.6 setlinewidth
1 setlinejoin
0 setlinecap
0 0 m
0 -2 l

gsave
0.000 setgray
fill
grestore
stroke
grestore
} bind def
312.158 39.6 o
grestore
gsave
/o {
gsave
newpath
translate
0.6 setlinewidth
1 setlinejoin
0 setlinecap
0 0 m
0 -2 l

gsave
0.000 setgray
fill
grestore
stroke
grestore
} bind def
316.66 39.6 o
grestore
gsave
/o {
gsave
newpath
translate
0.6 setlinewidth
1 setlinejoin
0 setlinecap
0 0 m
0 -2 l

gsave
0.000 setgray
fill
grestore
stroke
grestore
} bind def
320.467 39.6 o
grestore
gsave
/o {
gsave
newpath
translate
0.6 setlinewidth
1 setlinejoin
0 setlinecap
0 0 m
0 -2 l

gsave
0.000 setgray
fill
grestore
stroke
grestore
} bind def
323.764 39.6 o
grestore
gsave
/o {
gsave
newpath
translate
0.6 setlinewidth
1 setlinejoin
0 setlinecap
0 0 m
0 -2 l

gsave
0.000 setgray
fill
grestore
stroke
grestore
} bind def
326.672 39.6 o
grestore
gsave
/o {
gsave
newpath
translate
0.6 setlinewidth
1 setlinejoin
0 setlinecap
0 0 m
0 -2 l

gsave
0.000 setgray
fill
grestore
stroke
grestore
} bind def
346.388 39.6 o
grestore
gsave
/o {
gsave
newpath
translate
0.6 setlinewidth
1 setlinejoin
0 setlinecap
0 0 m
0 -2 l

gsave
0.000 setgray
fill
grestore
stroke
grestore
} bind def
356.4 39.6 o
grestore
/DejaVuSans findfont
10.000 scalefont
setfont
gsave
159.395312 10.006250 translate
0.000000 rotate
0.000000 0.000000 m /T glyphshow
6.108398 0.000000 m /i glyphshow
8.886719 0.000000 m /m glyphshow
18.627930 0.000000 m /e glyphshow
24.780273 0.000000 m /o glyphshow
30.898438 0.000000 m /u glyphshow
37.236328 0.000000 m /t glyphshow
41.157227 0.000000 m /space glyphshow
44.335938 0.000000 m /l glyphshow
47.114258 0.000000 m /i glyphshow
49.892578 0.000000 m /m glyphshow
59.633789 0.000000 m /i glyphshow
62.412109 0.000000 m /t glyphshow
66.333008 0.000000 m /space glyphshow
69.511719 0.000000 m /parenleft glyphshow
73.413086 0.000000 m /s glyphshow
78.623047 0.000000 m /parenright glyphshow
grestore
0.800 setlinewidth
gsave
/o {
gsave
newpath
translate
0.8 setlinewidth
1 setlinejoin
0 setlinecap
0 0 m
-3.5 0 l

gsave
0.000 setgray
fill
grestore
stroke
grestore
} bind def
45 39.6 o
grestore
gsave
31.640625 35.803125 translate
0.000000 rotate
0.000000 0.000000 m /zero glyphshow
grestore
gsave
/o {
gsave
newpath
translate
0.8 setlinewidth
1 setlinejoin
0 setlinecap
0 0 m
-3.5 0 l

gsave
0.000 setgray
fill
grestore
stroke
grestore
} bind def
45 87.4444 o
grestore
gsave
18.921875 83.647533 translate
0.000000 rotate
0.000000 0.000000 m /two glyphshow
6.362305 0.000000 m /zero glyphshow
12.724609 0.000000 m /zero glyphshow
grestore
gsave
/o {
gsave
newpath
translate
0.8 setlinewidth
1 setlinejoin
0 setlinecap
0 0 m
-3.5 0 l

gsave
0.000 setgray
fill
grestore
stroke
grestore
} bind def
45 135.289 o
grestore
gsave
18.921875 131.491942 translate
0.000000 rotate
0.000000 0.000000 m /four glyphshow
6.362305 0.000000 m /zero glyphshow
12.724609 0.000000 m /zero glyphshow
grestore
gsave
/o {
gsave
newpath
translate
0.8 setlinewidth
1 setlinejoin
0 setlinecap
0 0 m
-3.5 0 l

gsave
0.000 setgray
fill
grestore
stroke
grestore
} bind def
45 183.133 o
grestore
gsave
18.921875 179.336350 translate
0.000000 rotate
0.000000 0.000000 m /six glyphshow
6.362305 0.000000 m /zero glyphshow
12.724609 0.000000 m /zero glyphshow
grestore
gsave
/o {
gsave
newpath
translate
0.8 setlinewidth
1 setlinejoin
0 setlinecap
0 0 m
-3.5 0 l

gsave
0.000 setgray
fill
grestore
stroke
grestore
} bind def
45 230.978 o
grestore
gsave
18.921875 227.180759 translate
0.000000 rotate
0.000000 0.000000 m /eight glyphshow
6.362305 0.000000 m /zero glyphshow
12.724609 0.000000 m /zero glyphshow
grestore
gsave
/o {
gsave
newpath
translate
0.8 setlinewidth
1 setlinejoin
0 setlinecap
0 0 m
-3.5 0 l

gsave
0.000 setgray
fill
grestore
stroke
grestore
} bind def
45 278.822 o
grestore
gsave
12.562500 275.025167 translate
0.000000 rotate
0.000000 0.000000 m /one glyphshow
6.362305 0.000000 m /zero glyphshow
12.724609 0.000000 m /zero glyphshow
19.086914 0.000000 m /zero glyphshow
grestore
gsave
/o {
gsave
newpath
translate
0.8 setlinewidth
1 setlinejoin
0 setlinecap
0 0 m
-3.5 0 l

gsave
0.000 setgray
fill
grestore
stroke
grestore
} bind def
45 326.666 o
grestore
gsave
12.562500 322.869576 translate
0.000000 rotate
0.000000 0.000000 m /one glyphshow
6.362305 0.000000 m /two glyphshow
12.724609 0.000000 m /zero glyphshow
19.086914 0.000000 m /zero glyphshow
grestore
gsave
6.484375 117.426563 translate
90.000000 rotate
0.000000 0.000000 m /N glyphshow
7.480469 0.000000 m /u glyphshow
13.818359 0.000000 m /m glyphshow
23.559570 0.000000 m /b glyphshow
29.907227 0.000000 m /e glyphshow
36.059570 0.000000 m /r glyphshow
40.170898 0.000000 m /space glyphshow
43.349609 0.000000 m /o glyphshow
49.467773 0.000000 m /f glyphshow
52.988281 0.000000 m /space glyphshow
56.166992 0.000000 m /s glyphshow
61.376953 0.000000 m /o glyphshow
67.495117 0.000000 m /l glyphshow
70.273438 0.000000 m /v glyphshow
76.191406 0.000000 m /e glyphshow
82.343750 0.000000 m /d glyphshow
88.691406 0.000000 m /space glyphshow
91.870117 0.000000 m /i glyphshow
94.648438 0.000000 m /n glyphshow
100.986328 0.000000 m /s glyphshow
106.196289 0.000000 m /t glyphshow
110.117188 0.000000 m /a glyphshow
116.245117 0.000000 m /n glyphshow
122.583008 0.000000 m /c glyphshow
128.081055 0.000000 m /e glyphshow
134.233398 0.000000 m /s glyphshow
grestore
1.500 setlinewidth
2 setlinecap
0.122 0.467 0.706 setrgbcolor
gsave
311.4 295.2 45 39.6 clipbox
-1 147.249725 m
45 147.249919 l
45 148.924473 l
62.114965 149.163695 l
62.114965 151.555916 l
72.126578 151.795138 l
72.126578 154.42658 l
79.229931 154.665802 l
79.229931 158.014911 l
84.739719 158.254133 l
84.739719 162.799352 l
89.241544 163.038574 l
89.241544 172.368233 l
93.047782 172.607455 l
93.047782 179.544895 l
96.344896 179.784117 l
96.344896 186.482334 l
99.253157 186.721556 l
99.253157 193.180551 l
101.854684 193.419773 l
101.854684 203.467099 l
104.208052 203.706321 l
104.208052 211.122204 l
106.356509 211.361426 l
106.356509 215.906645 l
108.332898 216.145867 l
108.332898 216.385089 l
110.162748 216.624311 l
117.703132 216.863533 l
118.96965 217.102755 l
124.479438 217.581199 l
128.144177 217.820421 l
128.144177 218.059643 l
130.574827 218.298865 l
131.334631 218.538088 l
131.334631 219.255754 l
132.07175 219.494976 l
132.07175 219.734198 l
132.787501 219.97342 l
132.787501 220.451864 l
133.483087 220.691086 l
133.483087 221.16953 l
134.818098 221.647974 l
134.818098 223.083306 l
135.459476 223.322528 l
135.459476 225.714749 l
136.084615 225.953971 l
136.084615 227.628525 l
136.694317 227.867747 l
136.694317 228.106969 l
137.289326 228.346191 l
137.289326 228.824635 l
137.870333 229.063857 l
137.870333 229.542301 l
140.58644 230.020746 l
142.562828 230.259968 l
145.681232 230.49919 l
146.905864 231.216856 l
148.449596 231.456078 l
148.820906 231.6953 l
148.820906 232.173744 l
149.186716 232.412966 l
149.186716 233.609076 l
149.547185 233.848298 l
149.547185 234.326742 l
149.902467 234.565964 l
149.902467 235.28363 l
150.252709 235.522853 l
150.252709 235.762075 l
150.938633 236.001297 l
151.274579 236.240519 l
151.933063 236.479741 l
152.255835 236.718963 l
156.38068 236.958185 l
156.38068 237.197407 l
156.650537 237.436629 l
156.650537 237.675851 l
157.701405 237.915073 l
157.701405 238.154295 l
158.21053 238.632739 l
158.21053 239.589627 l
159.198329 240.068071 l
160.379974 240.307293 l
160.609666 240.546515 l
163.004567 240.785737 l
164.020829 241.503404 l
165.187582 242.22107 l
165.376791 242.460292 l
166.482573 242.699514 l
167.017432 242.938736 l
168.720982 243.177958 l
169.209942 243.895624 l
170.924248 244.61329 l
171.956289 245.330956 l
174.164837 246.287844 l
174.427517 246.527066 l
174.427517 246.766288 l
174.557817 247.005511 l
175.072245 247.244733 l
177.952206 247.483955 l
178.065211 247.723177 l
179.167701 248.201621 l
181.03603 248.919287 l
181.135794 249.158509 l
183.955395 249.876175 l
184.132397 250.115397 l
190.406265 250.593841 l
193.18499 251.311507 l
195.460448 251.550729 l
195.84756 251.789951 l
200.349385 252.268395 l
201.11473 252.507618 l
201.15902 252.74684 l
201.684395 253.225284 l
201.770881 253.464506 l
202.198824 253.94295 l
202.78575 255.856726 l
203.600731 256.095948 l
204.389669 257.53128 l
205.041 258.248947 l
205.527736 258.488169 l
206.827598 258.727391 l
206.862746 258.966613 l
207.142146 259.205835 l
207.142146 259.445057 l
207.75947 259.684279 l
208.885023 259.923501 l
209.206533 260.162723 l
212.989945 260.401945 l
213.719003 260.641167 l
217.691925 260.880389 l
219.01501 261.119611 l
223.010691 261.598055 l
223.047191 261.837277 l
224.309149 262.076499 l
224.704499 262.315721 l
227.748802 262.554943 l
228.432661 262.794165 l
228.607987 263.033387 l
229.14087 263.272609 l
232.838995 263.990276 l
233.801286 264.46872 l
234.187559 264.947164 l
238.512604 265.425608 l
240.253169 265.904052 l
246.944296 266.621718 l
247.681416 267.100162 l
247.955585 267.339384 l
250.803922 268.05705 l
251.550974 268.296272 l
254.16687 268.535494 l
254.37285 268.774716 l
256.134108 269.013938 l
256.371713 269.25316 l
256.428399 269.492382 l
260.246094 269.970827 l
260.407268 270.210049 l
260.722527 270.449271 l
261.8389 270.688493 l
262.11403 270.927715 l
264.372494 271.166937 l
264.590433 271.406159 l
265.070551 271.645381 l
269.723753 271.884603 l
271.170407 272.123825 l
271.704802 272.602269 l
271.775865 272.841491 l
272.118146 273.319935 l
276.193915 274.037601 l
276.318626 274.276823 l
281.501137 274.755267 l
281.630699 274.994489 l
285.163872 275.233712 l
287.135726 275.712156 l
290.372394 275.951378 l
290.718417 276.1906 l
293.851715 276.669044 l
294.446699 276.908266 l
294.625147 277.147488 l
295.452922 277.38671 l
298.378231 277.865154 l
298.397207 278.104376 l
300.573025 278.343598 l
300.889161 278.58282 l
305.285795 279.300486 l
306.218392 279.539708 l
306.279247 279.77893 l
306.545365 280.018152 l
310.815406 280.496596 l
311.603115 280.735818 l
311.777252 280.975041 l
313.599077 281.214263 l
313.847977 281.453485 l
316.775241 282.171151 l
321.252135 282.410373 l
323.608205 282.649595 l
329.430454 282.888817 l
329.988411 283.128039 l
330.05333 283.367261 l
330.800073 283.606483 l
331.078656 283.845705 l
331.965869 284.084927 l
337.413186 284.802593 l
337.482343 285.041815 l
337.694455 285.281037 l
340.02336 285.520259 l
340.732176 286.237925 l
342.701327 286.477147 l
342.782611 286.71637 l
348.042718 287.194814 l
352.801461 287.434036 l
353.050437 287.91248 l
355.348874 288.151702 l
355.377114 288.390924 l
361 288.465085 l
361 288.465085 l
stroke
grestore
0 setlinecap
[9.6 2.4 1.5 2.4] 0 setdash
1.000 0.498 0.055 setrgbcolor
gsave
311.4 295.2 45 39.6 clipbox
-1 144.379061 m
45 144.379254 l
45 147.010697 l
62.114965 147.249919 l
62.114965 149.163695 l
72.126578 149.402917 l
72.126578 150.599028 l
79.229931 150.83825 l
79.229931 154.187358 l
84.739719 154.42658 l
84.739719 160.646353 l
89.241544 160.885575 l
89.241544 167.823015 l
93.047782 168.062237 l
93.047782 174.521232 l
96.344896 174.760454 l
96.344896 181.219449 l
99.253157 181.458671 l
99.253157 189.113776 l
101.854684 189.352998 l
101.854684 195.333549 l
104.208052 195.572771 l
104.208052 201.3141 l
106.356509 201.553323 l
106.356509 204.902431 l
108.332898 205.141653 l
108.332898 205.859319 l
121.323018 206.816207 l
121.323018 207.055429 l
128.144177 207.533874 l
128.144177 207.773096 l
129.790898 208.012318 l
129.790898 208.25154 l
131.334631 208.490762 l
131.334631 209.208428 l
132.07175 209.44765 l
132.07175 209.686872 l
132.787501 209.926094 l
132.787501 210.64376 l
133.483087 210.882982 l
133.483087 211.600648 l
134.159614 211.83987 l
134.159614 213.275203 l
134.818098 213.514425 l
134.818098 214.710535 l
135.459476 214.949757 l
135.459476 216.385089 l
136.084615 216.624311 l
136.084615 217.102755 l
136.694317 217.341977 l
136.694317 217.820421 l
137.289326 218.059643 l
137.289326 218.77731 l
138.992876 219.494976 l
141.095565 219.734198 l
145.681232 219.97342 l
147.689792 220.451864 l
147.689792 220.691086 l
148.449596 221.16953 l
148.449596 221.647974 l
150.252709 222.844084 l
150.252709 223.322528 l
150.598053 223.56175 l
150.598053 223.800972 l
151.274579 224.279417 l
152.574441 224.518639 l
152.574441 224.757861 l
153.19958 225.236305 l
153.809282 225.475527 l
156.38068 225.953971 l
156.38068 226.193193 l
156.650537 226.432415 l
157.442851 226.671637 l
157.95728 227.150081 l
157.95728 227.389303 l
159.677794 228.106969 l
159.677794 228.346191 l
160.148126 228.824635 l
160.609666 229.063857 l
163.211193 229.542301 l
163.211193 229.781524 l
164.804758 230.020746 l
164.804758 230.259968 l
165.564561 230.49919 l
165.564561 230.738412 l
165.750915 230.977634 l
168.222143 231.456078 l
168.555819 231.6953 l
168.555819 231.934522 l
169.209942 232.412966 l
169.209942 233.130632 l
169.689407 233.609076 l
169.847182 233.848298 l
170.773228 234.08752 l
171.07435 234.326742 l
173.359603 234.565964 l
174.032442 234.805186 l
175.072245 235.044408 l
175.199195 235.28363 l
176.434036 235.762075 l
177.263091 236.001297 l
178.289683 237.197407 l
178.401158 237.436629 l
178.732595 237.675851 l
179.806315 237.915073 l
179.806315 238.154295 l
180.015568 238.393517 l
180.835284 238.632739 l
181.135794 238.871961 l
181.135794 239.111183 l
183.234419 239.350405 l
183.597539 240.068071 l
184.827984 240.546515 l
184.91357 240.785737 l
185.587787 241.024959 l
185.835947 241.503404 l
186.324907 241.981848 l
187.506552 242.22107 l
188.486809 242.699514 l
189.500686 242.938736 l
189.852927 243.177958 l
189.852927 243.41718 l
189.992428 243.656402 l
191.995554 244.134846 l
192.566118 244.374068 l
195.236486 245.091734 l
196.390256 245.570178 l
201.597605 246.048622 l
201.985779 246.527066 l
204.659948 247.005511 l
204.698319 247.244733 l
205.003159 247.483955 l
205.564783 247.723177 l
205.63871 247.962399 l
206.0414 248.201621 l
206.366058 248.680065 l
206.401869 249.158509 l
206.580149 249.636953 l
206.651102 249.876175 l
206.897845 250.115397 l
207.037741 250.833063 l
207.555405 251.072285 l
207.555405 251.311507 l
207.995433 251.789951 l
208.624765 252.029173 l
209.142565 252.986062 l
210.115917 253.225284 l
210.177416 253.703728 l
212.962525 253.94295 l
214.427151 254.182172 l
217.75979 254.421394 l
223.498935 254.660616 l
224.584844 254.899838 l
225.076827 255.13906 l
226.273538 255.378282 l
232.003178 255.617504 l
234.863458 256.095948 l
234.976205 256.33517 l
235.663978 256.574392 l
238.000433 256.813614 l
239.923941 257.292058 l
242.789201 257.770502 l
243.55596 258.009724 l
245.650051 258.488169 l
249.080048 258.727391 l
250.021332 258.966613 l
250.222351 259.205835 l
252.448542 259.445057 l
253.22346 259.684279 l
253.293203 259.923501 l
256.338585 260.162723 l
256.433117 260.401945 l
262.906975 260.880389 l
265.080524 261.119611 l
265.865595 261.358833 l
266.003654 261.598055 l
267.48249 262.076499 l
269.652047 262.315721 l
269.825439 262.554943 l
271.144421 262.794165 l
271.31026 263.033387 l
273.208452 263.272609 l
274.176877 263.511831 l
276.11751 263.751053 l
276.295423 263.990276 l
280.382252 264.46872 l
281.246865 264.707942 l
281.291725 264.947164 l
281.980175 265.186386 l
285.033853 265.425608 l
285.199213 265.904052 l
285.905629 266.143274 l
286.238 266.621718 l
286.614637 266.86094 l
293.743682 267.578606 l
293.885896 267.817828 l
295.488839 268.296272 l
295.818374 268.535494 l
296.981254 268.774716 l
299.528025 269.013938 l
300.735913 269.25316 l
301.215921 269.492382 l
306.029226 269.731605 l
307.34674 269.970827 l
310.565419 270.210049 l
315.790393 270.449271 l
317.258337 270.688493 l
317.554996 270.927715 l
321.536825 271.166937 l
323.242108 271.406159 l
323.800027 271.645381 l
332.623473 271.884603 l
334.293641 272.363047 l
339.70693 272.841491 l
348.77742 273.080713 l
350.461192 273.319935 l
351.310792 273.559157 l
355.683438 274.037601 l
361 274.108927 l
361 274.108927 l
stroke
grestore
[1.5 2.475] 0 setdash
0.173 0.627 0.173 setrgbcolor
gsave
311.4 295.2 45 39.6 clipbox
-1 142.465284 m
45 142.465478 l
45 145.096921 l
62.114965 145.336143 l
62.114965 148.446029 l
72.126578 148.685251 l
72.126578 151.795138 l
79.229931 152.03436 l
79.229931 155.144246 l
84.739719 155.383468 l
84.739719 160.885575 l
89.241544 161.124797 l
89.241544 165.909238 l
93.047782 166.14846 l
93.047782 173.0859 l
96.344896 173.325122 l
96.344896 180.023339 l
99.253157 180.262561 l
99.253157 191.745219 l
101.854684 191.984441 l
101.854684 198.443436 l
104.208052 198.682658 l
104.208052 204.663209 l
106.356509 204.902431 l
106.356509 207.533874 l
108.332898 207.773096 l
108.332898 208.25154 l
122.420606 208.490762 l
123.471474 208.729984 l
128.981263 209.44765 l
131.334631 210.165316 l
131.334631 210.404538 l
132.07175 210.64376 l
132.07175 211.600648 l
132.787501 211.83987 l
132.787501 212.318314 l
133.483087 212.557536 l
133.483087 213.514425 l
134.818098 213.992869 l
134.818098 215.667423 l
135.459476 215.906645 l
135.459476 216.863533 l
136.084615 217.102755 l
136.084615 218.298865 l
136.694317 218.538088 l
136.694317 219.255754 l
137.289326 219.494976 l
137.289326 220.691086 l
138.437983 220.930308 l
138.992876 221.16953 l
145.681232 221.408752 l
147.689792 221.647974 l
147.689792 221.887196 l
148.820906 222.126418 l
148.820906 222.604862 l
149.186716 222.844084 l
149.186716 223.56175 l
149.547185 223.800972 l
149.547185 224.997083 l
149.902467 225.236305 l
149.902467 225.475527 l
150.252709 225.714749 l
150.252709 225.953971 l
150.598053 226.193193 l
151.606016 226.432415 l
151.606016 226.910859 l
151.933063 227.150081 l
151.933063 227.389303 l
155.831953 227.628525 l
156.38068 227.867747 l
156.917477 228.346191 l
156.917477 228.585413 l
157.701405 228.824635 l
157.95728 229.063857 l
157.95728 229.781524 l
158.461209 230.259968 l
158.461209 230.738412 l
158.709369 230.977634 l
158.709369 231.216856 l
158.955059 231.456078 l
158.955059 231.934522 l
160.609666 232.173744 l
163.820895 232.412966 l
163.820895 232.652188 l
164.219157 233.130632 l
164.611096 233.369854 l
164.611096 233.609076 l
164.996912 234.08752 l
164.996912 234.326742 l
165.376791 234.805186 l
165.376791 235.044408 l
165.564561 235.28363 l
165.564561 235.522853 l
165.935872 236.001297 l
169.048028 236.240519 l
170.314546 237.197407 l
170.314546 237.436629 l
170.621279 237.675851 l
170.621279 237.915073 l
170.924248 238.154295 l
170.924248 238.393517 l
171.223545 238.871961 l
171.519257 239.111183 l
173.495645 239.589627 l
173.630943 239.828849 l
174.164837 240.068071 l
174.296527 240.307293 l
174.687432 240.546515 l
174.816371 240.785737 l
174.816371 241.024959 l
175.072245 241.503404 l
175.576174 241.742626 l
176.792759 241.981848 l
177.263091 242.22107 l
177.263091 242.460292 l
177.494939 242.699514 l
178.065211 242.938736 l
178.065211 243.177958 l
178.951106 243.41718 l
180.326159 243.656402 l
180.428827 243.895624 l
184.220425 245.091734 l
184.30814 245.330956 l
184.655915 245.570178 l
187.659917 245.8094 l
188.998951 246.287844 l
189.992428 246.766288 l
190.474568 247.005511 l
190.678352 247.244733 l
190.678352 247.483955 l
192.377391 247.723177 l
192.69114 247.962399 l
195.404648 248.201621 l
196.33652 248.440843 l
201.81401 248.680065 l
202.198824 249.158509 l
202.452074 249.876175 l
202.78575 250.115397 l
204.389669 250.354619 l
204.583027 250.593841 l
205.378991 251.072285 l
205.601774 252.029173 l
206.473335 252.268395 l
206.757151 254.182172 l
207.691636 254.421394 l
207.860873 254.899838 l
207.860873 255.13906 l
208.949661 255.617504 l
209.046301 255.856726 l
209.743674 256.095948 l
210.360998 256.574392 l
211.200116 256.813614 l
214.193351 257.292058 l
219.186183 257.770502 l
221.329308 258.009724 l
223.228881 258.488169 l
228.564272 259.205835 l
228.897459 259.445057 l
230.309596 259.684279 l
230.606764 259.923501 l
232.679018 260.401945 l
241.398109 261.119611 l
243.674879 261.837277 l
243.682787 262.076499 l
246.770484 262.315721 l
247.701581 262.554943 l
248.074997 262.794165 l
248.187247 263.033387 l
249.861793 263.511831 l
249.941691 263.751053 l
255.284011 263.990276 l
255.608066 264.229498 l
256.905051 264.46872 l
257.208641 264.707942 l
258.282167 264.947164 l
258.703144 265.186386 l
268.789233 266.621718 l
269.082085 266.86094 l
270.780358 267.578606 l
273.194099 268.05705 l
279.704135 268.774716 l
280.626065 269.25316 l
284.67724 269.970827 l
285.282946 270.210049 l
287.130283 270.449271 l
290.576802 270.688493 l
291.344674 270.927715 l
294.339212 271.406159 l
299.051516 271.645381 l
299.101007 271.884603 l
299.870738 272.123825 l
300.479687 272.602269 l
301.081714 272.841491 l
307.526113 273.319935 l
313.566912 273.559157 l
313.808746 273.798379 l
316.289607 274.037601 l
320.400823 274.276823 l
322.491592 274.516045 l
323.171711 274.755267 l
326.09651 274.994489 l
332.244155 275.233712 l
335.387515 275.951378 l
336.146192 276.1906 l
341.479416 276.429822 l
341.561665 276.669044 l
343.788094 277.147488 l
349.729059 277.38671 l
351.959532 277.625932 l
352.126159 277.865154 l
361 277.964403 l
361 277.964403 l
stroke
grestore
0.800 setlinewidth
0 setlinejoin
2 setlinecap
[] 0 setdash
0.000 setgray
gsave
45 39.6 m
45 334.8 l
stroke
grestore
gsave
356.4 39.6 m
356.4 334.8 l
stroke
grestore
gsave
45 39.6 m
356.4 39.6 l
stroke
grestore
gsave
45 334.8 m
356.4 334.8 l
stroke
grestore
/DejaVuSans findfont
12.000 scalefont
setfont
gsave
180.004687 340.800000 translate
0.000000 rotate
0.000000 0.000000 m /P glyphshow
7.236328 0.000000 m /R glyphshow
15.574219 0.000000 m /O glyphshow
25.019531 0.000000 m /O glyphshow
34.464844 0.000000 m /F glyphshow
grestore
1.000 setlinewidth
0 setlinecap
0.800 setgray
gsave
52 282.784375 m
189.703125 282.784375 l
191.036458 282.784375 191.703125 283.451042 191.703125 284.784375 c
191.703125 327.8 l
191.703125 329.133333 191.036458 329.8 189.703125 329.8 c
52 329.8 l
50.666667 329.8 50 329.133333 50 327.8 c
50 284.784375 l
50 283.451042 50.666667 282.784375 52 282.784375 c
cl
gsave
1.000 setgray
fill
grestore
stroke
grestore
1.500 setlinewidth
1 setlinejoin
2 setlinecap
[] 0 setdash
0.122 0.467 0.706 setrgbcolor
gsave
54 321.70625 m
74 321.70625 l
stroke
grestore
0.000 setgray
/DejaVuSans findfont
10.000 scalefont
setfont
gsave
82.000000 318.206250 translate
0.000000 rotate
0.000000 0.000000 m /R glyphshow
6.948242 0.000000 m /o glyphshow
13.066406 0.000000 m /u glyphshow
19.404297 0.000000 m /n glyphshow
25.742188 0.000000 m /d glyphshow
32.089844 0.000000 m /i glyphshow
34.868164 0.000000 m /n glyphshow
41.206055 0.000000 m /g glyphshow
47.553711 0.000000 m /S glyphshow
53.901367 0.000000 m /a glyphshow
60.029297 0.000000 m /t glyphshow
63.950195 0.000000 m /plus glyphshow
72.329102 0.000000 m /S glyphshow
78.676758 0.000000 m /o glyphshow
84.794922 0.000000 m /P glyphshow
90.825195 0.000000 m /l glyphshow
93.603516 0.000000 m /e glyphshow
99.755859 0.000000 m /x glyphshow
grestore
0 setlinecap
[9.6 2.4 1.5 2.4] 0 setdash
1.000 0.498 0.055 setrgbcolor
gsave
54 307.034375 m
74 307.034375 l
stroke
grestore
0.000 setgray
gsave
82.000000 303.534375 translate
0.000000 rotate
0.000000 0.000000 m /n glyphshow
6.337891 0.000000 m /a glyphshow
12.465820 0.000000 m /i glyphshow
15.244141 0.000000 m /v glyphshow
21.162109 0.000000 m /e glyphshow
grestore
[1.5 2.475] 0 setdash
0.173 0.627 0.173 setrgbcolor
gsave
54 292.3625 m
74 292.3625 l
stroke
grestore
0.000 setgray
gsave
82.000000 288.862500 translate
0.000000 rotate
0.000000 0.000000 m /t glyphshow
3.920898 0.000000 m /i glyphshow
6.699219 0.000000 m /g glyphshow
13.046875 0.000000 m /h glyphshow
19.384766 0.000000 m /t glyphshow
grestore

end
showpage
